<?xml version="1.0" encoding="UTF-8" standalone="no"?>
<!-- Created with Inkscape (http://www.inkscape.org/) -->

<svg
   xmlns:dc="http://purl.org/dc/elements/1.1/"
   xmlns:cc="http://creativecommons.org/ns#"
   xmlns:rdf="http://www.w3.org/1999/02/22-rdf-syntax-ns#"
   xmlns:svg="http://www.w3.org/2000/svg"
   xmlns="http://www.w3.org/2000/svg"
   xmlns:xlink="http://www.w3.org/1999/xlink"
   xmlns:sodipodi="http://sodipodi.sourceforge.net/DTD/sodipodi-0.dtd"
   xmlns:inkscape="http://www.inkscape.org/namespaces/inkscape"
   width="50mm"
   height="90mm"
   viewBox="0 0 50 90"
   version="1.1"
   id="svg8"
   inkscape:version="0.92.3 (2405546, 2018-03-11)"
   sodipodi:docname="card.svg">
  <defs
     id="defs2" />
  <sodipodi:namedview
     id="base"
     pagecolor="#ffffff"
     bordercolor="#666666"
     borderopacity="1.0"
     inkscape:pageopacity="0.0"
     inkscape:pageshadow="2"
     inkscape:zoom="2"
     inkscape:cx="27.80045"
     inkscape:cy="150.06187"
     inkscape:document-units="mm"
     inkscape:current-layer="layer5"
     showgrid="false"
     inkscape:lockguides="false"
     showguides="true"
     inkscape:guide-bbox="true"
     inkscape:window-width="1920"
     inkscape:window-height="1080"
     inkscape:window-x="0"
     inkscape:window-y="0"
     inkscape:window-maximized="1"
     inkscape:snap-others="false"
     inkscape:snap-bbox="true"
     inkscape:bbox-nodes="true"
     inkscape:snap-global="true">
    <inkscape:grid
       type="xygrid"
       id="grid815" />
    <sodipodi:guide
       position="5.0000001,5.0000001"
       orientation="1,0"
       id="guide819"
       inkscape:locked="false"
       inkscape:label=""
       inkscape:color="rgb(0,0,255)" />
    <sodipodi:guide
       position="45,5.0000001"
       orientation="1,0"
       id="guide821"
       inkscape:locked="false"
       inkscape:label=""
       inkscape:color="rgb(0,0,255)" />
    <sodipodi:guide
       position="5.0000001,85.000001"
       orientation="0,1"
       id="guide823"
       inkscape:locked="false"
       inkscape:label=""
       inkscape:color="rgb(0,0,255)" />
    <sodipodi:guide
       position="5.0000001,5.0000001"
       orientation="0,1"
       id="guide825"
       inkscape:locked="false"
       inkscape:label=""
       inkscape:color="rgb(0,0,255)" />
  </sodipodi:namedview>
  <metadata
     id="metadata5">
    <rdf:RDF>
      <cc:Work
         rdf:about="">
        <dc:format>image/svg+xml</dc:format>
        <dc:type
           rdf:resource="http://purl.org/dc/dcmitype/StillImage" />
        <dc:title />
      </cc:Work>
    </rdf:RDF>
  </metadata>
  <g
     inkscape:label="Layer 1"
     inkscape:groupmode="layer"
     id="layer1"
     transform="translate(0,-207)"
     sodipodi:insensitive="true">
    <rect
       style="display:inline;opacity:1;fill:#000000;fill-opacity:1;stroke:#000000;stroke-width:0.07906364;stroke-miterlimit:4;stroke-dasharray:none;stroke-opacity:1;paint-order:markers fill stroke"
       id="rect1084"
       width="50.202301"
       height="71.000397"
       x="177.79628"
       y="31.712204"
       transform="rotate(90)" />
    <path
       style="display:inline;fill:#ffffff;stroke:#000000;stroke-width:0.03162545px;stroke-linecap:butt;stroke-linejoin:miter;stroke-opacity:1"
       d="m -102.6968,184.7329 v 7.82118 l 71.000391,5.13264 v -18.00495 z"
       id="path1038"
       inkscape:connector-curvature="0" />
    <image
       y="31.672684"
       x="184.31728"
       id="image4303"
       xlink:href="data:image/png;base64,iVBORw0KGgoAAAANSUhEUgAAAQgAAAEICAYAAACj9mr/AAAABHNCSVQICAgIfAhkiAAABQRJREFU eJzt3UGu2zgQQMHxIPe/suYC88IFQTRlV+0Dy7LyQID9qc/zPM8/AP/j3+kLAO4lEEASCCAJBJAE AkgCASSBAJJAAEkggCQQQBIIIAkEkAQCSAIBJIEAkkAASSCAJBBAEgggCQSQBAJIAgEkgQCSQABJ IIAkEEASCCAJBJAEAkgCASSBANKf6Qv4fD7Tl3DU8zyjn7+6v6ev7/Tne37OsoIAkkAASSCAJBBA EgggCQSQBAJI43MQK9P7wCtv34ffvf7bf5/br+/258cKAkgCASSBAJJAAEkggCQQQBIIIF0/B7Fy eh95eh999zyF6euf/vyVb39+dllBAEkggCQQQBIIIAkEkAQCSAIBpNfPQXy70++NePt7MTjLCgJI AgEkgQCSQABJIIAkEEASCCCZg/hyqzmD3TmF3fMUzEnczQoCSAIBJIEAkkAASSCAJBBAEgggvX4O 4u375G+fAzg9J3Ha7fd3mhUEkAQCSAIBJIEAkkAASSCAJBBAun4O4vZ99GnTcxTT50mseH72WEEA SSCAJBBAEgggCQSQBAJIAgGkz+MP4q82Peew6+3X/+usIIAkEEASCCAJBJAEAkgCASSBANL4HMTp ffLp8wqmz0M4ff+m7d5fcxh/ZwUBJIEAkkAASSCAJBBAEgggCQSQxucgft3t+/S/Pgdy2u2/vxUE kAQCSAIBJIEAkkAASSCAJBBA+jN9Ad9+XsP0eQynz0u4fY7h7b/fNCsIIAkEkAQCSAIBJIEAkkAA SSCAND4Hcfrv3afnHKbf+zE95/D2OYBd0+c57LKCAJJAAEkggCQQQBIIIAkEkAQCSONzEG93+3sN bp8DWZk+b2J6jmT6+bGCAJJAAEkggCQQQBIIIAkEkAQCSONzELv7zNP72NP74NOfPz0HMn3exPTz cZoVBJAEAkgCASSBAJJAAEkggCQQQBqfg7h9n316H3t6TmTa6TmDb59j2GUFASSBAJJAAEkggCQQ QBIIIAkEkD7P8MH7t+9D796e6X3y6fu3a/o8idO///R7L1asIIAkEEASCCAJBJAEAkgCASSBANL4 HMRp0/v80/vo03Mmb5/D2PX2/15WEEASCCAJBJAEAkgCASSBAJJAAGn8vRin3b4Pffq8gNP//vbz OFZOz3nsfv7082sFASSBAJJAAEkggCQQQBIIIAkEkMbnIH79PIDpfe6V6fMkVm6fI3j7820FASSB AJJAAEkggCQQQBIIIAkEkMbnIFam97FXdve5p987cfr+Tr9347Tp+3uaFQSQBAJIAgEkgQCSQABJ IIAkEEC6fg5i5e3vZXj7eQqn5wBuP0/BezGAnyUQQBIIIAkEkAQCSAIBJIEA0uvnIN7u9n3w6eu7 fY5i9/5M/74rVhBAEgggCQSQBAJIAgEkgQCSQADJHMSw6fMWdp2eA5j+/qfP65j+fitWEEASCCAJ BJAEAkgCASSBAJJAAOn1cxDT+8SnTb83Y+X290J8+/WdZgUBJIEAkkAASSCAJBBAEgggCQSQrp+D mN7nP233+02fp3D7eyem31tx+vc9zQoCSAIBJIEAkkAASSCAJBBAEgggfZ7pjVbgWlYQQBIIIAkE kAQCSAIBJIEAkkAASSCAJBBAEgggCQSQBAJIAgEkgQCSQABJIIAkEEASCCAJBJAEAkgCASSBAJJA AEkggCQQQBIIIAkEkAQCSAIBJIEAkkAA6T/ZR6QKboWofwAAAABJRU5ErkJggg== "
       style="display:inline;image-rendering:optimizeSpeed"
       preserveAspectRatio="none"
       height="8.7340155"
       width="8.7340155"
       transform="rotate(90)" />
    <g
       transform="matrix(0.04099399,0.0109843,-0.0109843,0.04099399,-90.500092,161.69464)"
       style="opacity:1"
       id="g1030">
      <text
         id="text1112-5"
         y="54.699207"
         x="854.76398"
         style="font-style:normal;font-weight:normal;font-size:23.680336px;line-height:1.25;font-family:sans-serif;letter-spacing:0px;word-spacing:0px;fill:#ffffff;fill-opacity:1;stroke:none;stroke-width:0.59200835"
         xml:space="preserve"
         transform="rotate(75)"><tspan
           style="font-style:normal;font-variant:normal;font-weight:bold;font-stretch:normal;font-size:118.40166473px;font-family:Konstruktor;-inkscape-font-specification:'Konstruktor Bold';fill:#ffffff;stroke-width:0.59200835"
           y="54.699207"
           x="854.76398"
           id="tspan1110-1"
           sodipodi:role="line">физическая</tspan><tspan
           id="tspan1145"
           style="font-style:normal;font-variant:normal;font-weight:bold;font-stretch:normal;font-size:118.40166473px;font-family:Konstruktor;-inkscape-font-specification:'Konstruktor Bold';stroke-width:0.59200835"
           y="132.17842"
           x="854.76398"
           sodipodi:role="line" /><tspan
           id="tspan1114-9"
           style="font-style:normal;font-variant:normal;font-weight:bold;font-stretch:normal;font-size:157.86889648px;font-family:Konstruktor;-inkscape-font-specification:'Konstruktor Bold';stroke-width:0.59200835"
           y="161.77884"
           x="854.76398"
           sodipodi:role="line" /></text>
      <g
         id="g873"
         transform="matrix(0.19286643,0.71978733,-0.71978733,0.19286643,1436.1922,7.9542351)">
        <text
           xml:space="preserve"
           style="font-style:normal;font-weight:normal;font-size:43.88055038px;line-height:1.25;font-family:sans-serif;letter-spacing:0px;word-spacing:0px;fill:#ffffff;fill-opacity:1;stroke:none;stroke-width:1.09701371"
           x="754.64307"
           y="1778.6715"
           id="text1112"><tspan
             sodipodi:role="line"
             x="754.64307"
             y="1778.6715"
             style="font-style:normal;font-variant:normal;font-weight:bold;font-stretch:normal;font-size:219.40274048px;font-family:Konstruktor;-inkscape-font-specification:'Konstruktor Bold';fill:#ffffff;stroke-width:1.09701371"
             id="tspan1171">летняя</tspan><tspan
             id="tspan951"
             sodipodi:role="line"
             x="754.64307"
             y="1922.2434"
             style="font-style:normal;font-variant:normal;font-weight:bold;font-stretch:normal;font-size:219.40274048px;font-family:Konstruktor;-inkscape-font-specification:'Konstruktor Bold';fill:#ffffff;stroke-width:1.09701371" /><tspan
             sodipodi:role="line"
             x="754.64307"
             y="1977.0941"
             style="font-style:normal;font-variant:normal;font-weight:900;font-stretch:normal;font-size:292.5369873px;font-family:'Giorgio Sans LCG';-inkscape-font-specification:'Giorgio Sans LCG Heavy';stroke-width:1.09701371"
             id="tspan1114" /></text>
        <text
           xml:space="preserve"
           style="font-style:normal;font-weight:normal;font-size:43.88055038px;line-height:1.25;font-family:sans-serif;letter-spacing:0px;word-spacing:0px;fill:#ffffff;fill-opacity:1;stroke:none;stroke-width:1.09701371"
           x="876.08868"
           y="2131.0659"
           id="text1112-5-2"><tspan
             id="tspan953"
             sodipodi:role="line"
             x="876.08868"
             y="2131.0659"
             style="font-style:normal;font-variant:normal;font-weight:bold;font-stretch:normal;font-size:219.40274048px;font-family:Konstruktor;-inkscape-font-specification:'Konstruktor Bold';fill:#ffffff;stroke-width:1.09701371">школа</tspan><tspan
             sodipodi:role="line"
             x="876.08868"
             y="2274.6377"
             style="font-style:normal;font-variant:normal;font-weight:900;font-stretch:normal;font-size:219.40274048px;font-family:'Giorgio Sans LCG';-inkscape-font-specification:'Giorgio Sans LCG Heavy';stroke-width:1.09701371"
             id="tspan1145-6" /><tspan
             sodipodi:role="line"
             x="876.08868"
             y="2329.4885"
             style="font-style:normal;font-variant:normal;font-weight:900;font-stretch:normal;font-size:292.5369873px;font-family:'Giorgio Sans LCG';-inkscape-font-specification:'Giorgio Sans LCG Heavy';stroke-width:1.09701371"
             id="tspan1114-9-1" /></text>
      </g>
    </g>
    <text
       xml:space="preserve"
       style="font-style:normal;font-weight:normal;font-size:2.10836339px;line-height:1.25;font-family:sans-serif;letter-spacing:0px;word-spacing:0px;fill:#ffffff;fill-opacity:1;stroke:none;stroke-width:0.03162545"
       x="-59.073265"
       y="226.39897"
       id="text1141"><tspan
         sodipodi:role="line"
         x="-59.073265"
         y="226.39897"
         id="tspan1148"
         style="font-style:normal;font-variant:normal;font-weight:normal;font-stretch:normal;font-family:B52;-inkscape-font-specification:B52;stroke-width:0.03162545">http://physsummer.ru</tspan></text>
  </g>
  <g
     inkscape:groupmode="layer"
     id="layer2"
     inkscape:label="background"
     style="display:inline"
     transform="translate(0,40)"
     sodipodi:insensitive="true">
    <path
       transform="rotate(-90)"
       style="opacity:1;fill:#000000;fill-opacity:1;stroke:none;stroke-width:0.65675557;stroke-miterlimit:4;stroke-dasharray:none;stroke-opacity:1;paint-order:markers fill stroke"
       d="M -50,0 H 40 V 50 H -50 Z"
       id="rect923"
       inkscape:connector-curvature="0" />
    <path
       style="display:inline;fill:#ffffff;stroke:#000000;stroke-width:0.04156649px;stroke-linecap:butt;stroke-linejoin:miter;stroke-opacity:1"
       d="m 6.8876822,49.959152 10.6636188,2e-6 6.998001,-89.958379 H 8.319607e-4 Z"
       id="path1038-3"
       inkscape:connector-curvature="0" />
  </g>
  <g
     inkscape:groupmode="layer"
     id="layer5"
     inkscape:label="flower"
     transform="translate(0,40)">
    <g
       transform="rotate(-90,-109.79677,101.6831)"
       id="g1078">
      <path
         style="color:#000000;font-style:normal;font-variant:normal;font-weight:normal;font-stretch:normal;font-size:medium;line-height:normal;font-family:sans-serif;font-variant-ligatures:normal;font-variant-position:normal;font-variant-caps:normal;font-variant-numeric:normal;font-variant-alternates:normal;font-feature-settings:normal;text-indent:0;text-align:start;text-decoration:none;text-decoration-line:none;text-decoration-style:solid;text-decoration-color:#000000;letter-spacing:normal;word-spacing:normal;text-transform:none;writing-mode:lr-tb;direction:ltr;text-orientation:mixed;dominant-baseline:auto;baseline-shift:baseline;text-anchor:start;white-space:normal;shape-padding:0;clip-rule:nonzero;display:inline;overflow:visible;visibility:visible;opacity:1;isolation:auto;mix-blend-mode:normal;color-interpolation:sRGB;color-interpolation-filters:linearRGB;solid-color:#000000;solid-opacity:1;vector-effect:none;fill:#ffffff;fill-opacity:1;fill-rule:nonzero;stroke:none;stroke-width:0.74011093;stroke-linecap:butt;stroke-linejoin:miter;stroke-miterlimit:4;stroke-dasharray:none;stroke-dashoffset:0;stroke-opacity:1;color-rendering:auto;image-rendering:auto;shape-rendering:auto;text-rendering:auto;enable-background:accumulate"
         d="m -24.010325,254.8527 c -0.114558,-0.41977 -0.427665,-1.36837 -1.097995,-2.24035 -0.893789,-1.16259 -2.506442,-2.19076 -4.965727,-1.59384 l -0.239325,0.0532 0.02465,0.2433 c 0,0 0.258555,1.299 1.152325,2.46163 0.893771,1.16263 2.506238,2.19093 4.965419,1.59393 l 0.267986,-0.073 -0.05295,-0.22358 c 0,0 -0.01599,-0.0811 -0.05428,-0.22101 z m -1.314484,-1.23134 c -0.743393,-0.65228 -1.800992,-1.4548 -3.050465,-2.03775 1.285673,0.0747 2.107103,0.73459 2.680023,1.47982 0.141548,0.18419 0.263117,0.37244 0.370442,0.55793 z m 0.161937,1.16904 c -1.703377,0.16776 -2.715258,-0.59135 -3.386996,-1.46519 -0.348133,-0.45283 -0.586858,-0.93274 -0.744907,-1.32521 1.852435,0.70836 3.411085,2.08322 4.131903,2.7904 z"
         id="path4199-6"
         inkscape:connector-curvature="0" />
      <path
         style="color:#000000;font-style:normal;font-variant:normal;font-weight:normal;font-stretch:normal;font-size:medium;line-height:normal;font-family:sans-serif;font-variant-ligatures:normal;font-variant-position:normal;font-variant-caps:normal;font-variant-numeric:normal;font-variant-alternates:normal;font-feature-settings:normal;text-indent:0;text-align:start;text-decoration:none;text-decoration-line:none;text-decoration-style:solid;text-decoration-color:#000000;letter-spacing:normal;word-spacing:normal;text-transform:none;writing-mode:lr-tb;direction:ltr;text-orientation:mixed;dominant-baseline:auto;baseline-shift:baseline;text-anchor:start;white-space:normal;shape-padding:0;clip-rule:nonzero;display:inline;overflow:visible;visibility:visible;opacity:1;isolation:auto;mix-blend-mode:normal;color-interpolation:sRGB;color-interpolation-filters:linearRGB;solid-color:#000000;solid-opacity:1;vector-effect:none;fill:#ffffff;fill-opacity:1;fill-rule:nonzero;stroke:none;stroke-width:0.74011093;stroke-linecap:butt;stroke-linejoin:miter;stroke-miterlimit:4;stroke-dasharray:none;stroke-dashoffset:0;stroke-opacity:1;color-rendering:auto;image-rendering:auto;shape-rendering:auto;text-rendering:auto;enable-background:accumulate"
         d="m -23.66275,244.52028 -0.254643,-0.0118 c 0,0 -1.545959,-0.0944 -3.124626,0.56755 -1.578685,0.66198 -3.21327,2.16094 -3.273351,5.12207 l 0.0014,0.26175 0.256864,0.005 c 0,0 1.546004,0.0948 3.124658,-0.56726 1.57867,-0.66196 3.213076,-2.1608 3.273042,-5.12202 z m -0.913603,1.66499 c -0.419622,1.71441 -1.520908,2.56081 -2.641844,3.03083 -0.33424,0.14023 -0.667384,0.24201 -0.98162,0.31642 1.626312,-1.03147 2.87121,-2.39708 3.623464,-3.34725 z m -0.248226,-0.90123 c -0.753371,1.01095 -2.447331,3.02702 -4.690114,4.13918 0.281187,-2.14648 1.507632,-3.13935 2.758717,-3.66394 0.706183,-0.29613 1.406716,-0.42201 1.931397,-0.47524 z"
         id="path4205-6"
         inkscape:connector-curvature="0" />
      <path
         transform="rotate(90)"
         style="opacity:1;fill:#ffffff;fill-opacity:1;stroke:none;stroke-width:0.06847113;stroke-miterlimit:4;stroke-dasharray:none;stroke-opacity:1;paint-order:markers fill stroke"
         d="m 250.46056,18.866758 h 0.61102 v 11.446586 h -0.61102 z"
         id="rect1109" />
      <path
         style="color:#000000;font-style:normal;font-variant:normal;font-weight:normal;font-stretch:normal;font-size:medium;line-height:normal;font-family:sans-serif;font-variant-ligatures:normal;font-variant-position:normal;font-variant-caps:normal;font-variant-numeric:normal;font-variant-alternates:normal;font-feature-settings:normal;text-indent:0;text-align:start;text-decoration:none;text-decoration-line:none;text-decoration-style:solid;text-decoration-color:#000000;letter-spacing:normal;word-spacing:normal;text-transform:none;writing-mode:lr-tb;direction:ltr;text-orientation:mixed;dominant-baseline:auto;baseline-shift:baseline;text-anchor:start;white-space:normal;shape-padding:0;clip-rule:nonzero;display:inline;overflow:visible;visibility:visible;opacity:1;isolation:auto;mix-blend-mode:normal;color-interpolation:sRGB;color-interpolation-filters:linearRGB;solid-color:#000000;solid-opacity:1;vector-effect:none;fill:#aa0000;fill-opacity:1;fill-rule:nonzero;stroke:none;stroke-width:0.74011093;stroke-linecap:butt;stroke-linejoin:miter;stroke-miterlimit:4;stroke-dasharray:none;stroke-dashoffset:0;stroke-opacity:1;color-rendering:auto;image-rendering:auto;shape-rendering:auto;text-rendering:auto;enable-background:accumulate"
         d="m -11.789022,250.75717 c 0.003,-0.0568 0.003,-0.11426 -3.68e-4,-0.17211 v -3.5e-4 c -0.04679,-0.92547 -0.805927,-1.64429 -1.844826,-2.10187 -0.105905,-0.0467 -0.217654,-0.0892 -0.33026,-0.131 0.02787,-0.27367 0.04283,-0.54016 0.03711,-0.79281 -0.01922,-0.84474 -0.242774,-1.55005 -0.780769,-1.96777 l -3.51e-4,-1e-5 c -0.358711,-0.27846 -0.818746,-0.35755 -1.267042,-0.27562 -0.448319,0.082 -0.899568,0.30785 -1.351712,0.63957 -0.246981,0.18119 -0.494417,0.39762 -0.739668,0.64109 -0.05353,-0.0327 -0.107355,-0.069 -0.160647,-0.0992 -0.196488,-0.11165 -0.391145,-0.20564 -0.583627,-0.28178 l 0.106344,-0.53143 -8.19e-4,-3.5e-4 -0.105905,0.53141 c -0.277922,-0.11005 -0.551176,-0.18156 -0.817824,-0.20606 -0.451469,-0.0415 -0.897043,0.0617 -1.238326,0.34695 -0.510316,0.42635 -0.685806,1.11129 -0.644193,1.90446 0.0044,0.34455 0.10942,0.65592 0.10942,0.65592 -0.31529,0.19342 -0.13656,0.082 -0.289797,0.18415 -0.800232,0.54366 -1.326113,1.25566 -1.284972,2.07097 0.04445,0.87911 0.732262,1.5714 1.691572,2.03082 -0.136706,1.22148 0.02347,2.28266 0.737482,2.83721 0.358725,0.2784 0.819067,0.35757 1.26737,0.2756 0.448315,-0.082 0.899536,-0.30783 1.351707,-0.63957 0.191187,-0.14023 0.382532,-0.30403 0.573143,-0.48198 0.166793,0.117 0.333144,0.22675 0.498042,0.3204 0.480438,0.27289 0.950903,0.44629 1.402372,0.48784 0.451483,0.0415 0.89675,-0.0615 1.238018,-0.34665 0.511977,-0.42766 0.690356,-1.11427 0.648212,-1.91031 -0.0132,-0.23893 -0.04752,-0.48848 -0.09666,-0.74305 0.08609,-0.0438 0.17348,-0.087 0.25489,-0.13348 0.925278,-0.52863 1.58232,-1.25923 1.622364,-2.11116 z m -0.739354,-0.1349 2e-6,3.4e-4 c 0.02655,0.52937 -0.39478,1.11438 -1.250385,1.6032 -0.02347,0.0132 -0.05016,0.0255 -0.07408,0.0385 -0.15846,-0.5185 -0.377192,-1.05924 -0.659639,-1.606 0.191649,-0.53426 0.336878,-1.05713 0.434406,-1.55593 0.0482,0.0198 0.09959,0.0369 0.145813,0.0578 0.900021,0.3964 1.376971,0.9328 1.403929,1.46201 z m -1.782717,3.37724 c -0.01174,0.5213 -0.154692,0.8986 -0.381264,1.08787 -0.172629,0.14434 -0.389439,0.20585 -0.695782,0.17766 -0.306335,-0.0281 -0.68943,-0.1587 -1.104545,-0.39452 -0.111465,-0.0634 -0.225491,-0.13544 -0.340783,-0.21318 0.239854,-0.26934 0.474882,-0.56736 0.703511,-0.88982 0.637727,-0.10014 1.230391,-0.25776 1.765102,-0.45912 0.02523,0.16047 0.04429,0.31579 0.05105,0.45912 0.0044,0.0803 0.0044,0.15754 0.003,0.23202 z m -0.219368,-1.41971 c -0.317344,0.12424 -0.666374,0.23105 -1.037184,0.31916 0.07481,-0.12687 0.149589,-0.25387 0.221843,-0.38621 0.166536,-0.30494 0.316316,-0.61181 0.454477,-0.91792 0.147545,0.33919 0.268881,0.66958 0.360864,0.98497 z m -0.143602,-4.98727 c 0.0058,0.16673 -0.0014,0.3486 -0.01511,0.53697 -0.55883,-0.14065 -1.170892,-0.23076 -1.82103,-0.25891 -0.307941,-0.31771 -0.621311,-0.60137 -0.935222,-0.84503 0.188278,-0.18037 0.37474,-0.34054 0.556123,-0.47361 0.389456,-0.28573 0.754396,-0.45474 1.047084,-0.50825 0.292556,-0.0536 0.498144,-0.009 0.68002,0.13219 0.272799,0.21181 0.463278,0.71265 0.488155,1.41659 z m -0.111771,1.27663 c -0.055,0.29657 -0.129668,0.60628 -0.223379,0.92534 -0.117493,-0.18661 -0.23947,-0.37296 -0.370136,-0.55767 -0.13832,-0.19568 -0.280996,-0.38121 -0.425141,-0.562 0.360733,0.0457 0.7023,0.11077 1.018667,0.19429 z m -0.538837,1.84882 c -0.185903,0.47604 -0.409125,0.96069 -0.670758,1.43978 l -1e-6,3.6e-4 c -0.17739,0.32492 -0.363885,0.63121 -0.555509,0.91792 -0.234744,0.0297 -0.473326,0.0541 -0.718649,0.0671 -0.422428,0.0222 -0.831504,0.0147 -1.224729,-0.0148 -0.207172,-0.2437 -0.410795,-0.50382 -0.607112,-0.78137 -0.327745,-0.46337 -0.608931,-0.9356 -0.844398,-1.40023 0.188393,-0.48693 0.416806,-0.98323 0.684663,-1.47377 0.132161,-0.24194 0.27039,-0.47002 0.410927,-0.69115 0.428469,-0.0839 0.881125,-0.14359 1.35325,-0.16836 0.22326,-0.0119 0.441759,-0.0132 0.657775,-0.01 0.292892,0.32028 0.581282,0.67324 0.855519,1.06098 v 3.5e-4 c 0.246467,0.34844 0.464332,0.70191 0.659022,1.05357 z m -0.936149,0.0569 c -0.02918,-0.75096 -0.673206,-1.34091 -1.425256,-1.31155 -0.751975,0.0292 -1.348526,0.66742 -1.319261,1.41844 0.02919,0.75069 0.673015,1.34073 1.424933,1.31155 0.752296,-0.0288 1.348835,-0.6673 1.319584,-1.41844 z m -0.87932,3.10013 c -0.09446,0.11574 -0.189057,0.22556 -0.283931,0.33091 -0.114553,-0.0973 -0.229644,-0.19979 -0.344803,-0.30898 0.177412,-5.5e-4 0.35678,-0.005 0.538216,-0.0148 0.0306,-8.9e-4 0.06014,-0.005 0.0905,-0.008 z m -0.43686,-5.99757 c -0.231985,0.0132 -0.458819,0.0353 -0.682507,0.062 0.101063,-0.13011 0.202594,-0.2543 0.30464,-0.37261 0.124967,0.0953 0.251192,0.20005 0.377868,0.31049 z m -0.373861,6.85617 c -0.140517,0.1269 -0.279985,0.24554 -0.416163,0.34543 -0.389468,0.2857 -0.754368,0.45472 -1.047069,0.50825 -0.292718,0.0536 -0.498437,0.009 -0.680334,-0.13216 -0.339258,-0.26348 -0.546781,-0.97711 -0.471489,-1.96905 0.518805,0.1705 1.094868,0.29436 1.715362,0.35847 0.294654,0.32832 0.595908,0.62826 0.899684,0.88917 z m -0.220593,-9.86147 -7.63e-4,-3.5e-4 -0.06706,0.26848 -0.01032,-0.2796 h -7.62e-4 l 0.01032,0.28177 -0.111916,0.44738 7.61e-4,3.5e-4 0.111222,-0.4452 0.01613,0.4554 h 7.64e-4 l -0.01599,-0.45756 z m -0.405048,2.27892 c -0.249958,0.29532 -0.495105,0.61733 -0.731013,0.96984 -0.517843,0.11896 -0.998561,0.2759 -1.432969,0.46498 -0.107958,-0.82012 0.0443,-1.40885 0.347282,-1.6619 0.172646,-0.14434 0.389439,-0.20616 0.695782,-0.17797 0.306349,0.0281 0.689423,0.15904 1.104548,0.39487 0.0057,0.003 0.01043,0.008 0.01624,0.01 z m -0.97138,5.836 c -0.328773,-0.0659 -0.638241,-0.14749 -0.918544,-0.24624 0.05075,-0.2701 0.115878,-0.54998 0.198668,-0.83885 0.171585,0.29202 0.357987,0.58377 0.562006,0.87222 0.05179,0.0732 0.105302,0.14189 0.157873,0.21287 z m -0.319471,-3.94421 c -0.01463,0.0258 -0.02917,0.0496 -0.04328,0.0754 -0.163288,0.29901 -0.310112,0.59982 -0.446144,0.9 -0.08976,-0.2365 -0.168975,-0.46865 -0.23017,-0.69116 0.222705,-0.10321 0.462149,-0.1994 0.719573,-0.28425 z m -0.882697,1.94615 c -0.177091,0.4957 -0.313966,0.98138 -0.410007,1.44718 -0.689019,-0.3747 -1.054945,-0.84093 -1.078279,-1.30198 -0.02376,-0.47201 0.310825,-0.98752 0.989611,-1.44037 0.125118,0.41955 0.291131,0.85388 0.498671,1.29517 z"
         id="path4169-9-1"
         inkscape:connector-curvature="0"
         sodipodi:nodetypes="ccccccccscccccccccccccccssccsccccccccccccccccccccccccccccccccccccccccccccccccccccccccccccccccccccccccccccsscccccccccccccccccccccccccccccccccccccccc" />
    </g>
  </g>
  <g
     inkscape:groupmode="layer"
     id="layer4"
     inkscape:label="text"
     transform="translate(0,40)">
    <g
       id="g1249"
       transform="rotate(-90,24.735417,24.735417)">
      <g
         id="g1030-3"
         style="opacity:1"
         transform="matrix(0.03714109,0.00995192,-0.00995192,0.03714109,12.799009,-13.431441)">
        <g
           id="text1112-5-5"
           style="font-style:normal;font-weight:normal;font-size:23.680336px;line-height:1.25;font-family:sans-serif;letter-spacing:0px;word-spacing:0px;fill:#ffffff;fill-opacity:1;stroke:none;stroke-width:0.59200835"
           transform="rotate(75)"
           aria-label="физическая  ">
          <path
             inkscape:connector-curvature="0"
             id="path1123"
             style="font-style:normal;font-variant:normal;font-weight:bold;font-stretch:normal;font-size:118.40166473px;font-family:Konstruktor;-inkscape-font-specification:'Konstruktor Bold';fill:#ffffff;stroke-width:0.59200835"
             d="m 913.0176,-32.089213 v -9.472133 h -17.76025 v 9.472133 h -34.21808 v 87.025224 h 34.21808 v 9.353731 h 17.76025 v -9.353731 h 34.21808 v -87.025224 z m -34.21809,69.146572 v -51.386322 h 16.45784 v 51.386322 z m 50.67592,0 H 913.0176 v -51.386322 h 16.45783 z" />
          <path
             inkscape:connector-curvature="0"
             id="path1125"
             style="font-style:normal;font-variant:normal;font-weight:bold;font-stretch:normal;font-size:118.40166473px;font-family:Konstruktor;-inkscape-font-specification:'Konstruktor Bold';fill:#ffffff;stroke-width:0.59200835"
             d="m 977.77591,54.699207 v 0 l 16.45783,-15.984224 v 15.984224 h 17.76026 v -87.025223 h -17.76026 v 46.413452 l -16.45783,16.33943 v -62.752882 h -17.76025 v 87.025223 z" />
          <path
             inkscape:connector-curvature="0"
             id="path1127"
             style="font-style:normal;font-variant:normal;font-weight:bold;font-stretch:normal;font-size:118.40166473px;font-family:Konstruktor;-inkscape-font-specification:'Konstruktor Bold';fill:#ffffff;stroke-width:0.59200835"
             d="M 1076.7449,-1.1863784 V -32.326016 c -2.6048,0 -50.2023,0 -51.9783,0 0,1.302418 0,23.206726 0,24.5091443 h 17.7602 v -6.6304933 h 16.4578 v 6.038485 c 0,0 -11.7217,11.6033631 -19.773,19.654676 7.8145,7.81451 19.773,19.536275 19.773,19.536275 v 6.156887 h -16.4578 v -6.630494 h -17.7602 c 0,1.302419 0,23.206727 0,24.390743 h 17.7602 v 0 h 34.2181 V 25.572398 L 1063.1287,12.19301 c 0,0 0.3552,-0.355205 0.9472,-0.947214 3.1969,-3.1968446 12.669,-12.4321744 12.669,-12.4321744 z" />
          <path
             inkscape:connector-curvature="0"
             id="path1129"
             style="font-style:normal;font-variant:normal;font-weight:bold;font-stretch:normal;font-size:118.40166473px;font-family:Konstruktor;-inkscape-font-specification:'Konstruktor Bold';fill:#ffffff;stroke-width:0.59200835"
             d="m 1107.2777,54.699207 v 0 l 16.4579,-15.984224 v 15.984224 h 17.7602 v -87.025223 h -17.7602 v 46.413452 l -16.4579,16.33943 v -62.752882 h -17.7602 v 87.025223 z" />
          <path
             inkscape:connector-curvature="0"
             id="path1131"
             style="font-style:normal;font-variant:normal;font-weight:bold;font-stretch:normal;font-size:118.40166473px;font-family:Konstruktor;-inkscape-font-specification:'Konstruktor Bold';fill:#ffffff;stroke-width:0.59200835"
             d="M 1188.4865,-32.326016 V 11.837805 L 1172.0286,-4.6200267 V -32.326016 h -17.7602 V 2.4840732 l 34.2181,33.9812778 v 18.233856 h 17.7602 v -87.025223 z" />
          <path
             inkscape:connector-curvature="0"
             id="path1133"
             style="font-style:normal;font-variant:normal;font-weight:bold;font-stretch:normal;font-size:118.40166473px;font-family:Konstruktor;-inkscape-font-specification:'Konstruktor Bold';fill:#ffffff;stroke-width:0.59200835"
             d="m 1219.0193,54.699207 c 15.8658,0 35.9941,0 51.8599,0 V 30.308464 h -17.8786 v 6.630494 h -16.221 V 20.125921 c 9.5905,0 24.6275,0 34.0996,0 v -52.451937 c -15.8658,0 -35.9941,0 -51.8599,0 z m 17.7603,-69.146572 h 16.221 V 2.3656715 h -16.221 z" />
          <path
             inkscape:connector-curvature="0"
             id="path1135"
             style="font-style:normal;font-variant:normal;font-weight:bold;font-stretch:normal;font-size:118.40166473px;font-family:Konstruktor;-inkscape-font-specification:'Konstruktor Bold';fill:#ffffff;stroke-width:0.59200835"
             d="M 1326.5188,54.699207 V 36.938958 h -25.1012 v -51.386323 h 25.1012 v -17.878651 h -42.9798 v 87.025223 z" />
          <path
             inkscape:connector-curvature="0"
             id="path1137"
             style="font-style:normal;font-variant:normal;font-weight:bold;font-stretch:normal;font-size:118.40166473px;font-family:Konstruktor;-inkscape-font-specification:'Konstruktor Bold';fill:#ffffff;stroke-width:0.59200835"
             d="m 1371.171,-32.326016 v 19.299471 h -16.221 v -19.299471 h -17.7603 c 0,5.564878 0,86.196412 0,87.025223 H 1354.95 V 4.7337048 h 5.8016 l 10.4194,49.9655022 h 17.8786 L 1378.5119,4.7337048 h 10.5377 c 0,-1.6576233 0,-35.7573028 0,-37.0597208 z" />
          <path
             inkscape:connector-curvature="0"
             id="path1139"
             style="font-style:normal;font-variant:normal;font-weight:bold;font-stretch:normal;font-size:118.40166473px;font-family:Konstruktor;-inkscape-font-specification:'Konstruktor Bold';fill:#ffffff;stroke-width:0.59200835"
             d="m 1401.7094,-32.326016 v 87.025223 h 17.7602 l 16.4579,-16.221028 v 16.221028 h 17.7602 v -87.025223 z m 34.2181,46.058247 -16.4579,16.33943 v -44.519026 h 16.4579 z" />
          <path
             inkscape:connector-curvature="0"
             id="path1141"
             style="font-style:normal;font-variant:normal;font-weight:bold;font-stretch:normal;font-size:118.40166473px;font-family:Konstruktor;-inkscape-font-specification:'Konstruktor Bold';fill:#ffffff;stroke-width:0.59200835"
             d="m 1484.3389,54.699207 6.9857,-22.614718 10.5378,10.419347 v 12.195371 h 17.7602 v -87.025223 h -51.9783 V 8.5225581 l 9.8273,9.8273379 -11.0113,36.349311 z M 1501.8624,17.87629 1485.4046,1.4184582 V -14.447365 h 16.4578 z" />
        </g>
        <g
           transform="matrix(0.19286643,0.71978733,-0.71978733,0.19286643,1436.1922,7.9542351)"
           id="g873-1">
          <g
             id="text1112-2"
             style="font-style:normal;font-weight:normal;font-size:43.88055038px;line-height:1.25;font-family:sans-serif;letter-spacing:0px;word-spacing:0px;fill:#ffffff;fill-opacity:1;stroke:none;stroke-width:1.09701371"
             aria-label="летняя  ">
            <path
               inkscape:connector-curvature="0"
               id="path1099"
               style="font-style:normal;font-variant:normal;font-weight:bold;font-stretch:normal;font-size:219.40274048px;font-family:Konstruktor;-inkscape-font-specification:'Konstruktor Bold';fill:#ffffff;stroke-width:1.09701371"
               d="m 829.6788,1617.4105 v 0.2194 l -30.49698,29.6194 -32.91041,32.4716 v 98.9506 h 32.91041 v -85.7865 l 30.49698,-30.2775 v 116.064 h 32.91041 v -161.261 z" />
            <path
               inkscape:connector-curvature="0"
               id="path1101"
               style="font-style:normal;font-variant:normal;font-weight:bold;font-stretch:normal;font-size:219.40274048px;font-family:Konstruktor;-inkscape-font-specification:'Konstruktor Bold';fill:#ffffff;stroke-width:1.09701371"
               d="m 886.25728,1778.6715 c 29.39997,0 66.69844,0 96.0984,0 v -45.197 h -33.12981 v 12.2866 h -30.05818 v -31.1552 c 17.77163,0 45.63577,0 63.18799,0 v -97.1954 c -29.39996,0 -66.69843,0 -96.0984,0 z m 32.91041,-128.1312 h 30.05818 v 31.1552 h -30.05818 z" />
            <path
               inkscape:connector-curvature="0"
               id="path1103"
               style="font-style:normal;font-variant:normal;font-weight:bold;font-stretch:normal;font-size:219.40274048px;font-family:Konstruktor;-inkscape-font-specification:'Konstruktor Bold';fill:#ffffff;stroke-width:1.09701371"
               d="m 1165.5398,1778.6715 v -161.261 h -159.7252 v 161.261 h 32.9104 v -128.1312 h 30.497 v 128.1312 h 32.9104 v -128.1312 h 30.497 v 128.1312 z" />
            <path
               inkscape:connector-curvature="0"
               id="path1105"
               style="font-style:normal;font-variant:normal;font-weight:bold;font-stretch:normal;font-size:219.40274048px;font-family:Konstruktor;-inkscape-font-specification:'Konstruktor Bold';fill:#ffffff;stroke-width:1.09701371"
               d="m 1284.0036,1778.6715 v -0.2194 c 0,-8.9955 0,-151.6073 0,-161.261 h -33.1298 v 44.0999 h -28.7418 v -44.0999 h -32.9104 v 161.4804 h 32.9104 v -84.2506 h 28.7418 v 84.2506 z" />
            <path
               inkscape:connector-curvature="0"
               id="path1107"
               style="font-style:normal;font-variant:normal;font-weight:bold;font-stretch:normal;font-size:219.40274048px;font-family:Konstruktor;-inkscape-font-specification:'Konstruktor Bold';fill:#ffffff;stroke-width:1.09701371"
               d="m 1340.1947,1778.6715 12.9447,-41.9059 19.5269,19.3074 v 22.5985 h 32.9104 v -161.261 h -96.3178 v 75.6939 l 18.2104,18.2105 -20.4044,67.3566 z m 32.4716,-68.2342 -30.497,-30.497 v -29.4 h 30.497 z" />
            <path
               inkscape:connector-curvature="0"
               id="path1109"
               style="font-style:normal;font-variant:normal;font-weight:bold;font-stretch:normal;font-size:219.40274048px;font-family:Konstruktor;-inkscape-font-specification:'Konstruktor Bold';fill:#ffffff;stroke-width:1.09701371"
               d="m 1462.3232,1778.6715 12.9447,-41.9059 19.5269,19.3074 v 22.5985 h 32.9104 v -161.261 h -96.3178 v 75.6939 l 18.2104,18.2105 -20.4045,67.3566 z m 32.4716,-68.2342 -30.497,-30.497 v -29.4 h 30.497 z" />
          </g>
          <g
             id="text1112-5-2-6"
             style="font-style:normal;font-weight:normal;font-size:43.88055038px;line-height:1.25;font-family:sans-serif;letter-spacing:0px;word-spacing:0px;fill:#ffffff;fill-opacity:1;stroke:none;stroke-width:1.09701371"
             aria-label="школа  ">
            <path
               inkscape:connector-curvature="0"
               id="path1112"
               style="font-style:normal;font-variant:normal;font-weight:bold;font-stretch:normal;font-size:219.40274048px;font-family:Konstruktor;-inkscape-font-specification:'Konstruktor Bold';fill:#ffffff;stroke-width:1.09701371"
               d="m 887.71703,1969.8049 v 161.261 h 159.72517 v -161.261 h -32.9104 v 128.3506 h -30.49697 v -128.3506 h -32.91041 v 128.3506 h -30.49698 v -128.3506 z" />
            <path
               inkscape:connector-curvature="0"
               id="path1114"
               style="font-style:normal;font-variant:normal;font-weight:bold;font-stretch:normal;font-size:219.40274048px;font-family:Konstruktor;-inkscape-font-specification:'Konstruktor Bold';fill:#ffffff;stroke-width:1.09701371"
               d="m 1134.0926,1969.8049 v 35.7627 h -30.0582 v -35.7627 h -32.9104 c 0,10.3119 0,159.7252 0,161.261 h 32.9104 v -92.5879 h 10.7508 l 19.3074,92.5879 h 33.1298 l -19.5268,-92.5879 h 19.5268 c 0,-3.0717 0,-66.2597 0,-68.6731 z" />
            <path
               inkscape:connector-curvature="0"
               id="path1116"
               style="font-style:normal;font-variant:normal;font-weight:bold;font-stretch:normal;font-size:219.40274048px;font-family:Konstruktor;-inkscape-font-specification:'Konstruktor Bold';fill:#ffffff;stroke-width:1.09701371"
               d="m 1190.6814,1969.8049 v 161.261 h 96.3178 v -161.261 z m 63.4073,128.3506 h -30.4969 v -95.2208 h 30.4969 z" />
            <path
               inkscape:connector-curvature="0"
               id="path1118"
               style="font-style:normal;font-variant:normal;font-weight:bold;font-stretch:normal;font-size:219.40274048px;font-family:Konstruktor;-inkscape-font-specification:'Konstruktor Bold';fill:#ffffff;stroke-width:1.09701371"
               d="m 1374.0746,1969.8049 v 0.2194 l -30.497,29.6194 -32.9104,32.4716 v 98.9506 h 32.9104 v -85.7865 l 30.497,-30.2775 v 116.064 h 32.9104 v -161.261 z" />
            <path
               inkscape:connector-curvature="0"
               id="path1120"
               style="font-style:normal;font-variant:normal;font-weight:bold;font-stretch:normal;font-size:219.40274048px;font-family:Konstruktor;-inkscape-font-specification:'Konstruktor Bold';fill:#ffffff;stroke-width:1.09701371"
               d="m 1430.6531,1969.8049 v 161.261 h 32.9104 l 30.497,-30.0582 v 30.0582 h 32.9104 v -161.261 z m 63.4074,85.3477 -30.497,30.2775 v -82.4954 h 30.497 z" />
          </g>
        </g>
      </g>
    </g>
    <text
       xml:space="preserve"
       style="font-style:normal;font-weight:normal;font-size:10.58333302px;line-height:1.25;font-family:sans-serif;letter-spacing:0px;word-spacing:0px;fill:#000000;fill-opacity:1;stroke:none;stroke-width:0.26458332"
       x="21.922617"
       y="6.7217236"
       id="text1288"><tspan
         sodipodi:role="line"
         id="tspan1286"
         x="21.922617"
         y="16.085493"
         style="stroke-width:0.26458332" /></text>
    <text
       xml:space="preserve"
       style="font-style:normal;font-weight:normal;font-size:10.58333302px;line-height:1.25;font-family:sans-serif;letter-spacing:0px;word-spacing:0px;fill:#ff0000;fill-opacity:1;stroke:none;stroke-width:0.26458332"
       id="text1292"
       x="-42.300938"
       y="2.2230043"
       transform="rotate(-0.44401394)"><tspan
         id="tspan1290"
         style="font-style:normal;font-variant:normal;font-weight:normal;font-stretch:normal;font-size:3.52777767px;font-family:B52;-inkscape-font-specification:B52;fill:#ff0000;stroke-width:0.26458332">http://physsummer.ru</tspan></text>
    <g
       aria-label="http://physsummer.ru"
       transform="rotate(90)"
       style="font-style:normal;font-weight:normal;font-size:10.58333302px;line-height:1.25;font-family:sans-serif;letter-spacing:0px;word-spacing:0px;fill:#000000;fill-opacity:1;stroke:none;stroke-width:0.26458332"
       id="text1315">
      <path
         d="m -12.794006,-11.390315 0.0381,0.1016 -0.01693,0.0762 -0.0635,0.1524 -0.1778,-0.01693 h -0.2032 l -0.0762,-0.0254 h -0.06773 l -0.0762,0.04233 v -0.01693 h -0.135466 l -0.0889,0.0508 -0.0889,-0.0762 -0.01693,0.0254 v -0.04233 l -0.05503,-0.0508 v -0.04233 l -0.05503,-0.0508 -0.0762,0.07197 -0.01693,0.0508 -0.0381,0.0381 -0.0889,-0.01693 -0.09313,0.06773 -0.0381,-0.0085 h -0.0889 l -0.04233,0.03387 -0.09313,-0.0254 -0.0508,-0.0508 -0.0762,0.0508 h -0.05927 v -0.0085 l -0.0085,-0.01693 -0.0254,0.01693 -0.01693,-0.01693 h -0.01693 l -0.02117,0.0254 -0.186267,-0.0254 -0.0635,-0.04233 -0.04233,-0.0381 v -0.05503 l 0.04233,-0.03387 v -0.131234 l 0.198967,-0.0127 v 0.0127 h 0.131233 l 0.03387,-0.05503 -0.0254,-0.09313 v -0.0508 l 0.0254,-0.0254 -0.03387,-0.0254 0.03387,-0.06773 v -0.06773 l 0.01693,-0.0254 -0.01693,-0.0085 -0.03387,-0.05927 0.0085,-0.2032 0.0254,-0.01693 -0.03387,-0.04233 0.0085,-0.127 0.0254,-0.0127 -0.03387,-0.05503 -0.0254,-0.09313 0.03387,-0.0762 0.0254,-0.160867 0.01693,-0.0254 -0.04233,-0.03387 0.0254,-0.2032 -0.03387,-0.0381 0.0508,-0.237066 -0.01693,-0.08043 -0.131234,-0.02963 h -0.07197 l -0.01693,0.02117 -0.04233,-0.02117 -0.07197,-0.02117 -0.09737,-0.09313 0.06773,-0.127 -0.0254,-0.01693 0.127,-0.0762 0.2032,0.05927 0.09313,0.01693 h 0.05927 l 0.01693,-0.01693 h 0.09313 l 0.0762,0.09313 -0.04233,0.2032 -0.02117,0.0085 0.0635,0.118534 -0.0254,0.110066 -0.0381,0.0381 0.0381,0.182034 h -0.01693 l -0.02117,0.0762 v 0.122766 l 0.0381,0.0635 0.09313,-0.0254 0.0762,-0.110066 0.0508,-0.01693 h 0.01693 l 0.0762,-0.110066 0.135467,-0.09313 h 0.0635 l 0.0254,-0.01693 0.05503,-0.02117 v -0.01693 l 0.0889,-0.03387 v 0.0127 l 0.09737,0.05927 0.1778,0.01693 0.08043,0.0508 v 0.09313 l 0.0508,0.04233 0.0381,0.01693 0.01693,0.0889 v 0.0381 l 0.01693,0.0254 0.01693,0.06773 0.02117,0.364066 h 0.02117 v 0.04233 h -0.02117 l -0.02117,0.09313 v 0.275166 l 0.04233,0.275167 0.09313,0.01693 h 0.237067 z m -0.6858,-0.6096 0.04233,-0.0381 -0.01693,-0.186266 -0.0381,-0.03387 v -0.224366 l -0.0381,-0.06773 h -0.04233 l -0.0085,-0.0254 v -0.0381 l -0.01693,0.02117 h -0.0635 l -0.0508,-0.03387 -0.135467,-0.01693 -0.122767,0.110067 0.01693,0.0085 -0.01693,0.0254 -0.110066,0.0381 -0.01693,0.105834 -0.169333,0.131233 -0.06773,0.148166 h -0.0254 v 0.0508 l -0.01693,0.0254 -0.02117,0.186267 0.0381,0.0508 v 0.09313 h -0.01693 l 0.01693,0.06773 0.0254,0.0254 v 0.127 l 0.0889,0.05927 0.05503,-0.04233 0.110067,0.04233 0.03387,-0.04233 0.05503,0.04233 0.0381,0.0889 0.105833,-0.0254 0.135467,-0.105833 h 0.131233 l 0.0085,-0.01693 0.0254,0.01693 0.05503,0.01693 -0.01693,-0.211666 0.02963,-0.09737 -0.0508,-0.1143 0.02117,-0.01693 0.01693,-0.0381 z"
         style="font-style:normal;font-variant:normal;font-weight:normal;font-stretch:normal;font-size:4.23333311px;font-family:B52;-inkscape-font-specification:B52;fill:#000000;stroke-width:0.26458332"
         id="path1474" />
      <path
         d="m -10.869956,-11.923715 v 0.198967 l -0.01693,0.01693 v 0.0635 h -0.02117 l -0.01693,0.0254 -0.07197,0.08043 0.01693,0.0127 h -0.01693 l -0.03387,0.118533 v 0.01693 l -0.0762,0.03387 v 0.05503 l -0.0381,0.0381 0.02117,0.01693 -0.1524,0.01693 -0.0508,0.04233 -0.04233,0.06773 h -0.0254 l -0.02963,0.0254 -0.0508,-0.0635 -0.224366,0.0254 -0.03387,0.0381 -0.07197,-0.0762 0.0127,-0.0762 -0.143933,-0.09313 -0.05503,-0.160866 h -0.02117 l -0.0127,-0.0254 v -0.0508 l 0.0508,-0.0508 -0.0381,-0.2032 0.0381,-0.207434 0.02117,-0.317499 0.01693,-0.1778 v -0.186267 l -0.05503,-0.03387 -0.182034,0.03387 h -0.182033 l -0.0381,0.03387 -0.0762,-0.0508 -0.01693,0.01693 -0.0381,-0.03387 h -0.0381 l 0.02117,-0.02117 -0.02117,-0.01693 v -0.169333 l 0.110066,-0.0889 0.04233,0.0254 h 0.05503 l 0.0127,-0.04233 0.186267,0.01693 0.09313,0.05503 0.0889,-0.05503 v -0.550333 l 0.02117,-0.05927 0.09737,-0.0508 0.105834,0.01693 0.01693,0.02117 h 0.05927 l 0.02963,0.05503 v 0.06773 l 0.0635,0.0381 h 0.01693 l -0.09313,0.182033 0.0508,0.148167 -0.0508,0.1143 0.0508,0.05503 h 0.351367 l 0.110066,-0.0127 v -0.0254 l 0.0381,0.0381 h 0.09313 l 0.0889,0.0762 -0.0127,0.122767 -0.02117,0.02117 v 0.0381 l -0.07197,0.03387 -0.05927,-0.01693 h -0.186267 l -0.0127,0.01693 -0.2413,-0.01693 -0.0508,0.0508 v 0.09313 l -0.0762,0.04233 -0.04233,0.03387 0.05503,0.160867 v 0.169333 l 0.0889,0.09313 -0.0508,0.0381 -0.0508,0.05503 v 0.04233 l 0.0762,0.03387 h 0.06773 l -0.01693,0.01693 0.01693,0.0127 -0.06773,0.169333 0.0254,0.05503 0.04233,0.04233 h 0.0762 l 0.0508,-0.2286 -0.0381,-0.0381 0.02963,-0.0889 h 0.0254 v 0.1524 l 0.04233,0.03387 h 0.0381 l 0.05503,-0.09737 h 0.03387 l 0.143933,-0.160867 0.148167,0.0381 h 0.02117 z"
         style="font-style:normal;font-variant:normal;font-weight:normal;font-stretch:normal;font-size:4.23333311px;font-family:B52;-inkscape-font-specification:B52;fill:#000000;stroke-width:0.26458332"
         id="path1476" />
      <path
         d="m -8.4887062,-11.923715 v 0.198967 l -0.016933,0.01693 v 0.0635 h -0.021167 l -0.016933,0.0254 -0.071967,0.08043 0.016933,0.0127 h -0.016933 l -0.033867,0.118533 v 0.01693 l -0.0762,0.03387 v 0.05503 l -0.0381,0.0381 0.021167,0.01693 -0.1524,0.01693 -0.0508,0.04233 -0.042333,0.06773 h -0.0254 l -0.029633,0.0254 -0.0508,-0.0635 -0.2243666,0.0254 -0.033867,0.0381 -0.071967,-0.0762 0.0127,-0.0762 -0.1439333,-0.09313 -0.055033,-0.160866 h -0.021167 l -0.0127,-0.0254 v -0.0508 l 0.0508,-0.0508 -0.0381,-0.2032 0.0381,-0.207434 0.021167,-0.317499 0.016933,-0.1778 v -0.186267 l -0.055033,-0.03387 -0.1820333,0.03387 h -0.1820334 l -0.0381,0.03387 -0.0762,-0.0508 -0.01693,0.01693 -0.0381,-0.03387 h -0.0381 l 0.02117,-0.02117 -0.02117,-0.01693 v -0.169333 l 0.110066,-0.0889 0.04233,0.0254 h 0.055033 l 0.0127,-0.04233 0.1862667,0.01693 0.093133,0.05503 0.0889,-0.05503 v -0.550333 l 0.021167,-0.05927 0.097367,-0.0508 0.1058334,0.01693 0.016933,0.02117 h 0.059267 l 0.029633,0.05503 v 0.06773 l 0.0635,0.0381 h 0.016933 l -0.093133,0.182033 0.0508,0.148167 -0.0508,0.1143 0.0508,0.05503 h 0.3513666 l 0.1100667,-0.0127 v -0.0254 l 0.0381,0.0381 h 0.093133 l 0.0889,0.0762 -0.0127,0.122767 -0.021167,0.02117 v 0.0381 l -0.071967,0.03387 -0.059267,-0.01693 h -0.1862666 l -0.0127,0.01693 -0.2413,-0.01693 -0.0508,0.0508 v 0.09313 l -0.0762,0.04233 -0.042333,0.03387 0.055033,0.160867 v 0.169333 l 0.0889,0.09313 -0.0508,0.0381 -0.0508,0.05503 v 0.04233 l 0.0762,0.03387 h 0.067733 l -0.016933,0.01693 0.016933,0.0127 -0.067733,0.169333 0.0254,0.05503 0.042333,0.04233 h 0.0762 l 0.0508,-0.2286 -0.0381,-0.0381 0.029633,-0.0889 h 0.0254 v 0.1524 l 0.042333,0.03387 h 0.0381 l 0.055033,-0.09737 h 0.033867 l 0.1439333,-0.160867 0.1481667,0.0381 h 0.021167 z"
         style="font-style:normal;font-variant:normal;font-weight:normal;font-stretch:normal;font-size:4.23333311px;font-family:B52;-inkscape-font-specification:B52;fill:#000000;stroke-width:0.26458332"
         id="path1478" />
      <path
         d="m -5.7349229,-11.762848 0.033867,0.05503 -0.1100666,0.02117 -0.0127,0.09313 -0.0635,0.06773 -0.016933,0.09313 h -0.0381 l -0.067733,0.0762 -0.021167,0.0762 h -0.016933 l -0.0254,0.01693 0.0254,0.01693 -0.0762,0.03387 -0.016933,-0.01693 -0.1100667,0.07197 0.016933,0.0635 v 0.01693 l -0.0508,0.0508 -0.1185334,-0.03387 -0.0889,-0.01693 -0.016933,0.01693 -0.071967,-0.03387 -0.067733,0.06773 v 0.05503 l -0.029633,0.02117 -0.0127,-0.0508 -0.0762,-0.04233 0.021167,-0.01693 -0.021167,-0.01693 h -0.042333 v -0.04233 l -0.0508,-0.0508 -0.016933,0.0127 -0.0762,0.0254 -0.033867,0.05503 0.016933,0.220133 0.042333,0.0381 h 0.0508 v 0.01693 l 0.067733,0.0381 0.0635,-0.0381 0.1650999,0.0889 0.0508,-0.01693 v 0.169334 l -0.016933,0.01693 v 0.0508 l -0.0127,-0.01693 -0.0635,0.05927 h -0.1608666 l -0.0254,-0.02117 h -0.0254 l -0.0635,0.0508 -0.1481667,-0.0508 -0.0508,0.0508 -0.093133,-0.0127 -0.0381,0.0381 -0.1312333,-0.0254 -0.016933,-0.0127 -0.0381,0.0381 -0.1608666,-0.0254 0.021167,-0.0127 -0.1524,-0.0381 -0.0889,-0.07197 0.0127,-0.01693 -0.033867,-0.04233 0.021167,-0.143933 0.071967,-0.05503 0.016933,0.0127 0.016933,-0.0127 h 0.093133 l 0.021167,0.0127 0.071967,-0.02963 0.0889,0.01693 h 0.0381 l 0.059267,-0.05503 -0.016933,-0.131233 v -0.05503 h 0.016933 v -0.313267 h 0.016933 v -0.0508 l -0.016933,-0.0508 0.033867,-0.06773 -0.016933,-0.09313 h -0.033867 l -0.042333,-0.06773 0.059267,-0.182033 0.033867,-0.0889 v -0.338667 l 0.0381,-0.06773 -0.021167,-0.3302 h -0.0508 l -0.1100667,0.0085 v 0.0254 l -0.0381,0.03387 -0.1693333,-0.05927 -0.071967,-0.0889 0.016933,-0.148167 0.1439333,-0.0508 0.0254,-0.0381 0.1439333,0.01693 0.059267,0.03387 h 0.127 l 0.016933,-0.0127 0.033867,0.0381 h 0.055033 l 0.0254,0.07197 0.1312333,0.0508 0.0127,-0.0127 0.055033,0.0127 0.042333,-0.03387 h 0.071967 l 0.067733,-0.0762 h 0.0381 l 0.080433,-0.07197 0.1820333,0.02117 0.016933,0.0127 h 0.0508 l 0.059267,0.05503 0.059267,-0.02963 0.1185333,0.05503 0.080433,0.0635 -0.0635,0.131234 0.1269999,0.0254 0.042333,0.06773 0.093133,0.131233 0.021167,0.105834 0.021167,0.317499 v 0.131234 l -0.021167,0.0762 v 0.03387 z m -0.3894667,-0.105833 0.0254,0.0127 v -0.06773 l -0.1185333,-0.09313 v -0.0381 l 0.0381,-0.0508 0.055033,-0.118533 -0.055033,-0.03387 -0.0127,-0.09737 0.0508,-0.0508 -0.0381,-0.06773 -0.0889,-0.04233 v -0.01693 l -0.093133,-0.05927 -0.0762,0.04233 -0.016933,0.01693 -0.093133,-0.01693 -0.0508,-0.01693 -0.080433,0.03387 -0.1397,0.148166 -0.016933,0.0889 h -0.0254 v 0.05927 l -0.016933,0.04233 -0.021167,-0.02963 -0.00847,0.01693 0.016933,0.0127 h 0.0127 l -0.0508,0.0508 h -0.042333 l -0.016933,0.0889 0.071967,0.105833 -0.0127,0.0254 0.093133,0.110067 v 0.0508 l -0.042333,0.0381 v 0.05503 l 0.042333,0.04233 0.067733,0.0508 0.0381,0.0889 0.0127,-0.0127 0.1185333,0.09313 0.1439333,0.01693 0.0762,-0.09737 h 0.093133 l 0.067733,-0.0508 v -0.08043 l 0.0381,-0.0254 0.016933,-0.04233 -0.055033,-0.0508 -0.016933,-0.05927 0.055033,-0.07197 z"
         style="font-style:normal;font-variant:normal;font-weight:normal;font-stretch:normal;font-size:4.23333311px;font-family:B52;-inkscape-font-specification:B52;fill:#000000;stroke-width:0.26458332"
         id="path1480" />
      <path
         d="m -4.090273,-12.660314 0.0508,0.05503 -0.016933,0.275167 -0.033867,0.07197 h -0.042333 l -0.0508,0.1143 -0.016933,-0.0254 -0.0254,0.0254 -0.1058334,0.0381 -0.055033,0.0127 -0.016933,0.01693 v 0.02117 l -0.059267,-0.0381 h -0.0381 v -0.0127 l -0.1820333,-0.02117 v -0.01693 l -0.016933,-0.0254 -0.0127,-0.05503 h -0.0381 l -0.093133,-0.131233 v -0.249767 l 0.042333,-0.08043 0.0508,-0.0508 -0.0254,-0.01693 0.1143,-0.09313 0.0889,-0.01693 0.059267,-0.01693 0.0762,-0.04233 0.2032,0.05927 0.1016,0.110066 z m 0.033867,1.121833 0.042333,0.0381 -0.0254,0.182033 -0.016933,0.0889 -0.0889,0.135467 -0.0381,0.03387 -0.1312333,0.01693 -0.0889,0.07197 -0.097367,-0.01693 -0.071967,-0.0381 -0.016933,0.0254 -0.055033,-0.05927 -0.016933,0.01693 -0.080433,-0.0762 v -0.0381 l -0.059267,-0.02963 -0.042333,-0.05927 -0.055033,-0.05503 0.016933,-0.01693 -0.0381,-0.0381 v -0.0762 h 0.021167 l 0.016933,-0.01693 -0.016933,-0.0085 0.067733,-0.135467 0.029633,-0.0254 0.0508,-0.0085 0.0889,-0.1524 h 0.016933 l 0.021167,0.01693 0.2032,-0.131233 h 0.033867 l 0.042333,0.0381 0.0127,-0.0127 0.016933,0.05503 0.0635,0.01693 v 0.01693 l 0.0889,0.04233 0.071967,0.06773 z"
         style="font-style:normal;font-variant:normal;font-weight:normal;font-stretch:normal;font-size:4.23333311px;font-family:B52;-inkscape-font-specification:B52;fill:#000000;stroke-width:0.26458332"
         id="path1482" />
      <path
         d="m -1.027456,-14.247814 h 0.0381 l 0.0931333,0.1143 -0.0338667,0.2032 0.0338667,0.0381 -0.0508,0.0635 -0.0931334,0.0762 0.0127,0.02117 -0.071967,0.05927 -0.016933,0.105833 -0.0508,0.09313 -0.021167,-0.01693 -0.0762,0.06773 -0.0127,0.211666 -0.093133,0.0889 -0.093133,0.186267 -0.059267,0.02963 v 0.0254 l 0.0254,0.01693 h -0.0254 l -0.033867,0.0381 v 0.0508 l -0.0762,0.0889 v 0.0254 l 0.016933,0.01693 h -0.016933 l -0.016933,0.0381 -0.059267,0.05503 0.0254,0.01693 h -0.0254 l -0.016933,0.05927 -0.0381,0.06773 -0.1058334,0.131233 -0.0254,0.0508 v 0.02963 l -0.029633,0.0254 v 0.0635 l -0.0889,0.156633 h -0.0254 l -0.033867,0.04233 v 0.0127 l 0.016933,0.0254 -0.1100667,0.160866 -0.016933,0.0381 -0.080433,0.09313 v 0.0762 l -0.0127,0.06773 v 0.04233 l -0.016933,-0.01693 -0.0762,0.0889 v 0.01693 l 0.016933,0.02117 -0.067733,0.06773 -0.0762,0.211667 v 0.02963 l -0.1100666,0.1524 -0.0254,0.05503 -0.067733,0.09313 -0.033867,0.127 -0.059267,0.110067 -0.071967,0.0381 -0.071967,0.0127 -0.2032,0.09313 v -0.0127 l -0.071967,-0.02117 0.0127,-0.01693 -0.033867,-0.04233 v -0.06773 l 0.021167,-0.02117 -0.0381,-0.0381 0.0508,-0.160867 0.059267,-0.05927 0.016933,-0.0889 0.1100667,-0.131233 v -0.0762 h 0.0127 l 0.029633,-0.06773 0.0889,-0.135467 0.0508,-0.127 0.080433,-0.0762 0.1058334,-0.237067 0.0127,-0.0381 h 0.0254 l 0.016933,-0.02963 0.033867,-0.118533 -0.00847,-0.0127 0.067733,-0.0381 -0.016933,-0.01693 0.067733,-0.131233 v -0.0381 l 0.059267,-0.0127 h 0.016933 l 0.0762,-0.169333 0.067733,-0.08043 0.0254,-0.105834 0.055033,-0.05503 -0.021167,-0.01693 0.127,-0.160867 0.042333,-0.1524 0.1608667,-0.2032 0.016933,-0.09313 0.080433,-0.110067 v -0.0381 h 0.029633 l 0.0254,-0.0381 0.0508,-0.127 0.055033,-0.03387 v -0.02117 l -0.016933,-0.01693 h 0.0381 l 0.033867,-0.0381 -0.016933,-0.105833 0.0508,-0.0889 0.0254,0.0085 0.1058333,-0.1397 v -0.05503 l 0.1693334,-0.169333 h 0.021167 l 0.0508,-0.0508 v -0.05927 l 0.0381,-0.03387 z"
         style="font-style:normal;font-variant:normal;font-weight:normal;font-stretch:normal;font-size:4.23333311px;font-family:B52;-inkscape-font-specification:B52;fill:#000000;stroke-width:0.26458332"
         id="path1484" />
      <path
         d="m 1.3537935,-14.247814 h 0.0381 l 0.093133,0.1143 -0.033867,0.2032 0.033867,0.0381 -0.0508,0.0635 -0.093133,0.0762 0.0127,0.02117 -0.071967,0.05927 -0.016933,0.105833 -0.0508,0.09313 -0.021167,-0.01693 -0.0762,0.06773 -0.0127,0.211666 -0.093133,0.0889 -0.0931334,0.186267 -0.0592667,0.02963 v 0.0254 l 0.0254,0.01693 h -0.0254 l -0.0338667,0.0381 v 0.0508 l -0.0762,0.0889 v 0.0254 l 0.0169333,0.01693 h -0.0169333 l -0.0169333,0.0381 -0.0592667,0.05503 0.0254,0.01693 h -0.0254 l -0.0169333,0.05927 -0.0381,0.06773 -0.10583333,0.131233 -0.0254,0.0508 v 0.02963 l -0.0296333,0.0254 v 0.0635 l -0.0889,0.156633 h -0.0254 l -0.0338667,0.04233 v 0.0127 l 0.0169333,0.0254 -0.11006667,0.160866 -0.0169333,0.0381 -0.0804333,0.09313 v 0.0762 l -0.0127,0.06773 v 0.04233 l -0.01693333,-0.01693 -0.07619999,0.0889 v 0.01693 l 0.01693333,0.02117 -0.06773333,0.06773 -0.0762,0.211667 v 0.02963 l -0.11006666,0.1524 -0.0254,0.05503 -0.0677333,0.09313 -0.0338667,0.127 -0.0592667,0.110067 -0.0719667,0.0381 -0.0719667,0.0127 -0.20319999,0.09313 v -0.0127 l -0.0719667,-0.02117 0.0127,-0.01693 -0.0338667,-0.04233 v -0.06773 l 0.0211667,-0.02117 -0.0381,-0.0381 0.0508,-0.160867 0.0592667,-0.05927 0.0169333,-0.0889 0.11006666,-0.131233 v -0.0762 h 0.0127 l 0.0296333,-0.06773 0.0889,-0.135467 0.0508,-0.127 0.0804333,-0.0762 0.10583332,-0.237067 0.0127,-0.0381 h 0.0254 l 0.0169333,-0.02963 0.0338667,-0.118533 -0.008467,-0.0127 0.0677333,-0.0381 -0.0169333,-0.01693 0.06773333,-0.131233 v -0.0381 l 0.05926666,-0.0127 h 0.01693334 l 0.07619999,-0.169333 0.06773333,-0.08043 0.0254,-0.105834 0.0550333,-0.05503 -0.0211667,-0.01693 0.127,-0.160867 0.0423333,-0.1524 0.16086666,-0.2032 0.0169333,-0.09313 0.0804333,-0.110067 v -0.0381 h 0.0296333 l 0.0254,-0.0381 0.0508,-0.127 0.0550333,-0.03387 v -0.02117 l -0.0169333,-0.01693 h 0.0381 l 0.0338667,-0.0381 -0.0169333,-0.105833 0.0508,-0.0889 0.0254,0.0085 0.10583336,-0.1397 v -0.05503 l 0.1693333,-0.169333 h 0.021167 l 0.0508,-0.0508 v -0.05927 l 0.0381,-0.03387 z"
         style="font-style:normal;font-variant:normal;font-weight:normal;font-stretch:normal;font-size:4.23333311px;font-family:B52;-inkscape-font-specification:B52;fill:#000000;stroke-width:0.26458332"
         id="path1486" />
      <path
         d="m 3.7900762,-11.762848 0.033867,0.05503 -0.1100667,0.02117 -0.0127,0.09313 -0.0635,0.06773 -0.016933,0.09313 h -0.0381 l -0.067733,0.0762 -0.021167,0.0762 h -0.016933 l -0.0254,0.01693 0.0254,0.01693 -0.0762,0.03387 -0.016933,-0.01693 -0.1100666,0.07197 0.016933,0.0635 v 0.01693 l -0.0508,0.0508 -0.1185333,-0.03387 -0.0889,-0.01693 -0.016933,0.01693 -0.071967,-0.03387 -0.067733,0.06773 v 0.05503 l -0.029633,0.02117 -0.0127,-0.0508 -0.0762,-0.04233 0.021167,-0.01693 -0.021167,-0.01693 h -0.042333 v -0.04233 l -0.0508,-0.0508 -0.016933,0.0127 -0.0762,0.0254 -0.033867,0.05503 0.016933,0.220133 0.042333,0.0381 h 0.0508 v 0.01693 l 0.067733,0.0381 0.0635,-0.0381 0.1651,0.0889 0.0508,-0.01693 v 0.169334 l -0.016933,0.01693 v 0.0508 l -0.0127,-0.01693 -0.0635,0.05927 H 2.7402096 l -0.0254,-0.02117 h -0.0254 l -0.0635,0.0508 -0.1481667,-0.0508 -0.0508,0.0508 -0.093133,-0.0127 -0.0381,0.0381 -0.1312333,-0.0254 -0.016933,-0.0127 -0.0381,0.0381 -0.1608667,-0.0254 0.021167,-0.0127 -0.1524,-0.0381 -0.0889,-0.07197 0.0127,-0.01693 -0.033867,-0.04233 0.021167,-0.143933 0.071967,-0.05503 0.016933,0.0127 0.016933,-0.0127 h 0.093133 l 0.021167,0.0127 0.071967,-0.02963 0.0889,0.01693 h 0.0381 l 0.059267,-0.05503 -0.016933,-0.131233 v -0.05503 h 0.016933 v -0.313267 h 0.016933 v -0.0508 l -0.016933,-0.0508 0.033867,-0.06773 -0.016933,-0.09313 h -0.033867 l -0.042333,-0.06773 0.059267,-0.182033 0.033867,-0.0889 v -0.338667 l 0.0381,-0.06773 -0.021167,-0.3302 h -0.0508 l -0.1100666,0.0085 v 0.0254 l -0.0381,0.03387 -0.1693334,-0.05927 -0.071967,-0.0889 0.016933,-0.148167 0.1439333,-0.0508 0.0254,-0.0381 0.1439334,0.01693 0.059267,0.03387 h 0.127 l 0.016933,-0.0127 0.033867,0.0381 h 0.055033 l 0.0254,0.07197 0.1312334,0.0508 0.0127,-0.0127 0.055033,0.0127 0.042333,-0.03387 h 0.071967 l 0.067733,-0.0762 h 0.0381 l 0.080433,-0.07197 0.1820333,0.02117 0.016933,0.0127 h 0.0508 l 0.059267,0.05503 0.059267,-0.02963 0.1185334,0.05503 0.080433,0.0635 -0.0635,0.131234 0.127,0.0254 0.042333,0.06773 0.093133,0.131233 0.021167,0.105834 0.021167,0.317499 v 0.131234 l -0.021167,0.0762 v 0.03387 z m -0.3894666,-0.105833 0.0254,0.0127 v -0.06773 l -0.1185334,-0.09313 v -0.0381 l 0.0381,-0.0508 0.055033,-0.118533 -0.055033,-0.03387 -0.0127,-0.09737 0.0508,-0.0508 -0.0381,-0.06773 -0.0889,-0.04233 v -0.01693 l -0.093133,-0.05927 -0.0762,0.04233 -0.016933,0.01693 -0.093133,-0.01693 -0.0508,-0.01693 -0.080433,0.03387 -0.1397,0.148166 -0.016933,0.0889 h -0.0254 v 0.05927 l -0.016933,0.04233 -0.021167,-0.02963 -0.00847,0.01693 0.016933,0.0127 h 0.0127 l -0.0508,0.0508 h -0.042333 l -0.016933,0.0889 0.071967,0.105833 -0.0127,0.0254 0.093133,0.110067 v 0.0508 l -0.042333,0.0381 v 0.05503 l 0.042333,0.04233 0.067733,0.0508 0.0381,0.0889 0.0127,-0.0127 0.1185334,0.09313 0.1439333,0.01693 0.0762,-0.09737 h 0.093133 l 0.067733,-0.0508 v -0.08043 l 0.0381,-0.0254 0.016933,-0.04233 -0.055033,-0.0508 -0.016933,-0.05927 0.055033,-0.07197 z"
         style="font-style:normal;font-variant:normal;font-weight:normal;font-stretch:normal;font-size:4.23333311px;font-family:B52;-inkscape-font-specification:B52;fill:#000000;stroke-width:0.26458332"
         id="path1488" />
      <path
         d="m 6.2559933,-11.390315 0.0381,0.1016 -0.016933,0.0762 -0.0635,0.1524 -0.1778,-0.01693 h -0.2032 l -0.0762,-0.0254 h -0.067733 l -0.0762,0.04233 v -0.01693 H 5.47706 l -0.0889,0.0508 -0.0889,-0.0762 -0.016933,0.0254 v -0.04233 l -0.055033,-0.0508 v -0.04233 l -0.055033,-0.0508 -0.0762,0.07197 -0.016933,0.0508 -0.0381,0.0381 -0.0889,-0.01693 -0.093133,0.06773 -0.0381,-0.0085 h -0.0889 l -0.042333,0.03387 -0.093133,-0.0254 -0.0508,-0.0508 -0.0762,0.0508 H 4.41026 v -0.0085 l -0.00847,-0.01693 -0.0254,0.01693 -0.016933,-0.01693 h -0.016933 l -0.021167,0.0254 -0.1862666,-0.0254 -0.0635,-0.04233 -0.042333,-0.0381 v -0.05503 l 0.042333,-0.03387 v -0.131234 l 0.1989666,-0.0127 v 0.0127 h 0.1312334 l 0.033867,-0.05503 -0.0254,-0.09313 v -0.0508 l 0.0254,-0.0254 -0.033867,-0.0254 0.033867,-0.06773 v -0.06773 l 0.016933,-0.0254 -0.016933,-0.0085 -0.033867,-0.05927 0.00847,-0.2032 0.0254,-0.01693 -0.033867,-0.04233 0.00847,-0.127 0.0254,-0.0127 -0.033867,-0.05503 -0.0254,-0.09313 0.033867,-0.0762 0.0254,-0.160867 0.016933,-0.0254 -0.042333,-0.03387 0.0254,-0.2032 -0.033867,-0.0381 0.0508,-0.237066 -0.016933,-0.08043 -0.1312333,-0.02963 H 4.23246 l -0.016933,0.02117 -0.042333,-0.02117 -0.071967,-0.02117 -0.097367,-0.09313 0.067733,-0.127 -0.0254,-0.01693 0.127,-0.0762 0.2032,0.05927 0.093133,0.01693 h 0.059267 l 0.016933,-0.01693 H 4.63886 l 0.0762,0.09313 -0.042333,0.2032 -0.021167,0.0085 0.0635,0.118534 -0.0254,0.110066 -0.0381,0.0381 0.0381,0.182034 h -0.016933 l -0.021167,0.0762 v 0.122766 l 0.0381,0.0635 0.093133,-0.0254 0.0762,-0.110066 0.0508,-0.01693 h 0.016933 l 0.0762,-0.110066 0.1354666,-0.09313 h 0.0635 l 0.0254,-0.01693 0.055033,-0.02117 v -0.01693 l 0.0889,-0.03387 v 0.0127 l 0.097367,0.05927 0.1778,0.01693 0.080433,0.0508 v 0.09313 l 0.0508,0.04233 0.0381,0.01693 0.016933,0.0889 v 0.0381 l 0.016933,0.0254 0.016933,0.06773 0.021167,0.364066 h 0.021167 v 0.04233 h -0.021167 l -0.021167,0.09313 v 0.275166 l 0.042333,0.275167 0.093133,0.01693 h 0.2370666 z m -0.6858,-0.6096 0.042333,-0.0381 -0.016933,-0.186266 -0.0381,-0.03387 v -0.224366 l -0.0381,-0.06773 H 5.47706 l -0.00847,-0.0254 v -0.0381 l -0.016933,0.02117 h -0.0635 l -0.0508,-0.03387 -0.1354667,-0.01693 -0.1227667,0.110067 0.016933,0.0085 -0.016933,0.0254 -0.1100666,0.0381 -0.016933,0.105834 -0.1693334,0.131233 -0.067733,0.148166 h -0.0254 v 0.0508 l -0.016933,0.0254 -0.021167,0.186267 0.0381,0.0508 v 0.09313 h -0.016933 l 0.016933,0.06773 0.0254,0.0254 v 0.127 l 0.0889,0.05927 0.055033,-0.04233 0.1100667,0.04233 0.033867,-0.04233 0.055033,0.04233 0.0381,0.0889 0.1058333,-0.0254 0.1354667,-0.105833 h 0.1312333 l 0.00847,-0.01693 0.0254,0.01693 0.055033,0.01693 -0.016933,-0.211666 0.029633,-0.09737 -0.0508,-0.1143 0.021167,-0.01693 0.016933,-0.0381 z"
         style="font-style:normal;font-variant:normal;font-weight:normal;font-stretch:normal;font-size:4.23333311px;font-family:B52;-inkscape-font-specification:B52;fill:#000000;stroke-width:0.26458332"
         id="path1490" />
      <path
         d="m 7.3503104,-12.905848 0.093133,0.0508 -0.0127,0.05927 -0.080433,-0.01693 -0.0508,-0.04233 H 7.244477 Z m 1.1218332,0.08043 v 0.0889 l -0.029633,0.03387 -0.033867,-0.03387 h -0.080433 l 0.021167,-0.0254 -0.0381,-0.0127 h -0.0508 l -0.0381,0.105833 h -0.0254 l -0.016933,0.0254 v 0.02963 h -0.0127 l -0.059267,0.0635 0.021167,0.0889 v 0.05503 H 8.108077 l -0.0381,0.148166 -0.059267,0.03387 0.0254,0.131233 h -0.0254 l -0.0508,0.1651 -0.0381,0.0508 v 0.02117 l 0.021167,0.01693 -0.0508,0.0762 -0.0762,0.09313 0.016933,0.04233 v 0.0508 H 7.815977 l -0.055033,0.160866 0.0127,0.0762 -0.033867,0.0381 0.033867,0.0381 -0.0127,0.0508 -0.080433,0.186267 v 0.06773 l -0.1058334,0.156634 -0.033867,0.02963 0.0127,0.0254 h -0.0127 l -0.021167,0.03387 v 0.05503 h -0.016933 l -0.042333,0.0381 v 0.01693 l 0.0254,0.0127 h -0.0254 l -0.016933,0.02963 v 0.03387 l -0.0127,-0.0254 h -0.0254 l -0.055033,0.05927 -0.127,0.07197 h -0.127 l -0.071967,0.0381 h -0.080433 l -0.033867,-0.0381 -0.1608666,-0.0381 -0.055033,-0.06773 -0.021167,0.01693 v -0.04233 l -0.0381,-0.0381 v 0.02963 h -0.029633 v -0.02963 h 0.00847 l 0.021167,-0.0127 -0.055033,-0.0381 v -0.07197 l -0.016933,-0.01693 -0.0381,-0.160866 0.080433,-0.211667 0.0508,-0.05503 h 0.0381 v -0.0042 l -0.016933,-0.01693 0.016933,-0.0127 0.0127,0.02117 0.042333,-0.05927 0.1058333,0.01693 0.021167,0.02117 h 0.059267 l 0.0508,0.0508 -0.016933,0.02117 0.1058333,0.186266 h -0.0127 l -0.127,0.131234 v 0.05503 l 0.127,0.0508 0.033867,0.0381 0.1100666,-0.1143 0.067733,-0.02963 0.0762,-0.156634 -0.00847,-0.0127 0.0635,-0.08043 0.080433,-0.0889 0.016933,-0.105833 -0.042333,-0.01693 h 0.0254 v -0.09313 l -0.0254,-0.110067 -0.067733,-0.04233 v -0.01693 l -0.021167,-0.0127 -0.021167,-0.169334 -0.0889,-0.131233 v -0.01693 l 0.0127,-0.02117 -0.0508,-0.0508 0.0381,-0.0381 -0.0889,-0.160867 v -0.08043 l -0.016933,-0.186266 -0.0254,-0.0127 h -0.033867 v -0.0381 l -0.055033,-0.05503 -0.016933,-0.09313 -0.055033,-0.09313 v -0.0508 l -0.0762,-0.0254 -0.2794,-0.0127 -0.00847,-0.08043 h -0.0254 l 0.127,-0.06773 0.2032,0.05927 0.093133,-0.04233 0.071967,-0.01693 v 0.01693 l 0.021167,0.01693 h 0.016933 l 0.042333,-0.03387 v 0.01693 l 0.029633,0.01693 v 0.127 l -0.0127,0.0254 0.033867,0.06773 -0.033867,0.04233 0.033867,0.03387 -0.021167,0.1651 0.059267,0.03387 0.071967,0.275166 0.0254,0.05927 0.00847,-0.01693 v 0.0381 l 0.080433,0.0381 0.029633,0.105834 v 0.01693 l -0.016933,0.02117 0.042333,0.04233 v 0.06773 l 0.033867,0.09313 h 0.033867 l -0.0127,0.0508 0.033867,0.04233 0.071967,-0.04233 0.059267,-0.0508 -0.0254,-0.01693 0.042333,-0.0381 0.016933,-0.131233 0.021167,-0.0889 v -0.05503 h 0.0127 l 0.0762,-0.224367 0.059267,-0.0508 v -0.105833 l 0.071967,-0.135467 -0.021167,-0.0254 0.042333,-0.06773 0.00847,-0.0762 -0.067733,-0.105833 -0.1693333,0.0127 -0.033867,-0.03387 -0.016933,-0.110067 0.0381,-0.0381 0.055033,0.02117 0.1651,0.03387 h 0.055033 v 0.0254 l 0.016933,0.0085 h 0.055033 l 0.021167,-0.0085 h 0.093133 l 0.0508,0.0381 h 0.093133 l 0.042333,-0.0381 0.033867,0.0381 z"
         style="font-style:normal;font-variant:normal;font-weight:normal;font-stretch:normal;font-size:4.23333311px;font-family:B52;-inkscape-font-specification:B52;fill:#000000;stroke-width:0.26458332"
         id="path1492" />
      <path
         d="m 10.709461,-11.906781 v 0.143933 l -0.01693,0.135467 v 0.0508 l -0.131233,0.127 v 0.04233 l -0.0127,-0.0254 -0.1651,0.169333 -0.186267,0.03387 -0.01693,0.01693 -0.135467,0.04233 -0.03387,0.0381 -0.016934,-0.0254 -0.0508,0.0381 -0.1185333,-0.09313 -0.0127,0.0254 h -0.055033 l -0.042333,-0.04233 -0.016933,0.01693 -0.093133,-0.0508 -0.1608667,0.01693 -0.2074333,0.05927 h -0.055033 l -0.1058333,-0.131233 v -0.1397 l 0.0127,-0.186267 0.0254,-0.08043 0.016933,-0.0127 -0.016933,-0.0254 -0.0254,-0.06773 v -0.0635 l 0.0254,-0.02963 0.033867,-0.05927 0.0889,-0.01693 0.0889,0.09313 v 0.0381 l 0.093133,0.07197 h 0.0381 l -0.0127,0.01693 0.093133,0.04233 h 0.0508 l 0.016933,0.0508 -0.029633,0.05927 0.0889,0.0508 0.0508,-0.01693 0.059267,-0.03387 0.0762,0.07197 -0.0254,0.06773 0.0254,0.02963 h 0.033867 l 0.016933,-0.06773 h 0.1354669 l 0.0254,0.0381 h 0.0254 l 0.05503,-0.0508 -0.01693,-0.05503 0.01693,-0.0254 0.05503,0.0635 0.0762,-0.02117 0.0381,-0.186267 0.07197,-0.03387 0.01693,-0.01693 v -0.01693 l -0.01693,-0.0254 -0.02117,-0.0508 -0.148166,-0.110067 -0.07197,-0.02117 -0.09737,-0.06773 -0.0085,0.0127 h -0.0635 l -0.029633,-0.03387 -0.0254,0.02117 -0.1608667,0.02963 -0.0762,-0.02963 -0.1862667,-0.02117 -0.1693333,-0.131233 h -0.0254 l -0.0254,0.02117 -0.093133,-0.127 -0.033867,-0.1524 -0.016933,-0.110067 v -0.05927 l 0.1439334,-0.237067 0.0508,-0.0127 0.3005666,-0.1143 0.0889,0.0254 0.016933,0.0127 0.042333,-0.0381 0.127,0.0381 h 0.1100669 l 0.09313,0.0762 0.127,0.0127 0.04233,0.05927 h 0.0381 l 0.07197,-0.110067 h 0.01693 l 0.03387,-0.0381 0.0762,0.01693 0.0127,0.02117 h 0.0254 l -0.01693,-0.01693 0.02117,-0.0127 0.0085,0.0085 -0.0127,0.02117 v 0.0381 l 0.0127,0.0127 0.0508,0.131233 -0.0508,0.148167 -0.0127,0.01693 0.0381,0.03387 h -0.0254 v 0.05927 l 0.04233,0.0889 -0.04233,0.05927 h -0.0889 l 0.02117,-0.02117 -0.131234,-0.127 -0.0381,-0.110067 -0.237066,-0.182033 -0.1143003,0.0127 v -0.0127 l -0.0889,-0.02117 -0.097367,-0.01693 h -0.0889 l -0.093133,0.01693 -0.1862667,0.1524 -0.029633,0.03387 0.055033,0.06773 v 0.04233 h -0.0254 l -0.0127,-0.01693 -0.0381,0.0508 0.0381,0.04233 v 0.06773 l 0.0889,0.0762 h 0.2201333 l 0.097367,0.01693 0.1820333,0.01693 v 0.02117 l 0.093134,0.0508 0.06773,-0.03387 0.207433,0.02117 0.131234,0.110066 h 0.06773 l 0.04233,0.110067 z"
         style="font-style:normal;font-variant:normal;font-weight:normal;font-stretch:normal;font-size:4.23333311px;font-family:B52;-inkscape-font-specification:B52;fill:#000000;stroke-width:0.26458332"
         id="path1494" />
      <path
         d="m 13.090709,-11.906781 v 0.143933 l -0.01693,0.135467 v 0.0508 l -0.131233,0.127 v 0.04233 l -0.0127,-0.0254 -0.1651,0.169333 -0.186267,0.03387 -0.01693,0.01693 -0.135467,0.04233 -0.03387,0.0381 -0.01693,-0.0254 -0.0508,0.0381 -0.118533,-0.09313 -0.0127,0.0254 h -0.05503 l -0.04233,-0.04233 -0.01693,0.01693 -0.09313,-0.0508 -0.160866,0.01693 -0.207434,0.05927 h -0.05503 l -0.105833,-0.131233 v -0.1397 l 0.0127,-0.186267 0.0254,-0.08043 0.01693,-0.0127 -0.01693,-0.0254 -0.0254,-0.06773 v -0.0635 l 0.0254,-0.02963 0.03387,-0.05927 0.0889,-0.01693 0.0889,0.09313 v 0.0381 l 0.09313,0.07197 h 0.0381 l -0.0127,0.01693 0.09313,0.04233 h 0.0508 l 0.01693,0.0508 -0.02963,0.05927 0.0889,0.0508 0.0508,-0.01693 0.05927,-0.03387 0.0762,0.07197 -0.0254,0.06773 0.0254,0.02963 h 0.03387 l 0.01693,-0.06773 h 0.135466 l 0.0254,0.0381 h 0.0254 l 0.05503,-0.0508 -0.01693,-0.05503 0.01693,-0.0254 0.05503,0.0635 0.0762,-0.02117 0.0381,-0.186267 0.07197,-0.03387 0.01693,-0.01693 v -0.01693 l -0.01693,-0.0254 -0.02117,-0.0508 -0.148167,-0.110067 -0.07197,-0.02117 -0.09737,-0.06773 -0.0085,0.0127 h -0.0635 l -0.02963,-0.03387 -0.0254,0.02117 -0.160867,0.02963 -0.0762,-0.02963 -0.186266,-0.02117 -0.169334,-0.131233 h -0.0254 l -0.0254,0.02117 -0.09313,-0.127 -0.03387,-0.1524 -0.01693,-0.110067 v -0.05927 l 0.143933,-0.237067 0.0508,-0.0127 0.300567,-0.1143 0.0889,0.0254 0.01693,0.0127 0.04233,-0.0381 0.127,0.0381 h 0.110066 l 0.09313,0.0762 0.127,0.0127 0.04233,0.05927 h 0.0381 l 0.07197,-0.110067 h 0.01693 l 0.03387,-0.0381 0.0762,0.01693 0.0127,0.02117 h 0.0254 l -0.01693,-0.01693 0.02117,-0.0127 0.0085,0.0085 -0.0127,0.02117 v 0.0381 l 0.0127,0.0127 0.0508,0.131233 -0.0508,0.148167 -0.0127,0.01693 0.0381,0.03387 h -0.0254 v 0.05927 l 0.04233,0.0889 -0.04233,0.05927 h -0.0889 l 0.02117,-0.02117 -0.131233,-0.127 -0.0381,-0.110067 -0.237067,-0.182033 -0.1143,0.0127 v -0.0127 l -0.0889,-0.02117 -0.09737,-0.01693 h -0.0889 l -0.09313,0.01693 -0.186266,0.1524 -0.02963,0.03387 0.05503,0.06773 v 0.04233 h -0.0254 l -0.0127,-0.01693 -0.0381,0.0508 0.0381,0.04233 v 0.06773 l 0.0889,0.0762 h 0.220133 l 0.09737,0.01693 0.182033,0.01693 v 0.02117 l 0.09313,0.0508 0.06773,-0.03387 0.207433,0.02117 0.131233,0.110066 h 0.06773 l 0.04233,0.110067 z"
         style="font-style:normal;font-variant:normal;font-weight:normal;font-stretch:normal;font-size:4.23333311px;font-family:B52;-inkscape-font-specification:B52;fill:#000000;stroke-width:0.26458332"
         id="path1496" />
      <path
         d="m 15.71326,-11.356448 v 0.143933 l -0.01693,0.0254 v 0.02963 h -0.0085 l -0.0254,0.0381 h -0.09313 l -0.01693,-0.0127 h -0.0508 l -0.09313,0.05503 h -0.05927 v -0.01693 l -0.160867,-0.0254 -0.09313,-0.0381 h -0.148167 v -0.02963 l -0.05927,-0.05927 -0.198967,0.01693 v 0.01693 l -0.0762,0.04233 h -0.01693 l -0.01693,-0.01693 -0.0762,0.05503 -0.237066,0.05503 -0.0254,0.01693 -0.143934,-0.110066 h -0.09313 v -0.04233 l -0.06773,-0.01693 h -0.0762 l 0.01693,-0.01693 -0.03387,-0.03387 -0.02117,-0.258233 -0.0381,-0.148167 0.0381,-0.0762 v -0.681566 l -0.0381,-0.0889 -0.01693,-0.09737 -0.04233,-0.05503 -0.09737,-0.0085 -0.04657,0.0254 -0.06773,-0.0254 -0.05927,-0.105833 -0.0042,-0.08043 0.03387,-0.0889 0.0635,-0.02963 0.0508,0.0085 0.09313,-0.01693 0.0085,0.02117 0.0508,0.0635 v -0.0042 l -0.01693,-0.01693 0.01693,-0.01693 0.01693,0.0254 0.01693,-0.0381 0.1524,0.06773 h 0.09313 l -0.0254,0.0254 0.0762,0.03387 0.04233,0.03387 -0.0254,0.02117 0.03387,0.07197 -0.0508,0.186267 v 0.677333 l 0.01693,0.300566 0.1143,0.06773 0.01693,-0.0127 v 0.0127 l 0.05503,0.02963 0.0762,0.0085 0.06773,-0.0381 0.0254,0.02963 h 0.0508 l 0.169334,-0.169333 0.09313,-0.110067 0.01693,-0.156633 0.0762,-0.02963 v -0.0762 h 0.0127 l 0.05503,-0.105833 -0.01693,-0.118533 0.0381,-0.03387 v -0.105833 l 0.02117,-0.135467 0.0889,-0.09313 -0.0889,-0.09313 -0.338667,-0.0085 -0.07197,-0.04233 0.02117,-0.127 0.148167,-0.05927 0.220133,0.01693 0.07197,0.04233 0.0508,-0.01693 h 0.118533 l 0.0508,0.05503 v 0.550333 l 0.0381,0.461433 -0.02117,-0.01693 v 0.06773 l 0.0381,0.169333 v 0.01693 l 0.0889,0.0381 h 0.05503 l 0.0381,0.0508 0.04233,0.0381 h 0.0889 l 0.0381,0.04233 h 0.0508 z"
         style="font-style:normal;font-variant:normal;font-weight:normal;font-stretch:normal;font-size:4.23333311px;font-family:B52;-inkscape-font-specification:B52;fill:#000000;stroke-width:0.26458332"
         id="path1498" />
      <path
         d="m 18.255377,-11.369148 0.01693,0.0889 -0.0508,0.110067 -0.09313,0.0381 -0.1143,-0.0254 H 17.76431 l -0.3175,-0.0127 -0.02117,0.0381 v -0.0254 l -0.122766,-0.0127 h -0.05927 l -0.0381,0.0381 -0.258233,-0.0381 -0.0127,0.0381 -0.09313,-0.0381 -0.03387,-0.0762 0.0085,-0.07197 0.05927,-0.02117 0.05927,-0.02963 0.0127,0.0127 0.105833,-0.09313 -0.0085,-0.0085 h 0.0085 l 0.04233,-0.08043 -0.04233,-0.0889 -0.0085,-0.05927 0.03387,-0.0381 -0.0254,-0.0127 0.04233,-0.0762 -0.06773,-0.135467 0.06773,-0.156633 0.02117,-0.02117 -0.02117,-0.01693 -0.04233,-0.0508 v -0.118533 l -0.0085,-0.01693 0.1016,-0.1143 v -0.02963 l -0.0127,-0.0254 -0.01693,0.0254 -0.0381,-0.04233 -0.0254,-0.0508 -0.194733,-0.05927 -0.01693,-0.01693 -0.131233,0.0762 -0.07197,0.09313 -0.01693,0.118534 h -0.04233 l -0.0508,0.131233 0.0381,0.224366 v 0.461434 l 0.02963,0.0508 v 0.0381 l -0.01693,0.01693 0.09313,0.0254 0.0762,0.06773 -0.0381,0.110067 v 0.07197 l -0.258233,0.0254 -0.09313,0.0127 H 16.22761 v -0.0381 l -0.2667,0.0127 -0.05927,-0.127 0.06773,-0.1143 0.0381,0.0381 0.03387,-0.02117 0.09737,-0.08043 0.07197,0.01693 h 0.05503 l 0.04233,-0.05503 -0.01693,-0.0127 0.0254,-0.05503 v -0.300566 l 0.0254,-0.09313 0.01693,-0.143933 v -0.131233 l -0.0508,-0.07197 0.03387,-0.127 0.0381,-0.09313 -0.02117,-0.01693 -0.01693,-0.07197 -0.0762,-0.08043 -0.06773,0.04233 -0.131234,-0.0762 v -0.01693 l -0.0254,-0.01693 h -0.02963 l -0.02117,-0.05927 -0.0127,-0.0127 0.143934,-0.135467 0.0889,-0.0127 0.0381,0.0381 0.01693,-0.0254 0.04233,0.0381 h 0.0508 l 0.143934,0.0762 0.0381,0.05503 0.0254,-0.02117 0.02963,0.0381 0.1143,-0.07197 0.01693,-0.05927 0.02117,0.0254 0.09313,-0.08043 h 0.06773 l 0.0254,-0.0127 0.02963,0.0381 0.0635,-0.0254 0.1778,0.207433 h 0.0381 l 0.03387,-0.0381 0.08043,0.01693 0.0889,-0.0508 v -0.0381 l 0.1651,-0.05927 0.09313,-0.0127 0.237067,0.0889 -0.01693,0.02117 0.0508,0.03387 0.0254,0.148167 0.0381,0.0381 -0.0381,0.3302 -0.05927,0.198966 0.05927,0.1524 v 0.423334 l 0.0381,0.110066 0.105833,0.02117 0.01693,-0.02117 v -0.01693 z m -0.4826,-0.889 0.04233,-0.148166 -0.04233,-0.05503 -0.03387,-0.0889 -0.01693,0.01693 h -0.01693 l -0.03387,-0.03387 -0.0254,-0.05927 -0.127,-0.05927 -0.05503,0.0254 v 0.05503 l -0.01693,0.07197 h -0.0381 l 0.01693,0.01693 -0.0508,0.05503 h -0.01693 l -0.08043,0.148167 v 0.0762 l -0.05503,0.110066 0.09313,0.127 -0.0127,0.01693 v 0.0254 l -0.0381,0.160866 v 0.05927 l -0.05927,0.110067 0.110067,0.127 -0.0127,0.0127 v 0.05503 l 0.0127,0.0254 v 0.01693 l 0.148166,-0.04233 0.0381,0.0762 h 0.01693 l 0.05927,-0.03387 h 0.06773 l 0.0762,-0.04233 v -0.01693 l -0.01693,-0.0508 -0.02117,-0.169334 0.08043,-0.09313 v -0.0508 l -0.04233,-0.2413 0.07197,-0.1397 -0.02963,-0.04233 z"
         style="font-style:normal;font-variant:normal;font-weight:normal;font-stretch:normal;font-size:4.23333311px;font-family:B52;-inkscape-font-specification:B52;fill:#000000;stroke-width:0.26458332"
         id="path1500" />
      <path
         d="m 20.636625,-11.369148 0.01693,0.0889 -0.0508,0.110067 -0.09313,0.0381 -0.1143,-0.0254 h -0.249767 l -0.3175,-0.0127 -0.02117,0.0381 v -0.0254 l -0.122767,-0.0127 h -0.05927 l -0.0381,0.0381 -0.258233,-0.0381 -0.0127,0.0381 -0.09313,-0.0381 -0.03387,-0.0762 0.0085,-0.07197 0.05927,-0.02117 0.05927,-0.02963 0.0127,0.0127 0.105833,-0.09313 -0.0085,-0.0085 h 0.0085 l 0.04233,-0.08043 -0.04233,-0.0889 -0.0085,-0.05927 0.03387,-0.0381 -0.0254,-0.0127 0.04233,-0.0762 -0.06773,-0.135467 0.06773,-0.156633 0.02117,-0.02117 -0.02117,-0.01693 -0.04233,-0.0508 v -0.118533 l -0.0085,-0.01693 0.1016,-0.1143 v -0.02963 l -0.0127,-0.0254 -0.01693,0.0254 -0.0381,-0.04233 -0.0254,-0.0508 -0.194733,-0.05927 -0.01693,-0.01693 -0.131234,0.0762 -0.07197,0.09313 -0.01693,0.118534 h -0.04233 l -0.0508,0.131233 0.0381,0.224366 v 0.461434 l 0.02963,0.0508 v 0.0381 l -0.01693,0.01693 0.09313,0.0254 0.0762,0.06773 -0.0381,0.110067 v 0.07197 l -0.258233,0.0254 -0.09313,0.0127 h -0.131234 v -0.0381 l -0.266699,0.0127 -0.05927,-0.127 0.06773,-0.1143 0.0381,0.0381 0.03387,-0.02117 0.09737,-0.08043 0.07197,0.01693 h 0.05503 l 0.04233,-0.05503 -0.01693,-0.0127 0.0254,-0.05503 v -0.300566 l 0.0254,-0.09313 0.01693,-0.143933 v -0.131233 l -0.0508,-0.07197 0.03387,-0.127 0.0381,-0.09313 -0.02117,-0.01693 -0.01693,-0.07197 -0.0762,-0.08043 -0.06773,0.04233 -0.131233,-0.0762 v -0.01693 l -0.0254,-0.01693 h -0.02963 l -0.02117,-0.05927 -0.0127,-0.0127 0.143933,-0.135467 0.0889,-0.0127 0.0381,0.0381 0.01693,-0.0254 0.04233,0.0381 h 0.0508 l 0.143933,0.0762 0.0381,0.05503 0.0254,-0.02117 0.02963,0.0381 0.1143,-0.07197 0.01693,-0.05927 0.02117,0.0254 0.09313,-0.08043 h 0.06773 l 0.0254,-0.0127 0.02963,0.0381 0.0635,-0.0254 0.1778,0.207433 h 0.0381 l 0.03387,-0.0381 0.08043,0.01693 0.0889,-0.0508 v -0.0381 l 0.1651,-0.05927 0.09313,-0.0127 0.237066,0.0889 -0.01693,0.02117 0.0508,0.03387 0.0254,0.148167 0.0381,0.0381 -0.0381,0.3302 -0.05927,0.198966 0.05927,0.1524 v 0.423334 l 0.0381,0.110066 0.105833,0.02117 0.01693,-0.02117 v -0.01693 z m -0.4826,-0.889 0.04233,-0.148166 -0.04233,-0.05503 -0.03387,-0.0889 -0.01693,0.01693 h -0.01693 l -0.03387,-0.03387 -0.0254,-0.05927 -0.127,-0.05927 -0.05503,0.0254 v 0.05503 l -0.01693,0.07197 h -0.0381 l 0.01693,0.01693 -0.0508,0.05503 h -0.01693 l -0.08043,0.148167 v 0.0762 l -0.05503,0.110066 0.09313,0.127 -0.0127,0.01693 v 0.0254 l -0.0381,0.160866 v 0.05927 l -0.05927,0.110067 0.110067,0.127 -0.0127,0.0127 v 0.05503 l 0.0127,0.0254 v 0.01693 l 0.148167,-0.04233 0.0381,0.0762 h 0.01693 l 0.05927,-0.03387 h 0.06773 l 0.0762,-0.04233 v -0.01693 l -0.01693,-0.0508 -0.02117,-0.169334 0.08043,-0.09313 v -0.0508 l -0.04233,-0.2413 0.07197,-0.1397 -0.02963,-0.04233 z"
         style="font-style:normal;font-variant:normal;font-weight:normal;font-stretch:normal;font-size:4.23333311px;font-family:B52;-inkscape-font-specification:B52;fill:#000000;stroke-width:0.26458332"
         id="path1502" />
      <path
         d="m 22.556444,-12.313181 0.0381,0.05503 -0.01693,0.02117 v 0.0508 h -0.02117 l -0.02117,0.08043 v 0.0127 l 0.02117,0.01693 -0.02117,0.09313 h -0.1397 v -0.01693 l -0.0381,-0.01693 h -0.0508 l -0.135466,0.09313 -0.131234,-0.09313 -0.182033,0.05927 -0.0508,0.0635 h -0.04233 v -0.05503 l -0.05503,-0.03387 -0.237066,0.0254 -0.1143,0.03387 -0.06773,-0.03387 -0.0508,0.0508 0.0508,0.09313 -0.04233,0.03387 0.05503,0.07197 -0.0127,0.02117 0.06773,0.131233 0.1143,0.05503 v 0.0127 l 0.186266,0.08043 0.0508,0.0508 h 0.105834 v 0.01693 l 0.0254,0.02117 0.09313,-0.0508 h 0.143933 l 0.05927,-0.0381 0.0508,-0.118533 0.09313,-0.0508 0.1143,-0.110067 0.07197,-0.02117 0.06773,0.0889 -0.0085,0.09313 -0.08043,0.09313 -0.0381,0.0762 -0.1016,0.0762 -0.05927,0.06773 -0.220134,0.04233 -0.05927,0.0508 h -0.0889 l -0.0381,0.04233 -0.0508,-0.01693 -0.0635,-0.0381 -0.254,-0.0254 -0.131234,-0.0889 v -0.03387 l -0.0127,-0.02117 h -0.0381 v -0.0381 l -0.0508,-0.02963 -0.0254,-0.02117 -0.01693,-0.09737 -0.09313,-0.06773 -0.0508,-0.0889 -0.0254,-0.135466 -0.01693,-0.2032 -0.07197,-0.110067 v -0.0762 l 0.0508,-0.01693 0.0381,-0.07197 v -0.148166 h 0.0254 l 0.06773,-0.143934 v -0.04233 l 0.118533,-0.09313 0.143934,-0.06773 v -0.05927 l 0.0889,-0.0508 0.01693,0.01693 0.0508,-0.05927 0.0381,0.04233 0.04233,-0.05927 0.258234,0.01693 0.258233,0.04233 0.03387,0.0381 h 0.05503 v 0.03387 l 0.02117,0.01693 h 0.05927 l 0.03387,0.0889 0.105833,0.09313 v 0.05927 l 0.08043,0.148166 0.0508,0.05503 z m -0.491067,0.118533 0.0127,-0.3048 -0.09313,-0.127 -0.01693,-0.05927 -0.01693,0.04233 h -0.01693 l -0.0254,-0.01693 v -0.0254 l -0.1016,0.0254 -0.04233,0.03387 -0.01693,-0.01693 v -0.01693 h -0.0381 l -0.0127,-0.0254 v -0.0085 h -0.0762 l -0.0508,0.0508 0.0085,0.0762 -0.0381,0.03387 -0.0127,0.110066 q 0,0.02117 -0.05503,0.09313 l -0.05503,0.03387 -0.01693,0.02117 0.03387,0.0889 0.0381,0.01693 v 0.0254 h 0.05503 l 0.09313,0.01693 0.0889,-0.0508 0.04657,-0.01693 0.03387,0.0085 0.0508,0.05927 0.0381,-0.04233 h 0.02963 l 0.04233,-0.05503 0.01693,0.02963 z"
         style="font-style:normal;font-variant:normal;font-weight:normal;font-stretch:normal;font-size:4.23333311px;font-family:B52;-inkscape-font-specification:B52;fill:#000000;stroke-width:0.26458332"
         id="path1504" />
      <path
         d="m 25.238259,-12.736514 v 0.186266 l -0.03387,0.03387 v 0.110067 l -0.152399,0.09313 -0.127,-0.09313 -0.01693,-0.06773 -0.01693,-0.0254 v -0.0508 l 0.01693,-0.01693 -0.0762,-0.118533 h -0.143933 l -0.01693,0.0254 -0.186267,0.127 -0.110067,0.148166 -0.03387,0.02963 0.01693,0.0254 -0.110067,0.07197 -0.05927,0.1143 0.02117,0.0889 -0.05503,0.07197 0.01693,0.0254 h -0.01693 l -0.01693,0.1016 -0.01693,0.0254 0.0508,0.03387 0.01693,0.05927 v 0.198967 l 0.02117,0.0127 0.06773,0.09313 0.0381,-0.0254 h 0.08043 l 0.0127,-0.02963 v 0.02963 l 0.0254,0.0085 h 0.0508 v 0.01693 l 0.186267,0.04233 0.0508,0.03387 0.01693,-0.0127 v 0.182033 l -0.09313,0.06773 h -0.1016 l -0.09737,0.04233 0.01693,0.01693 h -0.0889 l -0.03387,-0.03387 h -0.09313 l -0.02117,-0.0254 -0.07197,0.04233 h -0.0762 l -0.0127,0.03387 -0.156633,-0.03387 -0.02963,-0.01693 h -0.07197 l -0.04233,0.03387 h -0.05503 l -0.0127,0.01693 -0.131233,0.01693 v -0.01693 l -0.05503,-0.01693 h -0.05927 l -0.0508,-0.05927 -0.02117,0.0254 -0.1397,-0.169334 0.0085,-0.0762 0.08043,-0.06773 0.237067,-0.04233 0.0381,-0.0381 v 0.02963 l 0.160866,0.0508 0.0508,-0.04233 -0.0254,-0.0762 v -0.0508 h 0.0508 l 0.0381,-0.06773 v -0.2794 l -0.02117,-0.0254 h 0.02117 l 0.01693,-0.143933 0.0127,-0.0508 v -0.04233 l 0.0254,-0.0085 -0.0762,-0.0635 0.02117,-0.05503 0.02963,-0.186267 v -0.01693 l -0.0508,-0.0508 0.02117,-0.0254 v -0.0127 l -0.0635,-0.05503 h -0.105833 l -0.0127,-0.0254 -0.02117,0.0254 -0.1651,0.03387 h -0.02117 l -0.0127,0.02117 -0.04233,-0.05503 -0.01693,0.01693 -0.0762,-0.09313 v -0.110067 l 0.05927,-0.1143 0.254,0.0381 h 0.296333 l 0.1143,0.09737 0.05503,0.0889 v 0.110066 l -0.04233,0.0762 0.01693,0.01693 0.0254,0.05927 0.03387,0.02963 0.07197,-0.0889 v -0.01693 l -0.01693,-0.01693 0.131234,-0.05927 0.01693,-0.127 0.169333,-0.05927 0.06773,-0.06773 h 0.169333 l 0.0127,-0.0254 0.0381,-0.02963 h 0.0762 l 0.110067,-0.0254 0.09313,0.08043 v 0.03387 l 0.0889,0.05503 0.02117,-0.02117 z"
         style="font-style:normal;font-variant:normal;font-weight:normal;font-stretch:normal;font-size:4.23333311px;font-family:B52;-inkscape-font-specification:B52;fill:#000000;stroke-width:0.26458332"
         id="path1506" />
      <path
         d="m 26.772841,-12.025315 0.09313,0.09737 0.0508,0.0508 v 0.08043 l 0.0254,0.0085 0.0381,0.09313 -0.0635,0.156634 v 0.0889 h -0.01693 l -0.0085,0.07197 v 0.0508 l -0.169333,0.08043 -0.110067,0.0762 h -0.0762 l -0.01693,0.0127 -0.0381,-0.03387 -0.08043,0.03387 -0.0085,0.01693 -0.05927,-0.01693 -0.0889,-0.0889 -0.02117,0.01693 h -0.05927 l -0.0508,-0.07197 -0.0508,-0.186266 -0.04233,-0.02117 h 0.01693 v -0.0508 l -0.01693,-0.2032 0.09313,-0.1651 0.131233,-0.09737 h 0.02963 l 0.05927,-0.0508 0.127,-0.04233 0.02117,0.0254 h 0.0381 l 0.01693,-0.03387 z"
         style="font-style:normal;font-variant:normal;font-weight:normal;font-stretch:normal;font-size:4.23333311px;font-family:B52;-inkscape-font-specification:B52;fill:#000000;stroke-width:0.26458332"
         id="path1508" />
      <path
         d="m 30.00076,-12.736514 v 0.186266 l -0.03387,0.03387 v 0.110067 l -0.1524,0.09313 -0.127,-0.09313 -0.01693,-0.06773 -0.01693,-0.0254 v -0.0508 l 0.01693,-0.01693 -0.0762,-0.118533 h -0.143933 l -0.01693,0.0254 -0.186266,0.127 -0.110067,0.148166 -0.03387,0.02963 0.01693,0.0254 -0.110067,0.07197 -0.05927,0.1143 0.02117,0.0889 -0.05503,0.07197 0.01693,0.0254 h -0.01693 l -0.01693,0.1016 -0.01693,0.0254 0.0508,0.03387 0.01693,0.05927 v 0.198967 l 0.02117,0.0127 0.06773,0.09313 0.0381,-0.0254 h 0.08043 l 0.0127,-0.02963 v 0.02963 l 0.0254,0.0085 h 0.0508 v 0.01693 l 0.186266,0.04233 0.0508,0.03387 0.01693,-0.0127 v 0.182033 l -0.09313,0.06773 h -0.1016 l -0.09737,0.04233 0.01693,0.01693 h -0.0889 l -0.03387,-0.03387 h -0.09313 l -0.02117,-0.0254 -0.07197,0.04233 h -0.0762 l -0.0127,0.03387 -0.156634,-0.03387 -0.02963,-0.01693 h -0.07197 l -0.04233,0.03387 h -0.05503 l -0.0127,0.01693 -0.131234,0.01693 v -0.01693 l -0.05503,-0.01693 h -0.05927 l -0.0508,-0.05927 -0.02117,0.0254 -0.1397,-0.169334 0.0085,-0.0762 0.08043,-0.06773 0.237066,-0.04233 0.0381,-0.0381 v 0.02963 l 0.160867,0.0508 0.0508,-0.04233 -0.0254,-0.0762 v -0.0508 h 0.0508 l 0.0381,-0.06773 v -0.2794 l -0.02117,-0.0254 h 0.02117 l 0.01693,-0.143933 0.0127,-0.0508 v -0.04233 l 0.0254,-0.0085 -0.0762,-0.0635 0.02117,-0.05503 0.02963,-0.186267 v -0.01693 l -0.0508,-0.0508 0.02117,-0.0254 v -0.0127 l -0.0635,-0.05503 h -0.105833 l -0.0127,-0.0254 -0.02117,0.0254 -0.1651,0.03387 h -0.02117 l -0.0127,0.02117 -0.04233,-0.05503 -0.01693,0.01693 -0.0762,-0.09313 v -0.110067 l 0.05927,-0.1143 0.254,0.0381 h 0.296334 l 0.1143,0.09737 0.05503,0.0889 v 0.110066 l -0.04233,0.0762 0.01693,0.01693 0.0254,0.05927 0.03387,0.02963 0.07197,-0.0889 v -0.01693 l -0.01693,-0.01693 0.131233,-0.05927 0.01693,-0.127 0.169333,-0.05927 0.06773,-0.06773 h 0.169334 l 0.0127,-0.0254 0.0381,-0.02963 h 0.0762 l 0.110066,-0.0254 0.09313,0.08043 v 0.03387 l 0.0889,0.05503 0.02117,-0.02117 z"
         style="font-style:normal;font-variant:normal;font-weight:normal;font-stretch:normal;font-size:4.23333311px;font-family:B52;-inkscape-font-specification:B52;fill:#000000;stroke-width:0.26458332"
         id="path1510" />
      <path
         d="m 32.382008,-11.356448 v 0.143933 l -0.01693,0.0254 v 0.02963 h -0.0085 l -0.0254,0.0381 h -0.09313 l -0.01693,-0.0127 h -0.0508 l -0.09313,0.05503 h -0.05927 v -0.01693 l -0.160867,-0.0254 -0.09313,-0.0381 h -0.148167 v -0.02963 l -0.05927,-0.05927 -0.198966,0.01693 v 0.01693 l -0.0762,0.04233 h -0.01693 l -0.01693,-0.01693 -0.0762,0.05503 -0.237067,0.05503 -0.0254,0.01693 -0.143933,-0.110066 h -0.09313 v -0.04233 l -0.06773,-0.01693 h -0.0762 l 0.01693,-0.01693 -0.03387,-0.03387 -0.02117,-0.258233 -0.0381,-0.148167 0.0381,-0.0762 v -0.681566 l -0.0381,-0.0889 -0.01693,-0.09737 -0.04233,-0.05503 -0.09737,-0.0085 -0.04657,0.0254 -0.06773,-0.0254 -0.05927,-0.105833 -0.0042,-0.08043 0.03387,-0.0889 0.0635,-0.02963 0.0508,0.0085 0.09313,-0.01693 0.0085,0.02117 0.0508,0.0635 v -0.0042 l -0.01693,-0.01693 0.01693,-0.01693 0.01693,0.0254 0.01693,-0.0381 0.1524,0.06773 h 0.09313 l -0.0254,0.0254 0.0762,0.03387 0.04233,0.03387 -0.0254,0.02117 0.03387,0.07197 -0.0508,0.186267 v 0.677333 l 0.01693,0.300566 0.1143,0.06773 0.01693,-0.0127 v 0.0127 l 0.05503,0.02963 0.0762,0.0085 0.06773,-0.0381 0.0254,0.02963 h 0.0508 l 0.169333,-0.169333 0.09313,-0.110067 0.01693,-0.156633 0.0762,-0.02963 v -0.0762 h 0.0127 l 0.05503,-0.105833 -0.01693,-0.118533 0.0381,-0.03387 v -0.105833 l 0.02117,-0.135467 0.0889,-0.09313 -0.0889,-0.09313 -0.338667,-0.0085 -0.07197,-0.04233 0.02117,-0.127 0.148167,-0.05927 0.220133,0.01693 0.07197,0.04233 0.0508,-0.01693 h 0.118533 l 0.0508,0.05503 v 0.550333 l 0.0381,0.461433 -0.02117,-0.01693 v 0.06773 l 0.0381,0.169333 v 0.01693 l 0.0889,0.0381 h 0.05503 l 0.0381,0.0508 0.04233,0.0381 h 0.0889 l 0.0381,0.04233 h 0.0508 z"
         style="font-style:normal;font-variant:normal;font-weight:normal;font-stretch:normal;font-size:4.23333311px;font-family:B52;-inkscape-font-specification:B52;fill:#000000;stroke-width:0.26458332"
         id="path1512" />
    </g>
  </g>
  <g
     inkscape:groupmode="layer"
     id="layer3"
     inkscape:label="qrcode"
     transform="translate(0,40)">
    <image
       y="-21.697521"
       x="-35.987957"
       id="image4303-6"
       xlink:href="data:image/png;base64,iVBORw0KGgoAAAANSUhEUgAAAQgAAAEICAYAAACj9mr/AAAABHNCSVQICAgIfAhkiAAABQRJREFU eJzt3UGu2zgQQMHxIPe/suYC88IFQTRlV+0Dy7LyQID9qc/zPM8/AP/j3+kLAO4lEEASCCAJBJAE AkgCASSBAJJAAEkggCQQQBIIIAkEkAQCSAIBJIEAkkAASSCAJBBAEgggCQSQBAJIAgEkgQCSQABJ IIAkEEASCCAJBJAEAkgCASSBANKf6Qv4fD7Tl3DU8zyjn7+6v6ev7/Tne37OsoIAkkAASSCAJBBA EgggCQSQBAJI43MQK9P7wCtv34ffvf7bf5/br+/258cKAkgCASSBAJJAAEkggCQQQBIIIF0/B7Fy eh95eh999zyF6euf/vyVb39+dllBAEkggCQQQBIIIAkEkAQCSAIBpNfPQXy70++NePt7MTjLCgJI AgEkgQCSQABJIIAkEEASCCCZg/hyqzmD3TmF3fMUzEnczQoCSAIBJIEAkkAASSCAJBBAEgggvX4O 4u375G+fAzg9J3Ha7fd3mhUEkAQCSAIBJIEAkkAASSCAJBBAun4O4vZ99GnTcxTT50mseH72WEEA SSCAJBBAEgggCQSQBAJIAgGkz+MP4q82Peew6+3X/+usIIAkEEASCCAJBJAEAkgCASSBANL4HMTp ffLp8wqmz0M4ff+m7d5fcxh/ZwUBJIEAkkAASSCAJBBAEgggCQSQxucgft3t+/S/Pgdy2u2/vxUE kAQCSAIBJIEAkkAASSCAJBBA+jN9Ad9+XsP0eQynz0u4fY7h7b/fNCsIIAkEkAQCSAIBJIEAkkAA SSCAND4Hcfrv3afnHKbf+zE95/D2OYBd0+c57LKCAJJAAEkggCQQQBIIIAkEkAQCSONzEG93+3sN bp8DWZk+b2J6jmT6+bGCAJJAAEkggCQQQBIIIAkEkAQCSONzELv7zNP72NP74NOfPz0HMn3exPTz cZoVBJAEAkgCASSBAJJAAEkggCQQQBqfg7h9n316H3t6TmTa6TmDb59j2GUFASSBAJJAAEkggCQQ QBIIIAkEkD7P8MH7t+9D796e6X3y6fu3a/o8idO///R7L1asIIAkEEASCCAJBJAEAkgCASSBANL4 HMRp0/v80/vo03Mmb5/D2PX2/15WEEASCCAJBJAEAkgCASSBAJJAAGn8vRin3b4Pffq8gNP//vbz OFZOz3nsfv7082sFASSBAJJAAEkggCQQQBIIIAkEkMbnIH79PIDpfe6V6fMkVm6fI3j7820FASSB AJJAAEkggCQQQBIIIAkEkMbnIFam97FXdve5p987cfr+Tr9347Tp+3uaFQSQBAJIAgEkgQCSQABJ IIAkEEC6fg5i5e3vZXj7eQqn5wBuP0/BezGAnyUQQBIIIAkEkAQCSAIBJIEA0uvnIN7u9n3w6eu7 fY5i9/5M/74rVhBAEgggCQSQBAJIAgEkgQCSQADJHMSw6fMWdp2eA5j+/qfP65j+fitWEEASCCAJ BJAEAkgCASSBAJJAAOn1cxDT+8SnTb83Y+X290J8+/WdZgUBJIEAkkAASSCAJBBAEgggCQSQrp+D mN7nP233+02fp3D7eyem31tx+vc9zQoCSAIBJIEAkkAASSCAJBBAEgggfZ7pjVbgWlYQQBIIIAkE kAQCSAIBJIEAkkAASSCAJBBAEgggCQSQBAJIAgEkgQCSQABJIIAkEEASCCAJBJAEAkgCASSBAJJA AEkggCQQQBIIIAkEkAQCSAIBJIEAkkAA6T/ZR6QKboWofwAAAABJRU5ErkJggg== "
       style="display:inline;image-rendering:optimizeSpeed"
       preserveAspectRatio="none"
       height="18.844879"
       width="18.844879"
       transform="rotate(90)" />
  </g>
</svg>
