<?xml version="1.0" encoding="UTF-8" standalone="no"?>
<!-- Created with Inkscape (http://www.inkscape.org/) -->

<svg
   xmlns:dc="http://purl.org/dc/elements/1.1/"
   xmlns:cc="http://creativecommons.org/ns#"
   xmlns:rdf="http://www.w3.org/1999/02/22-rdf-syntax-ns#"
   xmlns:svg="http://www.w3.org/2000/svg"
   xmlns="http://www.w3.org/2000/svg"
   xmlns:xlink="http://www.w3.org/1999/xlink"
   xmlns:sodipodi="http://sodipodi.sourceforge.net/DTD/sodipodi-0.dtd"
   xmlns:inkscape="http://www.inkscape.org/namespaces/inkscape"
   width="210mm"
   height="297mm"
   viewBox="0 0 210 297"
   version="1.1"
   id="svg4381"
   inkscape:version="0.92.3 (2405546, 2018-03-11)"
   sodipodi:docname="sticker.svg.2019_07_15_09_43_03.0.svg"
   inkscape:export-filename="/home/ivan/Documents/child/materials/2019/art/sticker.png"
   inkscape:export-xdpi="300"
   inkscape:export-ydpi="300">
  <defs
     id="defs4375" />
  <sodipodi:namedview
     id="base"
     pagecolor="#ffffff"
     bordercolor="#666666"
     borderopacity="1.0"
     inkscape:pageopacity="0.0"
     inkscape:pageshadow="2"
     inkscape:zoom="2.8"
     inkscape:cx="158.89538"
     inkscape:cy="1000.0665"
     inkscape:document-units="mm"
     inkscape:current-layer="layer1"
     showgrid="false"
     inkscape:window-width="1920"
     inkscape:window-height="1080"
     inkscape:window-x="0"
     inkscape:window-y="0"
     inkscape:window-maximized="1"
     inkscape:measure-start="0,0"
     inkscape:measure-end="0,0"
     inkscape:snap-bbox="true"
     inkscape:snap-global="false">
    <inkscape:grid
       type="xygrid"
       id="grid833" />
  </sodipodi:namedview>
  <metadata
     id="metadata4378">
    <rdf:RDF>
      <cc:Work
         rdf:about="">
        <dc:format>image/svg+xml</dc:format>
        <dc:type
           rdf:resource="http://purl.org/dc/dcmitype/StillImage" />
        <dc:title />
      </cc:Work>
    </rdf:RDF>
  </metadata>
  <g
     inkscape:groupmode="layer"
     id="layer2"
     inkscape:label="background" />
  <g
     inkscape:groupmode="layer"
     id="layer3"
     inkscape:label="hand" />
  <g
     inkscape:label="lfsh 2019"
     inkscape:groupmode="layer"
     id="layer1"
     style="display:inline">
    <g
       id="g843"
       inkscape:export-xdpi="300"
       inkscape:export-ydpi="300">
      <circle
         r="24.957125"
         cy="37.893749"
         cx="40.825001"
         id="path836"
         style="opacity:1;fill:#ffffff;fill-opacity:1;stroke:none;stroke-width:0.08575104;stroke-miterlimit:4;stroke-dasharray:none;stroke-opacity:1;paint-order:markers fill stroke" />
      <circle
         transform="matrix(-0.44248623,0.8967753,0.8967753,0.44248623,0,0)"
         r="22.602682"
         cy="53.378319"
         cx="15.917677"
         id="path847"
         style="opacity:1;fill:none;fill-opacity:1;stroke:none;stroke-width:0.0949194;stroke-miterlimit:4;stroke-dasharray:none;stroke-opacity:1;paint-order:markers fill stroke" />
      <text
         id="text851"
         style="font-style:normal;font-weight:normal;font-size:15.12553024px;line-height:1.25;font-family:sans-serif;letter-spacing:0px;word-spacing:0px;fill:#000000;fill-opacity:1;stroke:none;stroke-width:0.26458332"
         xml:space="preserve"><textPath
           style="font-style:normal;font-variant:normal;font-weight:normal;font-stretch:normal;font-family:Quasimodo;-inkscape-font-specification:Quasimodo;letter-spacing:1.32291663px;stroke-width:0.26458332"
           id="textPath853"
           xlink:href="#path847">2019</textPath></text>
      <g
         id="g10"
         transform="matrix(0.14627661,0,0,0.14627661,68.96805,-23.805372)"
         style="display:inline;stroke:none">
        <path
           id="path2"
           display="none"
           d="m -51.927,1211.4 c 0,0 -19.084,-0.022 -0.6989,-132.69 18.385,-132.67 28.581,-179.63 47.303,-287.74 7.058,-16.144 -68.386,-92.223 -128.92,-197.74 -61.752,-107.65 -143.67,-235.81 -188.73,-280.45 0,0 174.61,-335.45 237.82,-349.69 0,0 301.38,108.86 337.07,144.55 0,0 -1.6885,91.675 -28.643,104.22 -26.954,12.545 -108.88,44.596 -154.54,34.604 0,0 -66.513,-72.404 -90.339,-83.503 0,0 -6.2708,4.3005 1.4514,23.868 7.7223,19.567 -10.401,69.409 -39.278,89.532 0,0 -21.845,3.1385 -20.069,6.7997 1.7759,3.6612 5.1862,8.7151 30.211,12.041 25.025,3.3263 41.423,16.893 51.14,21.771 9.7179,4.8781 39.999,16.859 64.275,23.708 0,0 237.12,313.26 237.12,342.05 0,0 -71.967,66.21 -101.91,69.003 0,0 -4.9395,0.036 0,4.9752 4.9395,4.9394 64.576,-0.9453 70.888,5.3668 6.312,6.3121 2.0121,22.684 6.6121,38.006 4.6,15.322 22.423,131.29 18.492,150.03 0,0 -2.1134,15.798 3.9779,28.437 2.6931,15.337 7.0638,82.162 5.3597,88.037 -1.7042,5.8755 3.834,11.414 3.834,11.414 0,0 6.1136,-2.9048 6.1136,-14.191 0,-11.287 -14.714,-261.05 -3.911,-270.72 0,0 10.116,-12.895 18.905,-12.895 8.7897,0 24.763,-16.029 32.11,-20.005 0,0 4.1583,-5.0769 -6.9741,-10.951 -11.132,-5.8739 -31.725,-18.701 -41.369,-59.708 -11.644,-20.008 -24.279,-66.087 -42.322,-107.92 -18.043,-41.833 -13.73,-36.424 -13.73,-36.424 0,0 -95.371,-114.55 -124.65,-153.11 0,0 -16.104,-21.264 0,-20.371 16.104,0.8935 144.04,21.674 160.33,34.795 0,0 53.016,4.6835 81.207,39.683 32.728,29.035 57.304,56.303 68.414,60.484 0,0 8.8715,5.9367 12.407,14.309 3.5355,8.3723 10.106,8.5808 13.767,3.4523 3.6608,-5.1286 12.321,-17.493 16.67,-17.493 4.3491,0 117,-105.42 123.05,-105.42 6.0514,0 12.327,-9.6339 14.314,6.1003 1.9872,15.734 -14.467,140.6 -25.387,151.52 -1.9001,9.1588 -23.234,109.72 -34.18,133.09 -10.946,23.37 -15.924,16.687 -38.31,46.531 0,0 -18.462,35.024 -29.648,46.21 -11.186,11.186 -20.622,22.675 -22.309,29.028 -1.6869,6.3539 -13.386,144.18 -8.6575,181.52 0,39.338 0.7406,137.01 -2.4326,150.93 -3.1732,13.92 -6.3809,32.405 -6.3809,48.072 0,0 1.8606,13.464 -7.7947,14.32 -9.6553,0.856 -501.66,2.5487 -501.66,2.5487 z"
           inkscape:connector-curvature="0"
           style="display:none;fill:#00ff00;stroke:none" />
        <path
           id="path4"
           display="none"
           d="m -51.927,1211.4 c 0,0 -19.084,-0.022 -0.6989,-132.69 18.385,-132.67 28.581,-179.63 47.303,-287.74 7.058,-16.144 -68.386,-92.223 -128.92,-197.74 -61.752,-107.65 -143.67,-235.81 -188.73,-280.45 0,0 174.61,-335.45 237.82,-349.69 0,0 301.38,108.86 337.07,144.55 0,0 -1.6885,91.675 -28.643,104.22 -26.954,12.545 -108.88,44.596 -154.54,34.604 0,0 -66.513,-72.404 -90.339,-83.503 0,0 -6.2708,4.3005 1.4514,23.868 7.7223,19.567 -10.401,69.409 -39.278,89.532 0,0 -21.845,3.1385 -20.069,6.7997 1.7759,3.6612 5.1862,8.7151 30.211,12.041 25.025,3.3263 41.423,16.893 51.14,21.771 9.7179,4.8781 39.999,16.859 64.275,23.708 0,0 237.12,313.26 237.12,342.05 0,0 -71.967,66.21 -101.91,69.003 0,0 -4.9395,0.036 0,4.9752 4.9395,4.9394 64.576,-0.9453 70.888,5.3668 6.312,6.3121 2.0121,22.684 6.6121,38.006 4.6,15.322 22.423,131.29 18.492,150.03 0,0 -2.1134,15.798 3.9779,28.437 2.6931,15.337 7.0638,82.162 5.3597,88.037 -1.7042,5.8755 3.834,11.414 3.834,11.414 0,0 6.1136,-2.9048 6.1136,-14.191 0,-11.287 -14.714,-261.05 -3.911,-270.72 0,0 10.116,-12.895 18.905,-12.895 8.7897,0 24.763,-16.029 32.11,-20.005 0,0 4.1583,-5.0769 -6.9741,-10.951 -11.132,-5.8739 -31.725,-18.701 -41.369,-59.708 -11.644,-20.008 -24.279,-66.087 -42.322,-107.92 -18.043,-41.833 -13.73,-36.424 -13.73,-36.424 0,0 -95.371,-114.55 -124.65,-153.11 0,0 -16.104,-21.264 0,-20.371 16.104,0.8935 144.04,21.674 160.33,34.795 0,0 53.016,4.6835 81.207,39.683 32.728,29.035 57.304,56.303 68.414,60.484 0,0 8.8715,5.9367 12.407,14.309 3.5355,8.3723 10.106,8.5808 13.767,3.4523 3.6608,-5.1286 12.321,-17.493 16.67,-17.493 4.3491,0 117,-105.42 123.05,-105.42 6.0514,0 12.327,-9.6339 14.314,6.1003 1.9872,15.734 -14.467,140.6 -25.387,151.52 -1.9001,9.1588 -23.234,109.72 -34.18,133.09 -10.946,23.37 -15.924,16.687 -38.31,46.531 0,0 -18.462,35.024 -29.648,46.21 -11.186,11.186 -20.622,22.675 -22.309,29.028 -1.6869,6.3539 -13.386,144.18 -8.6575,181.52 0,39.338 0.7406,137.01 -2.4326,150.93 -3.1732,13.92 -6.3809,32.405 -6.3809,48.072 0,0 1.8606,13.464 -7.7947,14.32 -9.6553,0.856 -501.66,2.5487 -501.66,2.5487 z"
           inkscape:connector-curvature="0"
           style="display:none;fill:#ff0000;stroke:none" />
        <path
           id="path6"
           display="none"
           d="m -221.44,520.26 c 0,0 -2.036,-0.002 -0.0746,-14.157 1.9614,-14.154 3.0492,-19.164 5.0466,-30.698 0.75299,-1.7223 -7.2959,-9.839 -13.754,-21.096 -6.588,-11.485 -15.328,-25.158 -20.135,-29.92 0,0 18.628,-35.788 25.372,-37.307 0,0 32.153,11.614 35.96,15.421 0,0 -0.18014,9.7805 -3.0558,11.119 -2.8757,1.3384 -11.616,4.7578 -16.488,3.6918 0,0 -7.096,-7.7245 -9.638,-8.9086 0,0 -0.66901,0.4588 0.15484,2.5464 0.82387,2.0876 -1.1097,7.405 -4.1904,9.5519 0,0 -2.3305,0.33483 -2.1411,0.72543 0.18947,0.3906 0.5533,0.92979 3.2231,1.2847 2.6698,0.35487 4.4192,1.8022 5.456,2.3226 1.0368,0.52042 4.2673,1.7987 6.8573,2.5293 0,0 25.298,33.42 25.298,36.492 0,0 -7.6779,7.0637 -10.872,7.3616 0,0 -0.52698,0.004 0,0.53079 0.52698,0.52697 6.8894,-0.10085 7.5628,0.57257 0.67341,0.67341 0.21466,2.4201 0.70542,4.0547 0.49076,1.6346 2.3922,14.007 1.9729,16.007 0,0 -0.22548,1.6854 0.42438,3.0338 0.28732,1.6362 0.75362,8.7656 0.57181,9.3924 -0.18181,0.62683 0.40904,1.2177 0.40904,1.2177 0,0 0.65223,-0.3099 0.65223,-1.514 0,-1.2041 -1.5698,-27.85 -0.41725,-28.882 0,0 1.0792,-1.3757 2.017,-1.3757 0.93775,0 2.6419,-1.71 3.4257,-2.1343 0,0 0.44364,-0.54164 -0.74404,-1.1683 -1.1877,-0.62667 -3.3846,-1.9951 -4.4135,-6.3701 -1.2422,-2.1345 -2.5903,-7.0506 -4.5152,-11.513 -1.9249,-4.4627 -1.4648,-3.8859 -1.4648,-3.8859 0,0 -10.175,-12.22 -13.298,-16.334 0,0 -1.718,-2.2686 0,-2.1733 1.718,0.0953 15.367,2.3123 17.105,3.7122 0,0 5.6561,0.49966 8.6637,4.2336 3.4916,3.0976 6.1136,6.0068 7.2989,6.4529 0,0 0.94647,0.63336 1.3237,1.5266 0.37723,0.89324 1.0782,0.91546 1.4687,0.36832 0.39056,-0.54716 1.3145,-1.8662 1.7784,-1.8662 0.46399,0 12.482,-11.247 13.128,-11.247 0.64561,0 1.3151,-1.0278 1.5271,0.65082 0.212,1.6786 -1.5434,15 -2.7084,16.165 -0.20272,0.97712 -2.4788,11.705 -3.6465,14.199 -1.1678,2.4937 -1.6988,1.7803 -4.0871,4.9642 0,0 -1.9696,3.7366 -3.163,4.93 -1.1934,1.1934 -2.2001,2.4191 -2.3801,3.0969 -0.17997,0.67788 -1.428,15.382 -0.92363,19.365 0,4.1969 0.079,14.617 -0.25953,16.103 -0.33854,1.4858 -0.68076,3.4572 -0.68076,5.1286 0,0 0.19851,1.4364 -0.83158,1.5278 -1.0301,0.0914 -53.52,0.27191 -53.52,0.27191 z"
           inkscape:connector-curvature="0"
           style="display:none;fill:#ff0000;stroke:none" />
        <path
           style="stroke:none"
           sodipodi:nodetypes="cccccccccccccccccccccccccccccccccccccccccccccccccccccccccccccccccccccccccccccccccsccscsccccscccccccccscsccccccccscscccccccccscccccccccccccccccccccccccccccccccccccccccccccccccccccccccccccccccccccccccccccccccccccccccccccccccccccccccccccccc"
           id="path8"
           d="m -426.21304,3.2958619 c -0.18541,-0.002 -0.36223,0.0554 -0.46875,0.1875 -0.13127,0.16282 -0.15441,0.28604 -0.0313,0.5625 0.45862,1.0254 4.2437,6.9081011 10.3626,17.8941011 l 4.3438,7.8125 47.44894,37.404037 c 3.8347,3.1056 7.9164,6.363 11.844,9.5312 0.44366,-0.66852 0.87023,-1.3348 1.3125,-2 -2.7668,-2.2231 -5.6638,-4.5475 -8.4062,-6.75 -15.182,-12.186 -46.71404,-36.986138 -47.03104,-37.423138 -0.0667,-0.0924 -0.1308,-0.23536 -0.0937,-0.28125 0.12822,-0.15903 3.6666,-1.0951 4.25,-1.125 0.19628,-0.0102 16.65694,12.497738 30.56204,23.642138 0.99182,0.79487 16.429,13.201 23.062,18.531 1.7943,-2.1609 3.7323,-5.1779 6.0938,-7.2188 -7.9522,-6.3712 -15.896,-12.753 -23.844,-19.125 l -29.28104,-22.798138 -0.125,-1.9688 c -0.19559,-2.9162 -0.18722,-3.5078 0.0313,-3.5312 0.0996,-0.0106 34.22104,26.639138 57.49904,45.298138 1.0289,-0.13438 2.1334,-0.0331 3.3125,0.4375 -0.0231,-0.14427 -0.0247,-0.29726 -0.0313,-0.4375 -3.8969,-3.1312 -8.4809,-6.8085 -12.219,-9.8125 l -51.84304,-40.985138 -0.6875,-0.1875 c -0.38477,-0.10704 -4.5151,-1.3391001 -9.1875,-2.7500001 -11.971,-3.6147 -16.335,-4.8998 -16.875,-4.9062 z m 18.062,7.8125001 c 0.43242,-0.0874 4.8313,1.1174 7.125,1.9688 0.39936,0.14822 0.71644,0.29806 0.96875,0.46875 0.42052,0.28449 0.66433,0.63315 0.75,1.0312 0.10958,0.50927 0.0605,1.4775 -0.0937,3.3438 -0.1505,1.8199 -0.25387,2.5159 -0.625,3.5312 -0.27349,0.74899 -0.40008,0.93236 -1.0312,1.75 -0.75743,0.98113 -1.0469,1.2587 -2.1562,1.9688 -1.7083,1.0933 -7.1803,3.1071 -7.75,2.8438 -0.14598,-0.0675 -0.3626,-0.45155 -0.78125,-1.2812 -0.32111,-0.63638 -1.0633,-2.03 -1.625,-3.125 -1.2307,-2.3992 -1.8626,-3.7515 -1.8125,-3.9062 0.0203,-0.0632 0.63862,-0.47301 1.3438,-0.90625 1.6911,-1.039 2.1477,-1.3546 2.8125,-2 0.96042,-0.93246 1.2706,-1.5166 2.375,-4.7188 0.27922,-0.80966 0.34376,-0.93719 0.5,-0.96875 z M -318.277,42.4695 c -1.6109,0.04022 -3.1946,0.86154 -4.125,2.3125 l -7.9062,12.344 c -0.7985,1.2452 -3.4621,3.5147 -3.0938,4.8438 0.31842,1.1487 2.9862,2.4973 4.0625,3.1875 l 10.188,4.375 c 2.3215,1.4887 4.3863,0.8215 5.875,-1.5 l 7.9062,-12.344 c 0.6638,-1.0351 1.7146,-2.4571 1.5625,-3.5938 -0.18906,-1.4126 -1.7761,-2.4876 -3.0625,-3.3125 l -8.5938,-5.5 c -0.87057,-0.55826 -1.8459,-0.83663 -2.8125,-0.8125 z m 19.5,9.8438 c -1.6089,0.08973 -3.1459,0.92738 -4.0312,2.4062 l -7.375,12.375 c -0.75221,1.2565 -2.5506,3.2867 -2.1562,4.5938 0.34827,1.1544 2.7653,1.6169 3.875,2.2812 1.7536,0.90525 8.2884,2.6513 8.375,5 0.0979,2.6545 -2.5009,7.5398 -0.65625,10.375 0.92783,0.55549 3.7978,-3.1982 5.6562,-5.9375 0.79924,-1.178 1.7007,-1.8768 2,-2.25 0.70696,-0.88144 1.5027,-1.5231 2.125,-2.5625 l 7.4062,-12.344 c 1.4166,-2.3662 0.64746,-5.4584 -1.7188,-6.875 l -10.656,-6.375 c -0.88732,-0.53123 -1.8784,-0.74134 -2.8438,-0.6875 z m -39.312,11.5 c -0.19947,-0.0099 -0.40275,0.0087 -0.59375,0.03125 -0.01,0.002 -0.0215,-0.002 -0.0313,0 -1.2733,0.2986 -2.9232,1.63 -4.7812,3.6562 -1.4634,1.7052 -2.8094,3.521 -4.2188,5.2812 -0.63745,0.87265 -1.2626,1.7788 -1.9062,2.7188 -0.023,1.2472 -0.7666,2.5959 -2.625,4.125 -0.0229,-0.0183 -0.0396,-0.0442 -0.0625,-0.0625 -5.8279,9.1652 -11,19.317 -11,21.531 0,4.2769 13.537,18.422 20.125,29.906 6.4576,11.257 14.503,19.403 13.75,21.125 -1.9973,11.533 -3.0698,16.533 -5.0312,30.688 -1.9614,14.155 0.0625,14.156 0.0625,14.156 0,0 52.501,-0.18985 53.531,-0.28125 1.03,-0.0914 0.8125,-1.5312 0.8125,-1.5312 0,-1.6714 0.34896,-3.6392 0.6875,-5.125 0.33851,-1.4858 0.28125,-11.897 0.28125,-16.094 -0.50441,-3.9835 0.72629,-18.697 0.90625,-19.375 0.17996,-0.67788 1.1816,-1.9004 2.375,-3.0938 1.1934,-1.1934 3.1875,-4.9375 3.1875,-4.9375 0.59708,-0.79597 1.0649,-1.3302 1.4688,-1.75 -9.4016,-7.5695 -18.795,-15.145 -28.219,-22.688 -4.2045,-3.9332 -9.1554,-7.1929 -13.75,-10.781 3.9218,4.9722 11.856,14.472 11.906,14.531 -0.0381,0.0527 0.0563,0.59048 1.5,3.9375 1.9249,4.4627 3.2578,9.3655 4.5,11.5 1.0288,4.375 3.2186,5.7483 4.4062,6.375 1.1877,0.62666 0.75,1.1562 0.75,1.1562 -0.7838,0.42427 -2.4685,2.1562 -3.4062,2.1562 -0.9377,0 -2.0312,1.375 -2.0312,1.375 -1.1525,1.032 0.40625,27.671 0.40625,28.875 0,1.2041 -0.625,1.5 -0.625,1.5 0,0 -0.61931,-0.59191 -0.4375,-1.2188 0.18182,-0.62684 -0.2752,-7.7388 -0.5625,-9.375 -0.64987,-1.3485 -0.40625,-3.0312 -0.40625,-3.0312 0.41935,-1.9997 -1.5092,-14.365 -2,-16 -0.49076,-1.6346 -0.0141,-3.3891 -0.6875,-4.0625 -0.67341,-0.67342 -7.0355,-0.0355 -7.5625,-0.5625 -0.52697,-0.5268 0,-0.53125 0,-0.53125 3.194,-0.29793 10.444,-5.6988 10.469,-7.3125 0.025,-1.6137 -22.784,-35.317 -24.906,-36.562 -2.1219,-1.246 -5.807,-2.0108 -6.8438,-2.5312 -1.0368,-0.5204 -2.7989,-1.9576 -5.4688,-2.3125 -2.6698,-0.35487 -3.0293,-0.89065 -3.2188,-1.2812 -0.18947,-0.3906 2.1562,-0.71875 2.1562,-0.71875 1.0818,-0.75382 1.9896,-1.929 2.7188,-3.1875 -0.046,-0.87699 0.23526,-1.7387 1.0625,-2.4688 0.16462,-0.54126 0.28534,-0.93796 0.40625,-1.2812 0.21325,-1.0503 0.25017,-1.9911 0,-2.625 -0.82387,-2.0876 -0.15625,-2.5312 -0.15625,-2.5312 2.5419,1.1841 9.625,8.9062 9.625,8.9062 4.8719,1.066 13.624,-2.3804 16.5,-3.7188 2.876,-1.3384 3.5526,-9.4167 3.0625,-11.094 -0.41488,-1.4197 -22.153,-10.917 -31.969,-14.281 -0.0492,-0.0169 -0.10767,-0.01465 -0.15625,-0.03125 -1.0543,-0.23453 -2.6037,-1.0242 -4,-1.0938 z m 57.344,5.8125 c -1.6071,-0.11831 -3.244,0.55378 -4.3125,1.9062 l -19.062,27.25 c -1.7097,2.164 -1.3202,5.3216 0.84375,7.0312 l 8.9688,4.3125 c 2.164,1.7097 5.3216,1.3202 7.0312,-0.84375 l 18.438,-23.312 c 1.7097,-2.164 1.3202,-5.3216 -0.84375,-7.0312 l -8.3438,-8.25 c -0.81149,-0.64113 -1.7545,-0.99152 -2.7188,-1.0625 z m 15.812,16.344 c -0.42813,0.01272 -0.80836,0.16311 -1.125,0.46875 l -20.5,24.531 c -1.2666,1.2226 -1.4156,3.1698 -0.3125,4.3125 l 5.5938,5.7812 c 1.103,1.1427 3.046,1.0663 4.3125,-0.15625 l 22.406,-21.625 c 1.2665,-1.2226 1.4155,-3.1698 0.3125,-4.3125 l -6.9688,-7.125 c -0.82729,-0.85704 -2.4344,-1.9132 -3.7188,-1.875 z m -38.031,6.2812 -11.938,3.2812 c -1.9737,0.53343 -6.1748,1.8441 -7.375,-0.15625 -1.2002,-2.0004 -1.2132,-2.549 -2.7188,-2.4688 -2.4775,0.48873 -1.8588,2.6398 -1.2812,3.3125 1.1676,1.36 9.1192,6.6891 13.312,8.1562 0.51422,0.17991 0.93194,-0.13895 1.7188,-1.3125 0.78682,-1.1736 7.699,-8.9236 8.3125,-9.8438 0.4801,-0.94688 -0.0313,-0.96875 -0.0313,-0.96875 z m -26.562,0.03125 c -0.28523,0.77032 -0.58906,1.5657 -0.9375,2.3438 0.54657,0.4388 1.109,0.87326 1.6562,1.3125 -0.33139,-0.93187 0.0598,-1.8301 0.53125,-2.6562 -0.41737,-0.33565 -0.83285,-0.66454 -1.25,-1 z m 21.969,9.5312 c -0.3278,0.0773 -0.82801,0.73183 -1.4688,1.625 1.6465,1.3232 1.9496,1.5848 3.5938,2.9062 -0.58637,-0.68113 -1.0613,-1.4628 -1.4062,-2.375 -0.1032,-1.6138 -0.31774,-2.2509 -0.71875,-2.1562 z m -12.188,1.375 c 27.79,22.282 77.37659,61.56719 102.35159,81.80719 l 20.344,16.438 2.2812,-0.1875 c 2.3783,-0.21583 3.7755,-0.4863 5.1562,-0.9375 1.4991,-0.48972 2.9556,-1.2523 4,-2.1562 0.7218,-0.62287 1.5303,-1.6527 2,-2.5 1.2544,-2.2636 1.5375,-4.7158 1.1562,-9.8125 l -0.0937,-1.5 -13.781,-11.094 c -16.558,-13.336 -55.22259,-43.96319 -72.28959,-57.68319 -0.50142,0.46674 -1.0005,0.93848 -1.5,1.4062 8.594,6.9003 20.146,16.146 26.5,21.25 l -0.0313,0.0313 c 3.6488,2.9307 8.0662,6.4438 10.438,8.3438 l 35.66459,28.15119 0.15625,1.5312 c 0.0888,0.85177 0.26559,1.9501 0.375,2.4375 0.10933,0.48745 0.2088,1.0481 0.21875,1.25 0.0188,0.38341 -0.0227,0.51682 -0.15625,0.5 -0.23694,-0.03 -26.42029,-20.43549 -35.47659,-27.55719 -2.3316,-1.8335 -5.3599,-4.2724 -8.4062,-6.7188 -10.794,-8.7528 -21.641,-17.464 -32.469,-26.188 -0.99609,0.95833 -1.9983,1.9311 -2.9688,2.9062 -5.4741,3.5524 -9.6719,-3.9544 -12.781,-7.2812 -0.14985,-2.877 -1.333,-2.5681 -3.875,-2.625 -2.8374,-1.7068 -6.6544,-2.6289 -9.6562,-4.375 23.152,18.607 44.157,35.471 51,40.969 0.6463,0.51932 4.4536,3.5866 4.8125,3.875 14.784,11.869 43.37259,34.37619 43.41459,34.49519 0.0969,0.26836 -0.49605,0.4772 -2.7188,0.90625 -0.86645,0.16723 -1.6676,0.31307 -1.7812,0.34375 -0.19651,0.053 -0.34764,-0.0329 -3.25,-2.2812 -25.344,-20.295 -73.93159,-58.85919 -101.10159,-80.71419 -2.3994,0.32212 -5.3351,-1.7572 -7.5312,-3.0312 z m 57.031,6.9062 c -0.24642,-0.007 -0.56457,0.25056 -1,0.46875 l -3.7812,3.3125 c 1.534,1.2362 3.0596,2.4827 4.5938,3.7188 0.46053,-2.9881 0.80721,-5.6746 0.71875,-6.375 -0.106,-0.8393 -0.28483,-1.1176 -0.53125,-1.125 z m 69.03959,68.08919 c 0.005,-0.008 0.017,0.004 0.0313,0 0.0142,-0.004 0.0441,-0.005 0.0625,0 0.25934,0.0691 1.2533,0.78197 4.4375,3.2188 0.82568,0.63189 1.4772,1.1831 2.0312,1.625 1.662,1.3258 2.254,1.8947 2.4688,2.375 0.19513,0.43655 0.31981,2.023 0.25,3.3438 -0.0668,1.2686 -0.49274,3.0724 -0.9375,4.0938 -0.44152,1.0136 -1.6653,2.6651 -2.5,3.375 -1.3432,1.1425 -3.2013,2.074 -5.8438,2.9375 l -1.6562,0.53125 -0.34375,-0.1875 c -0.19056,-0.11164 -1.8951,-1.4283 -3.7812,-2.9062 -3.3336,-2.6117 -5.6914,-4.6201 -5.7188,-4.875 -0.006,-0.0583 0.42924,-0.15598 0.96875,-0.21875 1.7674,-0.20552 4.7177,-1.2616 6.0312,-2.1562 1.8836,-1.283 2.9993,-2.6969 3.625,-4.5938 0.383,-1.1611 0.55385,-2.2528 0.6875,-4.4688 0.0661,-1.0984 0.15092,-2.0485 0.1875,-2.0938 z"
           transform="translate(112.15,323.46)"
           inkscape:connector-curvature="0" />
      </g>
      <circle
         transform="rotate(-133.22274)"
         r="15.566955"
         cy="3.798033"
         cx="-55.571503"
         id="path838"
         style="opacity:1;fill:none;fill-opacity:1;stroke:none;stroke-width:0.06724084;stroke-miterlimit:4;stroke-dasharray:none;stroke-opacity:1;paint-order:markers fill stroke" />
      <text
         id="text842"
         style="font-style:normal;font-weight:normal;font-size:15.12553024px;line-height:1.25;font-family:sans-serif;letter-spacing:0px;word-spacing:0px;fill:#000000;fill-opacity:1;stroke:none;stroke-width:0.26458332"
         xml:space="preserve"><textPath
           id="textPath844"
           xlink:href="#path838"><tspan
   id="tspan840"
   style="font-style:normal;font-variant:normal;font-weight:normal;font-stretch:normal;font-family:Quasimodo;-inkscape-font-specification:Quasimodo;stroke-width:0.26458332">ЛФШ</tspan></textPath></text>
      <circle
         r="28.449398"
         cy="37.893749"
         cx="40.825001"
         id="path881"
         style="opacity:1;fill:none;fill-opacity:1;stroke:#000000;stroke-width:0.10120384;stroke-miterlimit:4;stroke-dasharray:none;stroke-opacity:1;paint-order:markers fill stroke" />
    </g>
  </g>
</svg>
