<?xml version="1.0" encoding="UTF-8" standalone="no"?>
<!-- Created with Inkscape (http://www.inkscape.org/) -->

<svg
   xmlns:dc="http://purl.org/dc/elements/1.1/"
   xmlns:cc="http://creativecommons.org/ns#"
   xmlns:rdf="http://www.w3.org/1999/02/22-rdf-syntax-ns#"
   xmlns:svg="http://www.w3.org/2000/svg"
   xmlns="http://www.w3.org/2000/svg"
   xmlns:xlink="http://www.w3.org/1999/xlink"
   xmlns:sodipodi="http://sodipodi.sourceforge.net/DTD/sodipodi-0.dtd"
   xmlns:inkscape="http://www.inkscape.org/namespaces/inkscape"
   width="131.12811"
   height="131.05397"
   id="svg5565"
   version="1.1"
   inkscape:version="0.48.4 r9939"
   sodipodi:docname="boec.svg"
   inkscape:export-filename="/home/igor/dc/fizega/camp13/signs/boec.png"
   inkscape:export-xdpi="600"
   inkscape:export-ydpi="600">
  <defs
     id="defs5567" />
  <sodipodi:namedview
     id="base"
     pagecolor="#ffffff"
     bordercolor="#666666"
     borderopacity="1.0"
     inkscape:pageopacity="0.0"
     inkscape:pageshadow="2"
     inkscape:zoom="1.2094018"
     inkscape:cx="54.395934"
     inkscape:cy="75.931286"
     inkscape:document-units="px"
     inkscape:current-layer="layer1"
     showgrid="false"
     fit-margin-top="0"
     fit-margin-left="0"
     fit-margin-right="0"
     fit-margin-bottom="0"
     inkscape:window-width="1278"
     inkscape:window-height="782"
     inkscape:window-x="0"
     inkscape:window-y="16"
     inkscape:window-maximized="0" />
  <metadata
     id="metadata5570">
    <rdf:RDF>
      <cc:Work
         rdf:about="">
        <dc:format>image/svg+xml</dc:format>
        <dc:type
           rdf:resource="http://purl.org/dc/dcmitype/StillImage" />
        <dc:title />
      </cc:Work>
    </rdf:RDF>
  </metadata>
  <g
     inkscape:label="Layer 1"
     inkscape:groupmode="layer"
     id="layer1"
     transform="translate(-87.955517,-591.58141)">
    <path
       sodipodi:type="arc"
       style="fill:none;stroke:#000000;stroke-width:1.95726514;stroke-linecap:round;stroke-miterlimit:4;stroke-opacity:1;stroke-dasharray:none;stroke-dashoffset:0"
       id="path5573"
       sodipodi:cx="211.20467"
       sodipodi:cy="590.07941"
       sodipodi:rx="122.73546"
       sodipodi:ry="132.0808"
       d="m 333.94012,590.07941 c 0,72.94621 -54.95053,132.08079 -122.73545,132.08079 -67.78493,0 -122.735462,-59.13458 -122.735462,-132.08079 0,-72.94621 54.950532,-132.0808 122.735462,-132.0808 67.78492,0 122.73545,59.13459 122.73545,132.0808 z"
       transform="matrix(0.53001131,0,0,0.49251052,41.579527,366.48871)" />
    <g
       id="g5390"
       transform="translate(-185.30625,0)">
      <path
         sodipodi:nodetypes="cccscccccccccsccccsccsccccccccccccccscccccccccccccccccccccccccccccccccscccccccscccccsccccccscscccsscccscccccccccsssccccccsccccccccccscscccscsccccscccsccccccccccccccsccc"
         d="m 137.79298,599.5658 c -0.35957,0.48542 -0.7551,1.40233 -0.73712,1.79786 0,0.30563 0.036,0.34159 0.12585,0.14382 0.35957,-0.77307 1.0068,-1.61807 1.20456,-1.61807 0.44947,0 1.01891,1.39032 1.23465,2.3252 0.14383,0.68319 0.12287,1.59105 -0.0209,3.10125 -0.10787,1.22254 0.18864,5.03707 0.2246,9.76543 0.0539,4.35081 0.0899,9.85224 0.10787,12.22541 0.018,3.43391 0.0899,4.63847 0.35957,5.93292 0.17979,0.88095 0.34159,1.90573 0.37755,2.24732 0.018,0.41351 0.0539,0.2517 0.12585,-0.44946 l 0.10787,-1.07871 0.71914,0.98882 c 1.16861,1.60009 1.16861,1.51019 0.018,1.36637 l -1.0068,-0.12585 0.0899,0.5034 c 0.036,0.26967 0.10787,1.27647 0.1618,2.21136 0.0539,0.95286 0.14383,1.85179 0.21575,2.03157 0.0539,0.17979 0.018,0.30564 -0.0899,0.30564 -0.2517,0 -0.26968,0.48542 -0.018,0.57531 0.0899,0.018 0.21575,0.66521 0.26968,1.40233 0.14383,1.72594 0.23372,2.15743 0.46744,2.15743 0.14383,0 0.16181,-0.48543 0.0899,-1.58212 l -0.12585,-1.60009 1.47424,0.0899 c 0.98882,0.0539 2.06753,-0.018 3.21816,-0.23372 l 1.7619,-0.32361 1.31243,0.79106 c 0.73712,0.44946 1.94168,1.04275 2.67881,1.31243 1.18658,0.46744 1.65402,0.52138 3.90134,0.61127 2.24732,0.0719 2.6788,0.036 3.70358,-0.30563 1.52818,-0.52138 2.62487,-1.22255 3.25412,-2.13945 0.48542,-0.71914 0.5034,-0.80904 0.53936,-3.23614 l 0.018,-2.517 1.15063,-0.59329 c 1.36637,-0.71914 2.91253,-2.1754 3.9373,-3.73954 0.66521,-1.0068 0.7551,-1.2585 0.7551,-2.19338 0,-1.0068 -0.036,-1.09669 -0.73712,-1.77988 -0.9169,-0.88095 -2.89936,-1.67343 -1.22661,-0.47083 1.39771,0.63854 1.78395,2.35858 1.17268,3.5991 -0.71915,1.45626 -2.517,3.30805 -4.0272,4.11709 l -1.27648,0.68318 -0.2517,-0.88095 c -0.14382,-0.48542 -0.43148,-1.22254 -0.64722,-1.65402 l -0.35957,-0.7551 0.77307,-1.02478 c 0.89893,-1.16861 1.95967,-3.05635 2.24732,-4.00922 l 0.21575,-0.64722 1.02477,0.0899 c 2.56042,1.06216 1.16861,-0.018 0.018,-0.37755 -0.52138,-0.14383 -0.77308,-0.32361 -0.71914,-0.48542 0.036,-0.14383 0.10787,-0.93489 0.14383,-1.77988 0.0899,-1.34839 0.036,-1.65402 -0.35957,-2.64284 -0.5034,-1.22255 -1.49222,-2.517 -2.2653,-2.98444 -0.43149,-0.2517 -0.91691,-0.28766 -2.82263,-0.2517 -2.13945,0.0539 -2.44509,0.10787 -4.0272,0.70116 -0.95286,0.35957 -2.2653,0.91691 -2.9305,1.24052 -1.18659,0.59329 -1.22254,0.59329 -1.70796,0.28766 -0.88095,-0.55734 -3.14625,-1.68999 -4.54858,-2.24732 -2.06753,-0.82702 -4.83623,-0.95287 -6.52621,-0.28766 -0.34159,0.12585 -0.34159,-0.0539 -0.23372,-7.98248 0.0719,-5.84302 0.036,-8.30609 -0.10787,-8.79151 -0.10787,-0.35957 -0.5034,-0.97084 -0.86297,-1.34839 -0.66521,-0.70116 -1.24052,-0.86297 -1.56414,-0.46744 z m 9.223,19.32694 c 1.34839,0.55734 4.63846,2.22934 4.54857,2.31923 -0.036,0.018 -0.6652,0.44947 -1.4203,0.93489 -0.73712,0.48542 -1.92371,1.36637 -2.60689,1.95966 -1.15063,1.0068 -1.43829,1.15063 -3.41593,1.7619 -1.1686,0.35957 -2.46306,0.86297 -2.87657,1.09669 -0.39552,0.23372 -0.79105,0.43149 -0.86297,0.43149 -0.0539,0 -0.0899,-1.95967 -0.0719,-4.35081 l 0.0539,-4.35081 0.80904,-0.23372 c 0.5034,-0.14383 1.5102,-0.19777 2.69678,-0.16181 1.56414,0.0719 2.10349,0.16181 3.14625,0.59329 z m 16.36048,0.62925 c 1.18658,1.04276 1.9237,2.64285 1.9237,4.26092 0.018,1.40232 -0.1618,2.35519 -0.44946,2.35519 -0.12585,0 -1.15063,-0.19777 -2.28328,-0.43149 -1.13264,-0.2517 -2.91252,-0.53935 -3.95528,-0.6652 l -1.88774,-0.21575 -0.98883,-0.93488 c -0.53935,-0.5034 -1.45626,-1.2585 -2.01359,-1.68999 -0.57532,-0.43148 -1.04276,-0.80903 -1.04276,-0.86297 0,-0.12585 2.93051,-1.49222 3.21816,-1.49222 0.16181,-0.018 0.97084,-0.2517 1.81584,-0.53935 1.22254,-0.41351 1.86976,-0.52138 3.16422,-0.52138 l 1.63605,-0.018 z m -10.42756,2.66083 c 0.91691,0.62925 2.78667,2.31923 2.78667,2.51699 0,0.12585 -8.25215,0.35957 -8.41396,0.2517 -0.23372,-0.14383 4.24294,-3.30805 4.69241,-3.30805 0.0719,0 0.50339,0.23372 0.93488,0.53936 z m 3.5238,3.20018 c 0.70116,0.26968 3.73953,4.36879 4.62048,6.23855 l 0.41351,0.88095 -1.40233,1.40233 c -1.34839,1.34839 -2.15742,2.03158 -3.99124,3.34401 l -0.82701,0.59329 -1.97764,-0.10787 c -1.07871,-0.0719 -3.39795,-0.32361 -5.12389,-0.55733 -1.72594,-0.23372 -3.46986,-0.48542 -3.86538,-0.53936 -0.77308,-0.0899 -1.56414,-0.79106 -2.66083,-2.39115 l -0.55733,-0.80903 0.61127,-1.16861 c 0.97084,-1.88775 2.40912,-3.95528 3.72156,-5.37558 l 1.22254,-1.29446 1.70796,-0.14383 c 2.2653,-0.19776 7.64088,-0.23372 8.10833,-0.0719 z m 5.48345,0.68318 c 2.62487,0.5034 2.7687,0.55734 2.7687,0.97084 0,0.71915 -2.4271,4.85421 -2.84061,4.85421 -0.0899,0 -0.28766,-0.30563 -0.46744,-0.68318 -0.53936,-1.13265 -1.74392,-2.85859 -3.50582,-5.06995 l -0.61127,-0.7551 1.24052,0.12585 c 0.68318,0.0719 2.21136,0.32361 3.41592,0.55733 z m -17.40323,1.18659 c -1.33042,1.5102 -1.95967,2.40912 -2.93051,4.22496 -0.39552,0.71914 -0.77307,1.31243 -0.84499,1.31243 -0.17978,0 -0.28766,-0.84499 -0.39553,-2.9305 l -0.0719,-1.7619 0.71914,-0.48542 c 0.68319,-0.44947 3.84741,-1.61807 4.42272,-1.63605 0.14383,-0.018 -0.26967,0.57531 -0.89892,1.27648 z m 17.65493,6.74195 c 0.5933,1.56414 0.64723,2.13945 0.2517,2.28328 -0.89892,0.35957 -5.64526,1.43828 -5.77111,1.31243 -0.018,-0.0359 0.44946,-0.48542 1.07871,-0.98882 0.61127,-0.5034 1.72594,-1.52817 2.46306,-2.26529 0.73712,-0.7551 1.40233,-1.36637 1.47424,-1.36637 0.0539,0 0.28766,0.46744 0.5034,1.02477 z m 0.89893,4.5306 c 0,2.46306 -0.10787,2.84061 -1.06073,3.79347 -1.29446,1.27648 -2.73274,1.70796 -5.68123,1.70796 -2.1754,-0.018 -2.44508,-0.0539 -3.91932,-0.57531 -0.86297,-0.32361 -1.79785,-0.71914 -2.06753,-0.89893 -0.26968,-0.17978 -0.70117,-0.44946 -0.97084,-0.59329 -0.28766,-0.12585 -0.5034,-0.30563 -0.5034,-0.35957 0,-0.0719 0.37755,-0.26968 0.86297,-0.44946 0.46744,-0.16181 2.06753,-0.89893 3.54177,-1.61807 2.2653,-1.09669 2.98444,-1.36637 4.4407,-1.61807 1.70796,-0.28766 4.7823,-1.06074 4.96208,-1.24052 0.26968,-0.28766 0.39553,0.28765 0.39553,1.85179 z m -17.88866,0.64723 2.15743,2.19338 -1.0068,0.21574 c -1.34839,0.26968 -4.15304,0.2517 -4.51262,-0.036 -0.17978,-0.14382 -0.34159,-0.77307 -0.48542,-1.9237 -0.10787,-0.93489 -0.2517,-1.97764 -0.32361,-2.31923 l -0.10787,-0.61127 1.06073,0.14382 1.06074,0.12585 z m 1.61807,-1.68999 c 1.38435,0.19777 3.73954,0.46744 5.21378,0.59329 l 2.69678,0.21575 -1.672,0.84499 c -1.97764,1.0068 -4.22496,1.9237 -4.72836,1.9237 -0.5034,0 -2.12147,-1.25849 -3.03837,-2.39114 -0.43149,-0.5034 -0.89893,-1.07872 -1.04276,-1.2585 -0.34159,-0.37755 -0.46744,-0.37755 2.57093,0.0719 z"
         id="path9555"
         inkscape:connector-curvature="0"
         style="fill:#000000;stroke:none" />
      <path
         d="m 148.95766,630.21923 c -0.21574,0.0359 -0.7551,0.39553 -1.20456,0.79105 -0.79106,0.70117 -0.82701,0.77308 -0.82701,1.74392 0,0.89893 0.0719,1.09669 0.55733,1.61807 0.66521,0.71914 1.18658,0.93489 2.17541,0.93489 1.45626,0 2.12146,-0.82702 2.12146,-2.66083 0,-1.83381 -1.07871,-2.76869 -2.82263,-2.4271 z"
         id="path9557"
         inkscape:connector-curvature="0"
         style="fill:#000000;stroke:none" />
      <path
         d="m 136.39066,605.40883 c 0.0539,2.46306 0.17978,6.23856 0.28765,8.41396 0.10787,2.1754 0.23372,4.99804 0.26968,6.29249 0.036,1.27648 0.10787,2.46306 0.16181,2.60689 0.0359,0.14383 0.12585,1.15063 0.19776,2.24732 0.0539,1.07871 0.19777,2.57093 0.28766,3.29008 0.14383,1.25849 0.12585,1.34839 -0.28766,1.90572 -1.06073,1.38435 -1.33041,3.45188 -0.59329,4.54858 0.23372,0.34159 0.70116,0.77307 1.04275,0.95286 0.5933,0.30563 0.64723,0.37755 0.66521,1.29445 0.018,0.52138 0.12585,1.47425 0.21574,2.12147 0.10788,0.64723 0.23373,1.72594 0.26968,2.42711 0.0539,0.68318 0.14383,1.52817 0.21574,1.86977 0.10788,0.53935 0.14383,0.57531 0.26968,0.2517 0.14383,-0.37755 -0.0719,-3.66763 -0.35957,-5.51942 -0.21574,-1.29445 -0.52138,-5.28569 -0.5034,-6.31047 0,-0.39553 -0.1618,-2.10349 -0.35957,-3.7755 -0.37755,-3.00241 -0.68318,-7.42514 -0.95286,-13.84348 -0.41351,-9.70842 -0.62925,-13.21423 -0.77308,-13.21423 -0.0899,0 -0.12585,1.81583 -0.0539,4.4407 z m 1.56413,26.42847 c 0,0.77308 0.0719,1.86977 0.14383,2.4271 0.14383,1.22254 -0.0539,1.34839 -0.77308,0.5034 -0.79106,-0.95286 -0.79106,-2.2653 0,-3.82943 0.43148,-0.80903 0.61127,-0.55734 0.62925,0.89893 z"
         id="path9559"
         inkscape:connector-curvature="0"
         style="fill:#000000;stroke:none" />
      <path
         d="m 146.29684,644.27845 -0.53936,0.14383 0.44946,0.12585 c 0.64723,0.17979 2.60689,0.0539 2.60689,-0.1618 0,-0.21575 -1.76189,-0.28766 -2.51699,-0.10788 z"
         id="path9571"
         inkscape:connector-curvature="0"
         style="fill:#000000;stroke:none" />
      <path
         d="m 144.17537,645.53695 c -0.35957,1.16861 -0.41351,2.78668 -0.0719,2.67881 0.2517,-0.0899 0.52138,-1.85179 0.44947,-2.93051 l -0.0539,-0.71914 -0.32361,0.97084 z"
         id="path9573"
         inkscape:connector-curvature="0"
         style="fill:#000000;stroke:none" />
      <path
         d="m 149.46106,645.44706 c -0.018,0.68318 0.55734,1.90573 0.89893,1.90573 0.21574,0 0.19776,-0.12585 -0.0899,-0.68319 -0.14383,-0.26968 -0.37755,-0.80903 -0.53936,-1.20456 l -0.26968,-0.71914 0,0.70116 z"
         id="path9575"
         inkscape:connector-curvature="0"
         style="fill:#000000;stroke:none" />
      <path
         sodipodi:nodetypes="ccccccccccsccccccc"
         d="m 162.8371,645.82461 c 0.17979,0.28766 0.55734,0.82701 0.84499,1.20456 0.68319,0.86297 0.32985,1.65999 0.79729,3.67359 0.32361,1.40233 0.43745,2.0136 0.34756,3.82943 -0.0719,1.18659 -0.042,2.7687 -0.14989,3.50582 -0.48542,3.5238 -0.096,9.14512 0.40739,9.45075 0.12585,0.0899 0.19777,0.32362 0.14383,0.61127 -0.0539,0.2517 -0.036,0.43149 0.036,0.37755 0.0539,-0.0359 0.21574,0.62925 0.34159,1.49222 0.2517,1.68999 0.62925,2.91253 0.46744,1.47424 -0.0539,-0.44946 -0.17978,-1.65402 -0.26968,-2.69678 -0.0899,-1.04276 -0.26968,-2.21136 -0.39553,-2.60689 -0.28765,-0.93488 -0.28765,-6.00483 0.018,-7.10153 0.10787,-0.44946 0.2517,-2.26529 0.30564,-4.04517 0.0899,-2.89455 0.0719,-3.41592 -0.28766,-4.9441 -0.43148,-1.97764 -0.89893,-2.82263 -2.08551,-3.95528 -0.71914,-0.68319 -0.80903,-0.71914 -0.52138,-0.26968 z"
         id="path9581"
         inkscape:connector-curvature="0"
         style="fill:#000000;stroke:none" />
      <path
         d="m 140.59764,645.68078 c -0.55734,0.14383 -0.3416,0.41351 0.30563,0.41351 0.64723,0 0.84499,-0.23372 0.34159,-0.43149 -0.1618,-0.0539 -0.28765,-0.0899 -0.30563,-0.0899 -0.018,0.018 -0.17979,0.0539 -0.34159,0.10787 z"
         id="path9583"
         inkscape:connector-curvature="0"
         style="fill:#000000;stroke:none" />
      <path
         sodipodi:nodetypes="cccccccccscc"
         d="m 160.42798,646.29205 c 1.1686,1.65403 0.70125,3.69771 -0.8449,5.53152 -0.46745,0.53936 -2.35529,2.34309 -4.38686,3.52967 -2.2653,1.33041 -5.75314,3.72156 -6.59813,4.51262 -1.13265,1.07871 -0.61127,0.89892 1.09669,-0.37755 2.03158,-1.49222 5.88197,-3.39514 6.06176,-3.28727 0.0899,0.0539 0.53628,-0.26964 0.77,-0.46736 0.23372,-0.17978 0.61136,-0.8299 1.09678,-1.09958 1.18659,-0.66521 2.7687,-2.33721 3.48784,-3.66763 0.41351,-0.79105 0.55734,-1.29445 0.55734,-1.99561 0,-1.20457 -0.30564,-2.22934 -0.82702,-2.78668 -0.59329,-0.62925 -0.89892,-0.55733 -0.4135,0.10787 z"
         id="path9585"
         inkscape:connector-curvature="0"
         style="fill:#000000;stroke:none" />
      <path
         sodipodi:nodetypes="ccccc"
         d="m 142.08091,646.40141 c -0.19777,0.19777 -0.18277,1.47275 0.015,1.86828 0.35957,0.66521 0.94524,0.33861 0.81939,-0.65021 -0.14383,-1.02478 -0.48086,-1.4952 -0.67862,-1.31542 z"
         id="path9587"
         inkscape:connector-curvature="0"
         style="fill:#000000;stroke:none" />
      <path
         sodipodi:nodetypes="ccccccsccccccccscscccccc"
         d="m 136.89405,647.20896 c -1.07871,0.61127 -2.37316,2.04955 -2.80465,3.11029 -0.16181,0.37755 -0.34159,1.1686 -0.41351,1.72594 -0.0899,0.89893 -0.036,1.13265 0.35958,1.83381 0.9169,1.56413 2.30125,2.37317 5.1059,3.00242 l 1.81584,0.4135 0.19776,0.7551 c 0.19776,0.7551 0.64723,1.33042 0.86297,1.09669 0.0719,-0.0719 0.018,-0.30563 -0.12585,-0.52137 -0.14383,-0.21575 -0.34159,-0.97084 -0.46744,-1.65403 -0.10787,-0.70116 -0.2517,-1.38435 -0.32361,-1.54616 -0.10788,-0.23372 0.0359,-0.30563 0.68318,-0.39552 1.02478,-0.14383 2.13945,-0.61127 2.0136,-0.82702 -0.0719,-0.0899 -0.60523,0.0726 -1.10863,0.21645 -1.27647,0.39552 -2.0121,-0.29941 -2.56944,-0.83877 -0.73712,-0.70116 -0.63678,0.26275 0.0644,1.25157 0.70116,0.98882 0.89893,2.15743 0.32361,1.97764 -0.17978,-0.0539 -0.98882,-0.2517 -1.79785,-0.44946 -2.42711,-0.59329 -3.6856,-1.40233 -4.36879,-2.80465 -0.43148,-0.88095 -0.37755,-1.95967 0.16181,-3.14625 0.4135,-0.91691 1.29445,-2.0136 1.54615,-1.90573 0.12585,0.036 0.64723,-0.35957 1.18659,-0.89892 0.52137,-0.53936 0.88095,-0.97085 0.79105,-0.95287 -0.10787,0 -0.61127,0.2517 -1.13266,0.55734 z"
         id="path9589"
         inkscape:connector-curvature="0"
         style="fill:#000000;stroke:none" />
      <path
         sodipodi:nodetypes="ccccccc"
         d="m 139.48604,646.97076 c -0.0719,0.26968 -0.036,0.77905 0.0899,1.0667 l 0.41044,0.48393 0.24713,-0.53935 c 0.018,-0.30564 0.0209,-0.7551 -0.0689,-0.98882 l -0.37597,-0.43149 z"
         id="path9591"
         inkscape:connector-curvature="0"
         style="fill:#000000;stroke:none" />
      <path
         d="m 153.52421,647.10109 c -4.09911,0.48542 -8.55779,1.58211 -8.16226,1.99562 0.0539,0.0539 1.09669,-0.10788 2.31923,-0.35958 1.22255,-0.2517 2.69679,-0.52137 3.29008,-0.59329 0.59329,-0.0539 1.16861,-0.1618 1.2585,-0.23372 0.10787,-0.0539 1.02478,-0.23372 2.04955,-0.37755 1.13265,-0.16181 1.90573,-0.35957 1.95966,-0.5034 0.0719,-0.2517 -0.0719,-0.2517 -2.71476,0.0719 z"
         id="path9597"
         inkscape:connector-curvature="0"
         style="fill:#000000;stroke:none" />
      <path
         d="m 155.03441,648.01799 c 0.28766,0.61127 1.18659,1.83381 1.38435,1.85179 0.10787,0 0.21574,0.16181 0.21574,0.35957 0,0.48542 0.28766,0.44947 0.41351,-0.0539 0.14383,-0.55734 -0.14383,-1.74392 -0.52138,-2.08551 -0.26968,-0.26968 -0.28766,-0.2517 -0.17978,0.2517 0.0719,0.28765 0.1618,0.70116 0.21574,0.89892 0.0539,0.19777 -0.10787,0.0539 -0.35957,-0.30563 -0.41351,-0.59329 -1.34839,-1.33041 -1.16861,-0.91691 z"
         id="path9599"
         inkscape:connector-curvature="0"
         style="fill:#000000;stroke:none" />
      <path
         sodipodi:nodetypes="cccczccc"
         d="m 139.24082,649.11808 c -0.2517,0.0719 -1.87167,0.35341 -1.92561,0.47926 -0.0539,0.17978 1.58402,0.0601 2.39305,-0.0298 0.59329,-0.0539 1.42627,0.13173 1.76786,0.0598 0,0 3.61549,-0.26834 3.60956,-0.57216 -0.006,-0.30382 -3.73234,-0.11377 -3.73234,-0.11377 -1.40233,-0.10788 -1.71699,0.0868 -2.11252,0.17669 z"
         id="path9601"
         inkscape:connector-curvature="0"
         style="fill:#000000;stroke:none" />
      <path
         d="m 149.2633,649.90574 c 0.52137,0.91691 0.89892,1.29446 0.89892,0.86297 0,-0.30563 -0.34159,-0.93488 -0.77307,-1.40233 -0.62925,-0.68318 -0.70117,-0.43148 -0.12585,0.53936 z"
         id="path9605"
         inkscape:connector-curvature="0"
         style="fill:#000000;stroke:none" />
      <path
         d="m 148.20256,649.4383 c 0.34159,0.4135 1.06074,1.90572 1.06074,2.19338 0,0.12585 0.12585,0.21574 0.26968,0.21574 0.14382,0 0.26967,-0.0899 0.26967,-0.21574 0,-0.48542 -0.7551,-1.72594 -1.29445,-2.12147 -0.44947,-0.32361 -0.52138,-0.34159 -0.30564,-0.0719 z"
         id="path9607"
         inkscape:connector-curvature="0"
         style="fill:#000000;stroke:none" />
      <path
         d="m 136.94799,649.88776 c -0.16181,0.2517 0.0539,1.38435 0.28766,1.52818 0.34159,0.19776 0.37755,-0.0719 0.0899,-0.61127 -0.16181,-0.30564 -0.23372,-0.68319 -0.17979,-0.82702 0.12585,-0.32361 -0.018,-0.39552 -0.19776,-0.0899 z"
         id="path9611"
         inkscape:connector-curvature="0"
         style="fill:#000000;stroke:none" />
      <path
         d="m 144.85855,650.24733 c 0.0719,0.3416 0.16181,2.35519 0.19777,4.47666 0.036,3.57773 0.23372,5.24974 0.62925,5.48346 0.28765,0.17978 0.32361,-0.23372 0.0719,-1.04276 -0.17979,-0.62925 -0.21574,-1.58211 -0.14383,-4.11708 0.0899,-2.84062 0.0719,-3.43391 -0.19776,-4.24294 -0.35957,-1.09669 -0.77308,-1.49222 -0.55734,-0.55734 z"
         id="path9613"
         inkscape:connector-curvature="0"
         style="fill:#000000;stroke:none" />
      <path
         sodipodi:nodetypes="cccc"
         d="m 139.2102,649.56885 c -0.1618,0.26968 0.057,1.61337 0.3267,1.70326 0.17979,0.0539 0.19777,-0.0719 0.10787,-0.52138 -0.14383,-0.68318 -0.29074,-1.4156 -0.43457,-1.18188 z"
         id="path9615"
         inkscape:connector-curvature="0"
         style="fill:#000000;stroke:none" />
      <path
         sodipodi:nodetypes="ccccc"
         d="m 139.28517,652.74635 c 0.32362,0.62925 0.73712,0.73712 0.53936,0.12585 -0.0539,-0.21574 -0.12472,-0.7849 -0.19663,-1.07255 -0.12585,-0.53936 -0.057,-0.9386 -0.27276,-0.54307 -0.25247,0.57634 -0.13163,1.11412 -0.07,1.48977 z"
         id="path9617"
         inkscape:connector-curvature="0"
         style="fill:#000000;stroke:none" />
      <path
         d="m 143.4742,655.44313 c -0.0359,0.2517 0,0.77308 0.0899,1.16861 0.14383,0.68318 0.12585,0.73712 -0.5933,1.34839 -0.71914,0.61127 -0.71914,0.62925 -0.35957,0.86297 0.19777,0.12585 0.44947,0.44946 0.55734,0.71914 0.23372,0.62925 0.23372,8.93534 0,10.46352 -0.10787,0.64723 -0.30564,1.97764 -0.46744,2.96646 -0.26968,1.9237 -0.89893,3.99124 -2.17541,7.15546 -0.43148,1.07872 -0.80903,2.22934 -0.82701,2.53498 -0.018,0.70116 0.34159,2.46306 0.55733,2.6788 0.26968,0.26968 0.57532,-0.0359 0.39553,-0.37755 -0.0719,-0.1618 -0.19776,-0.6652 -0.2517,-1.09669 -0.10787,-0.84499 0.26968,-2.06753 1.31244,-4.24294 0.70116,-1.43828 1.36637,-3.90134 1.68998,-6.2026 0.62925,-4.40474 0.7551,-5.84303 0.62925,-6.99365 -0.0719,-0.64723 -0.16181,-2.62487 -0.21574,-4.36879 -0.0719,-2.71476 -0.036,-3.20018 0.19776,-3.29007 0.21574,-0.0719 0.2517,-0.3416 0.16181,-1.31244 -0.036,-0.66521 -0.21575,-1.49222 -0.35957,-1.83381 -0.2517,-0.59329 -0.26968,-0.59329 -0.3416,-0.17979 z m 0.30564,2.85859 c -0.0539,0.10787 -0.19776,0.19777 -0.30564,0.19777 -0.10787,0 -0.10787,-0.10787 0.036,-0.26968 0.2517,-0.30564 0.46744,-0.23372 0.26968,0.0719 z"
         id="path9623"
         inkscape:connector-curvature="0"
         style="fill:#000000;stroke:none" />
      <path
         sodipodi:nodetypes="cccccccscccccccccccscccscccccc"
         d="m 139.75264,664.19869 c -0.018,6.04079 -0.67996,5.89407 -1.11142,6.84693 -1.43223,2.87183 -4.40521,4.61248 -6.95481,5.89688 -0.59329,0.30563 -1.24665,1.09967 -1.91186,1.72892 -1.02478,0.93488 -1.22254,1.20456 -1.11467,1.52818 1.54955,1.31871 2.68454,1.41857 4.58462,1.98659 0.79106,0.4135 0.14085,1.42337 -1.78286,3.29313 -0.70116,0.70117 -1.53867,1.91263 -1.9537,2.59488 -0.8974,1.47517 -0.93191,2.50191 -0.2667,3.14914 3.09398,0.72236 6.27772,-0.57261 8.04834,-2.30415 1.47424,-1.43828 2.10349,-2.49901 2.35519,-3.95528 0.19777,-1.24052 -0.1618,-0.86297 -0.59329,0.61127 -0.32361,1.06074 -0.57531,1.54616 -1.16861,2.15743 -0.4135,0.44946 -0.9169,0.82701 -1.13264,0.86297 -0.19777,0.036 -1.07872,0.53936 -1.92371,1.09669 -1.83381,1.18659 -3.21816,1.54616 -4.60251,1.16861 l -0.77308,-0.19777 0.0719,-0.86297 c 0.10787,-1.06073 1.06073,-2.49902 2.75072,-4.15304 1.1686,-1.15063 2.43316,-2.64106 2.06753,-3.21816 -1.13201,-1.78673 -3.60282,-1.26334 -5.21378,-2.44509 0,-0.32361 2.21136,-2.1754 2.98444,-2.49901 0.28766,-0.14383 1.20456,-0.64723 2.03158,-1.16861 0.80903,-0.5034 1.60009,-0.91691 1.72594,-0.91691 0.14383,0 1.0068,-0.71914 1.94168,-1.61807 2.2653,-2.15742 2.48104,-2.73274 2.60689,-7.15546 0.0539,-2.04955 0,-3.55975 -0.14383,-4.42272 -0.12585,-0.70117 -0.26968,-1.92371 -0.35957,-2.71476 -0.0899,-0.95287 -0.14383,0.62925 -0.16181,4.71038 z"
         id="path9625"
         inkscape:connector-curvature="0"
         style="fill:#000000;stroke:none" />
      <path
         sodipodi:nodetypes="ccccccsccccccccsccscscccsccccscccscccccccccccccsccccscccccscccscccscccsccccccssc"
         inkscape:connector-curvature="0"
         id="path9631"
         transform="translate(87.955517,591.58141)"
         d="m 63.75,67.46875 c -0.05309,0.04804 -0.0717,0.159892 -0.03125,0.28125 0.3416,1.24052 0.62415,3.36657 0.75,5.9375 0.036,0.91691 0.16011,1.9662 0.25,2.34375 0.0899,0.37755 0.26713,1.98039 0.375,3.5625 0.32362,4.89017 0.76974,7.12938 1.8125,9.125 0.0899,0.17979 0.15625,0.36559 0.15625,0.4375 0,0.0899 0.62291,1.29243 1.59375,2.28125 2.17541,2.22934 3.10316,3.03001 3.03125,3.875 -0.0539,0.70116 -0.81681,1.09846 -1.5,1.0625 -0.23372,-0.018 -1.35107,-0.1648 -2.25,-0.21875 -1.22254,-0.0719 -1.788055,0.01164 -2.507195,0.227428 -1.29446,0.37755 -1.775473,0.265483 -2.188983,-0.148067 -0.19776,-0.19776 -0.762312,-0.0075 -0.960072,-0.07936 -1.02478,-0.30564 -3.07021,-1.2483 -3.25,-1.5 -0.12585,-0.17979 -0.25,-0.82152 -0.25,-1.46875 0,-0.64723 0.128355,-1.48418 0.03845,-1.84375 -0.0899,-0.37755 0.0136,-1.512061 0.08557,-2.554811 0.0539,-1.04276 -0.270861,-1.913939 -0.342761,-1.913939 -0.39553,0 -0.5338,6.30956 -0.15625,7.40625 0.21574,0.66521 1.01458,1.40625 1.5,1.40625 0.14383,0 0.9628,0.36304 1.84375,0.8125 0.86297,0.44947 1.914347,0.800101 2.148067,0.836061 0.23372,0.0539 0.882793,-0.03126 1.601933,-0.211061 0.71914,-0.19776 1.75517,-0.375 2.3125,-0.375 0.95287,0 1.07878,0.06385 1.3125,0.53125 0.14383,0.28766 0.38743,0.5929 0.53125,0.71875 0.16181,0.12585 0.30309,0.52014 0.375,0.84375 0.30564,1.636049 -1.39186,2.491429 -4.84375,2.437499 -2.22934,-0.018 -3.53125,0.10532 -3.53125,0.375 0,0.12585 1.05361,0.14768 3.03125,0.0937 2.64285,-0.0719 3.14088,-0.12245 4.09375,-0.5 0.86297,-0.34159 1.14984,-0.58564 1.4375,-1.125 0.19776,-0.377549 0.47647,-0.656249 0.65625,-0.656249 0.41351,0 0.40664,-0.0775 -0.3125,-1.15625 -0.7551,-1.11467 -0.78079,-1.23372 -0.1875,-1 0.2517,0.0899 0.46875,0.1297 0.46875,0.09375 0.018,-0.0539 0.0445,-0.17809 0.0625,-0.25 0,-0.0899 0.42168,-0.03341 0.78125,-0.375 l 0.5,-0.59375 0.65625,0.84375 c 1.24052,1.95966 3.61487,3.972209 6.4375,4.781249 1.15063,0.34159 5.12984,1.04583 7.71875,1.53125 0.73712,0.12585 2.87552,0.56466 4.78125,0.90625 3.86539,0.71914 5.61741,0.86898 8.0625,0.4375 3.038371,-0.52138 4.294851,-2.23849 2.281251,-3.28125 -0.84499,-0.43149 -2.186651,-1.752159 -2.312501,-2.093749 -0.0539,-0.16181 -0.375,-0.65115 -0.375,-1.40625 0,-1.06073 -0.06942,-1.95123 -0.375,-2.5625 -0.5034,-0.98882 -1.48346,-1.32067 -4.59375,-2.09375 -4.11709,-1.02478 -5.74752,-1.61049 -7.4375,-2.4375 -1.81584,-0.89893 -4.0814,-2.25948 -5.25,-3.5 -0.84499,-0.89893 -2.09375,-2.78255 -2.09375,-3.25 0,-0.44946 -0.94437,-2.59977 -1.25,-3.03125 -0.26968,-0.37755 -0.27908,-0.35264 0.0625,1.625 0.17979,1.07871 -0.26072,0.01107 -0.65625,-1.625 -0.48542,-1.94168 -0.61729,-2.17502 -0.4375,-0.71875 0.17978,1.58211 0.74275,3.28426 1.15625,3.5 0.19777,0.10788 0.375,0.31165 0.375,0.4375 0,0.44946 1.74791,2.87762 2.71875,3.8125 3.1822,3.00242 5.38396,3.99497 13.3125,6.0625 2.15743,0.55734 3.02485,0.98718 3.3125,1.5625 0.12585,0.2517 0.25,1.07924 0.25,1.90625 0,0.80904 0.07964,1.6858 0.1875,1.9375 0.21574,0.46744 1.665731,1.700379 2.906251,2.437499 1.33042,0.80904 0.66167,1.38958 -2.125001,1.875 -0.88095,0.16181 -2.02314,0.28125 -2.5625,0.28125 -1.29445,0 -6.24019,-0.82793 -7.03125,-1.1875 -0.34159,-0.14383 -1.77191,-0.44521 -3.15625,-0.625 -6.49026,-0.86297 -9.89651,-2.436319 -12,-4.593749 -1.06073,-1.07871 -2.46875,-2.46065 -2.46875,-3 0,-0.35958 -0.81387,-1.61225 -2.59375,-3.5 -0.6652,-0.70116 -1.185015,-1.277421 -1.149055,-1.367311 0.018,-0.0899 -0.259385,-0.505139 -0.600945,-0.882689 -0.68318,-0.73712 -1.41011,-2.39089 -1.5,-3.34375 -0.036,-0.34159 -0.192735,-1.40887 -0.336555,-2.34375 -0.30564,-1.81584 -0.52484,-4.520769 -0.8125,-9.195189 C 65.090685,70.634131 64.26196,67.4687 63.8125,67.4687 c -0.02697,0 -0.0448,-0.01601 -0.0625,0 z"
         style="fill:#000000;stroke:none" />
      <path
         d="m 146.20694,659.90181 c 0,0.3416 0.52138,1.29446 0.71915,1.29446 0.10787,0 0.17978,-0.10787 0.17978,-0.2517 0,-0.34159 -0.88095,-1.36637 -0.89893,-1.04276 z"
         id="path9633"
         inkscape:connector-curvature="0"
         style="fill:#000000;stroke:none" />
      <path
         d="m 145.4878,662.40083 c 1.06074,0.34159 5.2857,0.53936 5.46548,0.2517 0.19776,-0.30563 -0.0899,-0.34159 -3.30805,-0.43148 -2.7687,-0.0719 -2.91253,-0.0719 -2.15743,0.17978 z"
         id="path9639"
         inkscape:connector-curvature="0"
         style="fill:#000000;stroke:none" />
      <path
         d="m 146.38673,663.71327 c 0.2517,0.0899 0.86297,0.26967 1.34839,0.4135 l 0.89893,0.26968 -1.52818,0.036 -1.52818,0.036 1.16861,0.2517 c 1.31243,0.26967 5.21378,0.34159 5.21378,0.0899 0,-0.0719 -0.57531,-0.19777 -1.29446,-0.23372 -0.9169,-0.0719 -1.34839,-0.17979 -1.51019,-0.39553 -0.19777,-0.28766 -1.90573,-0.66521 -2.85859,-0.62925 -0.30564,0 -0.28766,0.036 0.0899,0.16181 z"
         id="path9643"
         inkscape:connector-curvature="0"
         style="fill:#000000;stroke:none" />
      <path
         sodipodi:nodetypes="cccccc"
         d="m 147.57331,670.76086 c -0.0719,0.82701 -0.52128,2.4421 -0.70107,3.66464 -0.39553,2.37317 -0.17988,2.69976 -0.0181,2.55594 0.35957,-0.37755 1.15063,-4.58453 1.16861,-6.27452 0.0359,-1.72594 -0.30564,-1.68998 -0.44947,0.0539 z"
         id="path9651"
         inkscape:connector-curvature="0"
         style="fill:#000000;stroke:none" />
      <path
         d="m 136.71427,677.10729 c -0.21574,0.28765 -0.44946,0.70116 -0.52138,0.95286 -0.26968,1.07871 0.41351,3.84741 1.15063,4.72836 0.2517,0.28765 -0.036,0.79105 -2.03158,3.55975 -0.48542,0.70116 -0.53935,0.91691 -0.17978,0.91691 0.2517,0 2.37317,-3.12827 2.69678,-4.00922 0.14383,-0.37755 0.14383,-0.53936 -0.018,-0.62925 -0.12585,-0.0719 -0.43148,-0.70116 -0.70116,-1.38435 -0.59329,-1.54615 -0.66521,-3.03837 -0.19777,-3.75751 0.44947,-0.68319 0.28766,-0.98882 -0.19776,-0.37755 z"
         id="path9653"
         inkscape:connector-curvature="0"
         style="fill:#000000;stroke:none" />
      <path
         d="m 140.45381,686.16848 c 0,0.2517 1.06073,1.07871 1.54615,1.20456 0.23372,0.0539 0.43149,0.16181 0.43149,0.23372 0,0.16181 -1.68999,0.88095 -2.62487,1.11467 -0.80904,0.21574 -1.09669,0.41351 -0.82701,0.59329 0.32361,0.19777 3.63166,-1.07871 3.88336,-1.49222 0.23372,-0.35957 3.03838,-0.2517 4.09911,0.16181 1.04276,0.39553 1.85179,0.46744 2.03158,0.17978 0.0539,-0.10787 -0.0719,-0.17978 -0.32362,-0.17978 -0.25169,0 -0.79105,-0.12585 -1.22254,-0.28766 -0.44946,-0.1618 -1.74392,-0.35957 -2.96646,-0.43148 -2.1754,-0.14383 -2.98444,-0.37755 -3.46986,-0.97084 -0.26968,-0.32362 -0.55733,-0.37755 -0.55733,-0.12585 z"
         id="path9659"
         inkscape:connector-curvature="0"
         style="fill:#000000;stroke:none" />
      <path
         d="m 149.44308,689.06302 c -0.1618,0.0899 -1.27647,0.32362 -2.49902,0.52138 -1.95966,0.30564 -2.76869,0.57531 -2.51699,0.80903 0.036,0.036 0.64722,-0.0359 1.33041,-0.1618 0.70116,-0.12585 1.77988,-0.32362 2.40913,-0.43149 0.73712,-0.12585 1.31243,-0.32361 1.52817,-0.55733 0.37755,-0.37755 0.23372,-0.46744 -0.2517,-0.17979 z"
         id="path9663"
         inkscape:connector-curvature="0"
         style="fill:#000000;stroke:none" />
      <path
         d="m 137.72107,689.81812 c -0.14383,0.43149 0.0899,1.07871 0.52138,1.34839 0.55733,0.37755 0.75509,0.14383 0.26967,-0.30563 -0.43148,-0.41351 -0.52137,-1.0068 -0.1618,-1.13265 0.10787,-0.0539 0.0359,-0.10787 -0.17979,-0.10787 -0.21574,-0.018 -0.41351,0.0719 -0.44946,0.19776 z"
         id="path9665"
         inkscape:connector-curvature="0"
         style="fill:#000000;stroke:none" />
      <path
         d="m 143.43825,690.89683 c -0.23372,0.52138 -0.036,0.93489 0.57531,1.2585 0.32361,0.16181 0.73712,0.41351 0.91691,0.57532 0.35957,0.32361 0.9169,0.37755 0.9169,0.10787 0,-0.10787 -0.10787,-0.17979 -0.2517,-0.17979 -0.48542,0 -0.73712,-0.52138 -0.52138,-1.09669 0.32362,-0.84499 -0.14382,-0.57531 -0.61127,0.34159 -0.10787,0.23372 -0.75509,-0.4135 -0.80903,-0.80903 -0.0539,-0.41351 -0.10787,-0.44947 -0.21574,-0.19777 z"
         id="path9667"
         inkscape:connector-curvature="0"
         style="fill:#000000;stroke:none" />
      <path
         sodipodi:nodetypes="ccsccc"
         d="m 139.55488,691.18449 c 0,0.5034 0.82701,1.07871 1.13265,0.77308 0.14383,-0.14383 0.14383,-0.19777 -0.018,-0.19777 -0.12585,0 -0.2368,-0.33256 -0.47052,-0.58426 -0.43148,-0.46744 -0.64415,-0.35062 -0.64415,0.009 z"
         id="path9669"
         inkscape:connector-curvature="0"
         style="fill:#000000;stroke:none" />
      <path
         d="m 141.71231,691.3463 c 0,0.68318 1.20456,1.29445 1.52817,0.77308 0.10787,-0.17979 -0.12585,-0.2517 -0.57531,-0.19777 -0.10787,0.018 -0.37755,-0.19776 -0.57531,-0.44946 -0.3416,-0.43149 -0.37755,-0.43149 -0.37755,-0.12585 z"
         id="path9671"
         inkscape:connector-curvature="0"
         style="fill:#000000;stroke:none" />
      <path
         d="m 146.38673,692.91043 c 0,0.43149 0.7551,0.82702 1.56413,0.82702 0.43149,0 0.77308,-0.0899 0.77308,-0.17979 0,-0.10787 -0.32361,-0.17979 -0.71914,-0.17979 -0.48542,0 -0.84499,-0.12585 -1.07871,-0.35957 -0.43149,-0.43148 -0.53936,-0.44946 -0.53936,-0.10787 z"
         id="path9673"
         inkscape:connector-curvature="0"
         style="fill:#000000;stroke:none" />
    </g>
    <path
       transform="matrix(-0.31179892,0.43246751,0.39845379,0.29450923,-18.402653,426.13452)"
       d="m 333.94012,590.07941 c 0,72.94621 -54.95053,132.08079 -122.73545,132.08079 -0.43165,0 -0.8633,-0.002 -1.29492,-0.007"
       sodipodi:ry="132.0808"
       sodipodi:rx="122.73546"
       sodipodi:cy="590.07941"
       sodipodi:cx="211.20467"
       id="path10096"
       style="fill:none;stroke:#000000;stroke-width:0;stroke-linecap:round;stroke-miterlimit:4;stroke-opacity:1;stroke-dasharray:none;stroke-dashoffset:0"
       sodipodi:type="arc"
       sodipodi:start="0"
       sodipodi:end="1.581347"
       sodipodi:open="true" />
    <text
       xml:space="preserve"
       style="font-size:19.75px;font-style:normal;font-variant:normal;font-weight:300;font-stretch:normal;line-height:125%;letter-spacing:0px;word-spacing:0px;fill:#000000;fill-opacity:1;stroke:none;font-family:Nissan AG;-inkscape-font-specification:Nissan AG Light"
       id="text10104"
       sodipodi:linespacing="125%"
       transform="matrix(0.98222102,-0.18772819,0.18772819,0.98222102,-123.81652,-2.1926274)"><textPath
         xlink:href="#path10096"
         id="textPath10111"><tspan
   style="font-size:15px"
   id="tspan10106">физбоец</tspan></textPath></text>
    <path
       style="fill:#000000;stroke:none"
       inkscape:connector-curvature="0"
       id="path5126"
       d="m 135.93245,599.76422 c -0.37337,0.50405 -1.2644,1.26401 -1.24573,1.67472 0,0.31736 0.10935,0.45077 0.20273,0.24542 0.37337,-0.78408 1.43504,-1.58411 1.65906,-1.58411 0.13068,0 0.50405,0.28003 0.80275,0.63473 0.87742,1.0081 1.0641,2.18421 0.80274,5.17118 -0.16801,1.7735 -0.10289,0.71338 -0.0282,9.0582 0.13068,12.8066 0.13068,12.54524 0.61606,15.21483 0.68471,5.7114 0.73595,1.58544 0.50408,-0.0933 l 0.87742,1.15745 c 0.91476,1.25079 0.87742,1.40014 -0.3547,1.12011 l -0.74674,-0.16802 0.0747,1.69883 c 0.056,0.93343 0.14935,2.10955 0.24269,2.63226 0.032,3.98151 0.83288,8.18659 1.20763,11.79714 0.14935,1.84818 0.24269,2.29623 0.48538,2.29623 0.13068,0 0.14935,-0.57873 0.056,-1.73617 l -1.03965,-10.49035 1.84818,0.056 c 1.10144,0.0373 2.46424,-0.056 3.28566,-0.20535 l 1.40013,-0.26136 1.28813,0.74674 c 1.62416,0.95209 3.21098,1.60549 4.62979,1.92285 1.7175,0.37337 4.60868,0.29335 4.60868,-0.13603 0,-0.0747 -0.90668,-0.13864 -2.15747,-0.19465 -1.97887,-0.0747 -3.01127,-0.19203 -4.13138,-0.65875 -1.69883,-0.69073 -3.52834,-1.75484 -3.32299,-1.92285 0.0747,-0.0747 0.57872,-0.28003 1.08277,-0.46672 1.10145,-0.39203 4.20042,-1.86685 5.13384,-2.4269 0.3547,-0.22402 1.3068,-0.50405 2.10954,-0.63473 1.75484,-0.28003 5.13384,-1.10144 5.61922,-1.3628 0.57873,-0.31737 0.70941,0.16802 0.5974,2.44557 -0.0934,1.49348 -0.20536,2.27756 -0.42938,2.65093 -0.41071,0.69074 -2.83565,1.72829 -4.08644,2.195 -0.69074,0.26136 -1.70729,0.60284 -1.48327,0.67751 0.57873,0.22403 4.41226,-1.02433 5.32702,-1.93908 1.02677,-1.02677 1.12011,-1.40014 1.12011,-4.44311 l 0,-2.0722 1.38147,-0.76541 c 2.20288,-1.19479 4.61112,-4.12574 4.64846,-5.58188 0.0187,-1.28813 -0.0747,-1.54949 -0.72807,-2.18422 -0.61607,-0.61606 -2.18834,-1.46672 -2.18834,-1.1867 0,0.0747 1.47893,1.09336 1.83363,1.4854 0.52272,0.57872 0.6534,0.87742 0.6534,1.49348 0,0.93342 -0.3547,1.60549 -1.6615,3.21098 -1.02676,1.25079 -1.54948,1.68017 -3.24832,2.63226 -0.82141,0.46671 -0.89608,0.48538 -0.98943,0.16802 -0.0747,-0.18669 -0.37337,-0.9521 -0.67206,-1.71751 l -0.52272,-1.38147 0.74674,-0.97076 c 0.76541,-1.0081 2.0162,-3.24832 2.38957,-4.33109 0.11201,-0.3547 0.29869,-0.57873 0.44804,-0.54139 0.13068,0.056 0.69928,0.18163 1.14733,0.23764 1.04543,0.14934 0.77553,-0.2003 -0.34458,-0.48033 l -0.85875,-0.22402 0.14934,-0.87742 c 0.42938,-2.48291 -0.26135,-4.81647 -1.86685,-6.36596 -0.95209,-0.91476 -1.28812,-1.0081 -3.67769,-0.98943 -1.86685,0 -3.77104,0.54139 -6.57131,1.84818 -1.79218,0.84008 -1.82952,0.85875 -2.3149,0.52272 -0.28003,-0.18669 -1.0641,-0.61606 -1.73617,-0.98943 -3.45367,-1.82952 -6.02993,-2.38957 -8.55018,-1.88552 l -1.13061,0.20263 0.15361,-3.24433 c 0.0747,-5.76857 -0.39499,-8.35007 -0.5443,-8.81678 -0.11201,-0.37337 -0.50405,-0.98943 -0.87742,-1.38147 -0.69073,-0.72807 -1.28813,-0.89609 -1.62415,-0.48537 z m 8.35394,14.36006 c 1.08277,0.28003 4.89115,2.0162 5.56321,2.55758 0.31737,0.24269 0.24269,0.31737 -1.02677,1.12011 -0.74674,0.48538 -1.99753,1.40014 -2.76293,2.07221 -1.3068,1.10144 -1.54949,1.23212 -3.45368,1.79217 -1.12011,0.33604 -2.46424,0.85876 -2.94962,1.15745 -0.50405,0.2987 -0.7413,0.30123 -0.7973,0.30123 -0.0373,0 -0.008,-1.79471 0.0107,-4.27762 l 0.008,-4.42172 0.55461,-0.32008 c 1.0641,-0.33603 3.56568,-0.31737 4.85381,0.0187 z m 18.2578,1.25079 c 1.40013,1.4188 1.90418,2.80027 1.75483,4.83514 -0.056,0.84008 -0.16801,1.58682 -0.26135,1.68017 -0.0933,0.0933 -1.04544,-0.0373 -2.24022,-0.2987 -1.12012,-0.26136 -3.0243,-0.57872 -4.21909,-0.7094 l -2.16554,-0.26136 -1.3628,-1.28813 c -0.76541,-0.7094 -1.68017,-1.49348 -2.07221,-1.75484 -0.37337,-0.26136 -0.69073,-0.50405 -0.69073,-0.56005 0.0187,-0.18669 3.11764,-1.45615 4.57378,-1.88552 0.82141,-0.22402 1.62416,-0.48538 1.77351,-0.56006 0.14935,-0.0933 1.10144,-0.16801 2.10954,-0.16801 l 1.82951,0 z m -10.90241,2.52025 c 1.12011,0.84008 2.81894,2.33356 2.81894,2.46424 0,0.0933 -1.82951,0.20535 -4.05106,0.26136 -2.24022,0.056 -4.23775,0.14935 -4.44311,0.22402 -0.56005,0.18668 1.10144,-1.26946 2.78161,-2.42691 0.82141,-0.56005 1.6615,-1.02676 1.86685,-1.02676 0.18669,0 0.6534,0.22402 1.02677,0.50405 z m 5.28319,5.11517 c 1.66149,2.09087 3.32299,4.72313 3.32299,5.30185 0,0.54139 -3.22965,3.62169 -5.41387,5.13384 -0.59739,0.42938 -0.80274,0.46671 -2.57625,0.42938 -1.06411,-0.0187 -3.78971,-0.2987 -6.06727,-0.61606 l -4.1444,-0.57873 -0.97077,-1.0641 c -0.54138,-0.57873 -1.12011,-1.32547 -1.28812,-1.64283 -0.31737,-0.57872 -0.31737,-0.59739 0.39204,-1.96019 0.93342,-1.81085 2.24022,-3.69637 3.71503,-5.30186 1.19478,-1.30679 1.19478,-1.30679 2.3709,-1.41881 0.6534,-0.056 3.00563,-0.11201 5.20851,-0.0933 l 4.01373,0.0187 1.43748,1.79218 z m 1.82951,-1.51215 c 0.76541,0.11201 2.22155,0.37337 3.22965,0.59739 1.81085,0.39204 1.82951,0.41071 1.7175,0.87742 -0.22402,0.89609 -1.21345,2.76294 -2.0722,3.93905 l -0.85875,1.15745 -0.41071,-0.80274 c -0.7094,-1.40014 -1.41881,-2.42691 -4.10707,-5.91792 -0.14935,-0.20535 -0.056,-0.24269 0.46671,-0.14935 0.3547,0.056 1.26946,0.18669 2.03487,0.2987 z m -15.81222,1.62416 c -1.19479,1.3628 -2.03487,2.57625 -3.13631,4.61112 -0.85875,1.58682 -0.78933,1.44545 -0.93868,-1.67219 l -0.0453,-2.08816 0.66662,-0.57074 c 0.85875,-0.48539 4.34976,-1.75484 4.49911,-1.6055 0.0373,0.0373 -0.42937,0.63473 -1.04544,1.32547 z m 18.35114,7.41139 c 0.54138,1.49348 0.54138,1.71751 0.13068,1.84819 -1.64283,0.50405 -3.15498,0.87742 -4.16308,1.0641 -0.67207,0.11201 -1.41881,0.26136 -1.68017,0.31737 -0.31736,0.0747 -0.0373,-0.2427 0.93343,-1.02677 0.76541,-0.61606 1.97886,-1.7175 2.70693,-2.44558 0.72807,-0.74674 1.3628,-1.25079 1.45614,-1.15744 0.0933,0.0933 0.37337,0.72807 0.61607,1.40013 z m -17.64174,4.79781 c 1.19478,1.23212 2.10954,2.25889 2.05353,2.29623 -0.74674,0.46671 -5.18984,0.61606 -5.60055,0.20535 -0.0933,-0.11201 -0.28003,-0.95209 -0.39204,-1.86685 -0.0933,-0.93343 -0.24269,-2.0162 -0.29869,-2.40824 l -0.11201,-0.72807 1.08277,0.13068 1.08277,0.13068 z m 1.99753,-1.68017 c 1.51215,0.22403 3.88305,0.50405 5.26452,0.61606 l 2.52024,0.2427 -2.14687,1.02676 c -1.17612,0.57873 -2.68827,1.23212 -3.36033,1.47482 l -1.21346,0.4107 -0.97076,-0.69073 c -0.82141,-0.57873 -2.70693,-2.53892 -3.11764,-3.24832 -0.16802,-0.2987 -0.22402,-0.2987 3.0243,0.16801 z"
       sodipodi:nodetypes="cccscccccccccccscccccccscccccccccccssccccscsccccccccccccccccccccccccccccccsccccccccccccccccscssscccsccscccccccccccccscccccccccccccccccccccccccccccccccccccccc" />
    <path
       style="fill:#000000;stroke:none"
       inkscape:connector-curvature="0"
       id="path5130"
       d="m 134.5601,605.25276 c 0.22402,7.59808 0.31736,9.85697 0.50405,12.93727 0.11201,1.69884 0.16801,3.50968 0.14934,4.0324 -0.0187,0.52272 0,1.02677 0.056,1.13878 0.056,0.0933 0.3356,2.52132 0.41027,3.69743 0.056,1.17612 0.42753,2.6554 0.50221,3.40214 0.16801,1.32547 -0.0865,-6.49024 -0.72124,-5.42614 -1.3068,2.18421 -1.76265,5.22509 -0.11983,6.19585 0.74674,0.42938 1.96732,11.64277 2.00465,12.76288 0,0.54139 0.0933,1.41881 0.20536,1.97886 0.0933,0.54139 0.18668,1.43748 0.18668,1.97886 0,1.32547 0.3547,3.00563 0.57873,2.6696 0.0933,-0.14935 0.11201,-0.69074 0.0747,-1.19479 -0.056,-0.52271 -0.13068,-1.43747 -0.18668,-2.05353 -0.056,-0.61606 -0.16802,-1.7175 -0.28003,-2.42691 -0.37337,-2.66959 -1.21733,-10.8872 -1.10531,-11.50326 0.0747,-0.3547 0.0373,-1.08277 -0.0747,-1.62416 -0.29869,-1.49348 -0.72807,-5.71256 -0.84008,-8.38216 -0.056,-1.28813 -0.18669,-3.67769 -0.2987,-5.32052 -0.29869,-5.02183 -0.59739,-11.4438 -0.63473,-14.1694 -0.0187,-2.03486 0.12284,-2.5362 -0.0639,-2.5922 -0.22403,-0.0747 -0.45883,0.46399 -0.34682,3.899 z m 0.91851,22.13272 c 0,0.80275 0.0472,1.96861 0.12182,2.54733 0.14935,1.19479 0.16983,1.27901 -0.5022,0.56961 -0.46671,-0.48538 -0.43367,-1.33976 -0.43367,-1.99315 0,-0.56006 0.46662,-2.19034 0.69064,-2.19034 0.0933,0 0.10474,0.28248 0.12341,1.06655 z"
       sodipodi:nodetypes="ccccccccccsccscccccccccccsscc" />
    <path
       style="fill:#000000;stroke:none"
       inkscape:connector-curvature="0"
       id="path5138"
       d="m 146.28271,645.53939 c -3.95772,0.056 -0.97885,-2.14906 -1.46571,-2.2509 -1.65856,1.2 -1.77504,1.60992 -2.75338,2.12921 -0.46604,2.07158 0.63752,4.64506 -0.63345,5.08748 -1.17612,0 -0.78408,0.31737 0.50405,0.41071 l 0.98943,0.056 0.3547,1.12011 c 0.41071,1.30679 0.48538,3.52834 0.13068,3.39766 -0.13068,-0.0373 -0.87742,0.13068 -1.64283,0.35471 -1.84818,0.57872 -2.55759,0.57872 -3.19232,-0.0373 -0.7654,-0.72807 -0.80274,-0.24269 -0.0747,0.78408 0.74674,1.02676 0.93343,2.27755 0.33603,2.03486 -0.18668,-0.056 -1.04543,-0.28002 -1.92285,-0.48538 -1.88552,-0.42937 -3.22965,-1.19478 -4.05107,-2.29622 -0.52272,-0.69074 -0.61606,-0.9521 -0.61606,-1.84819 0,-1.56815 2.48378,-4.50591 3.43587,-4.87928 0.31737,-0.11201 2.22155,-1.82951 2.22155,-1.99753 0,-0.0373 -0.48538,0.16802 -1.0641,0.46671 -2.52025,1.28813 -5.76943,5.75671 -4.85468,7.69823 0.80275,1.69884 2.44558,2.7256 5.52588,3.43501 1.77351,0.4107 1.79218,0.4107 1.90419,1.02676 0.14935,0.70941 0.74674,1.56816 0.97076,1.34414 0.0747,-0.0747 0,-0.37337 -0.16802,-0.67207 -0.16801,-0.2987 -0.3547,-1.02677 -0.42937,-1.62416 -0.056,-0.61606 -0.22402,-1.26946 -0.3547,-1.49348 -0.24269,-0.37337 -0.18669,-0.39204 1.10144,-0.61606 0.74674,-0.11201 1.51215,-0.33603 1.7175,-0.46671 0.18669,-0.13068 0.57872,-0.2987 0.87742,-0.37337 l 0.50405,-0.11201 -0.0373,2.46424 c -0.0373,1.69883 0.0187,2.70693 0.18669,3.17364 0.31736,0.89609 0.7094,0.97077 0.48538,0.0933 -0.0933,-0.31737 -0.16802,-2.40824 -0.16802,-4.61112 0,-3.41634 -0.056,-4.12574 -0.33603,-4.7418 -0.20535,-0.46672 -0.26136,-0.80275 -0.14935,-0.91476 0.11201,-0.11201 1.28813,-0.14935 2.85628,-0.0933 2.05354,0.0747 3.13631,0.0187 4.72313,-0.26136 3.00563,-0.48538 2.80028,-0.56006 2.80028,0.91475 0,1.45615 0.31736,1.86685 0.48538,0.61606 0.056,-0.46671 0.13068,-0.65339 0.13068,-0.42937 0.0373,0.42937 0.3547,0.72807 0.56006,0.54139 0.14934,-0.16802 -0.31737,-1.41881 -0.67207,-1.84819 -0.26136,-0.29869 -0.24269,-0.31736 0.3547,-0.31736 0.3547,-0.0187 0.97076,-0.13068 1.38147,-0.28003 0.41071,-0.14935 0.93343,-0.28003 1.13878,-0.28003 0.22402,0 0.50405,-0.13068 0.63473,-0.28002 0.42937,-0.52272 -0.26136,-0.50405 -2.53892,0.056 -2.3709,0.59739 -5.22718,1.15745 -5.84324,1.15745 -0.53564,-1.37845 -0.041,-5.0971 0.44774,-5.43578 1.57142,-1.08893 1.01759,-1.52594 -0.84586,0.0679 -0.0334,0.33436 -0.43054,0.84657 -0.51247,1.30744 -0.24024,1.35127 0.0931,2.62447 0.0892,4.1164 l -2.16555,-0.14934 c -1.19479,-0.0747 -2.53892,-0.11201 -2.98696,-0.11201 -1.33394,0.27427 -1.04883,-1.07799 -1.12114,-2.1032 -0.14022,-1.64862 0.14271,-2.73612 0.6087,-2.87078 0.59444,-0.17178 1.45217,0.8085 2.95599,0.76195 3.37899,-0.11201 5.54439,-1.98093 5.54439,-2.29827 -0.33027,-0.38309 0.0601,-0.25407 -0.29047,-0.34792 -2.56338,1.97675 -2.98939,1.91272 -5.06653,1.91111 z"
       sodipodi:nodetypes="ccccccccccccccscsccccsccccccccccscsccscccccsscccscaccccsccccc" />
    <path
       style="fill:#000000;stroke:none"
       d="m 162.03654,646.42267 c 1.66963,2.19088 2.11671,5.29759 2.01176,8.12491 0.13684,4.26037 -0.71462,8.41527 -0.2284,12.6719 0.39187,5.31156 1.59278,10.90284 5.16696,15.03072 3.64674,3.7202 8.83308,4.96117 13.71553,6.15044 2.274,0.17971 3.85345,2.02305 3.29101,4.38771 -0.25923,0.97896 0.25984,1.80018 0.98203,2.35975 1.20403,1.01176 4.10475,2.1522 0.94072,2.80085 -4.27757,0.99446 -7.95845,0.0729 -12.10541,-1.01586 -4.59795,-0.74476 -9.53594,-1.21373 -13.38885,-4.09416 -2.56506,-1.9627 -3.32726,-5.26629 -5.68,-7.43554 -1.93922,-2.06398 -3.76053,-4.53004 -3.81185,-7.47265 -0.98014,-5.4331 -0.93716,-10.94419 -1.83665,-16.38311 -0.65917,-2.05737 3.30119,-1.0641 4.54044,-2.07202 2.05249,-0.96057 4.14647,-2.49697 5.80425,-4.05124 1.09756,-0.57372 1.30496,-2.7468 0.11434,-0.87892 -2.45852,2.47283 -5.72085,4.15194 -9.17974,4.80494 -2.21746,0.59223 -4.717,1.13742 -6.05143,3.25202 1.52086,-0.99174 4.88932,-3.28689 4.35093,0.28527 0.39894,3.0519 0.42222,6.12602 0.91156,9.1633 0.44834,4.06821 0.23178,8.65043 2.87932,12.04092 1.50284,1.77678 4.05549,3.37864 4.02304,5.92754 -1.9029,1.89163 -4.88403,-0.19939 -7.20486,1.10963 -2.09064,-0.17091 -5.02,-1.17666 -6.06188,-3.0431 -0.29933,-2.28614 0.005,-4.61897 -0.30152,-6.89787 -0.26396,2.47809 -0.39378,5.06438 -0.006,7.53858 1.05683,1.49857 3.21492,1.67416 4.70627,2.71021 1.02325,0.81242 2.25573,-0.23506 3.39086,-0.23868 2.39093,-1.47351 5.3818,2.39879 2.7411,3.85475 -2.32622,1.10142 -5.36333,0.32131 -7.7478,1.02092 1.9359,0.47741 4.96983,0.0786 7.11423,-0.30449 2.40251,-0.18627 2.10586,-2.99387 1.80852,-4.28678 1.43113,-0.37229 2.19815,-2.37305 3.02152,-0.0843 3.15039,4.15961 8.15485,5.08652 12.90387,6.07601 3.91039,0.63427 8.19589,1.70059 12.16776,1.81741 1.49796,-0.22596 6.83058,-0.54201 5.13955,-2.88625 -0.99947,-1.05222 -3.13893,-1.72476 -3.1922,-3.34124 -0.10291,-1.65811 -0.0674,-4.31679 -2.05113,-4.92035 -4.88016,-1.60739 -10.02301,-2.01425 -14.04319,-5.53779 -2.11124,-1.34661 -2.82477,-3.4806 -3.79533,-5.66504 -2.4057,-5.89988 -3.4835,-12.28399 -2.32871,-18.52041 0.30802,-3.14133 0.84787,-6.82518 -0.53953,-9.70701 -0.57273,-0.74334 -1.13435,-1.97325 -2.17104,-2.29101 -2e-5,-10e-6 -5e-5,4e-5 -5e-5,4e-5 z"
       id="path5140"
       inkscape:connector-curvature="0"
       sodipodi:nodetypes="ccccccccccccccccccccccccccccccccccccccccccsc" />
    <path
       style="fill:#000000;stroke:none"
       inkscape:connector-curvature="0"
       id="path5142"
       d="m 138.68584,647.33157 c -0.0747,0.11201 0.14934,0.18668 0.54138,0.18668 0.37337,0 0.67207,-0.0933 0.67207,-0.18668 0,-0.11201 -0.24269,-0.18669 -0.54139,-0.18669 -0.31736,0 -0.61606,0.0747 -0.67206,0.18669 z" />
    <path
       style="fill:#000000;stroke:none"
       inkscape:connector-curvature="0"
       id="path5148"
       d="m 136.57629,649.66513 c -0.13067,0.26136 -0.22402,1.02677 -0.22402,1.68017 0,0.95209 0.0747,1.28812 0.42938,1.7175 0.22402,0.28003 0.56005,0.85875 0.74674,1.25079 0.26136,0.54139 0.39204,0.67207 0.56005,0.50405 0.14935,-0.14935 0.14935,-0.26136 -0.0187,-0.42938 -0.13068,-0.13068 -0.22403,-0.46671 -0.22403,-0.76541 0,-0.28002 -0.0747,-0.48538 -0.16801,-0.4107 -0.0933,0.056 -0.3547,-0.13068 -0.56006,-0.39204 -0.48538,-0.63473 -0.56005,-2.55759 -0.0933,-3.21098 0.22402,-0.33604 0.24269,-0.41071 0.0187,-0.41071 -0.14935,0 -0.3547,0.20535 -0.46672,0.46671 z" />
    <path
       style="fill:#000000;stroke:none"
       inkscape:connector-curvature="0"
       id="path5150"
       d="m 137.15502,650.63589 c -0.13068,0.0373 -0.24269,0.16802 -0.24269,0.26136 0,0.22402 4.03757,0.0697 4.33458,-0.22402 -0.002,-0.33784 -3.68118,-0.20535 -4.09189,-0.0373 z"
       sodipodi:nodetypes="csccc" />
    <path
       style="fill:#000000;stroke:none"
       inkscape:connector-curvature="0"
       id="path5152"
       d="m 137.41638,651.7 c -0.14935,0.37337 0.16801,1.23212 0.44804,1.23212 0.13068,0 0.14935,-0.20535 0.0747,-0.61606 -0.16802,-0.74674 -0.37337,-0.98943 -0.52272,-0.61606 z" />
    <path
       style="fill:#000000;stroke:none"
       inkscape:connector-curvature="0"
       id="path5154"
       d="m 141.87815,657.35656 c -0.0747,0.22402 -0.056,0.56005 0.056,0.74674 0.14934,0.29869 0.28002,1.4188 0.22402,2.03486 -0.0187,0.11201 -0.28003,0.26136 -0.61606,0.33604 -0.57873,0.11201 -0.57873,0.11201 -0.22402,0.50405 0.31736,0.3547 0.3547,0.78407 0.4107,5.00315 0.056,3.49102 0,5.05917 -0.22402,6.55265 -0.80275,5.24585 -0.87742,5.52588 -2.48291,9.59561 -0.63473,1.56816 -1.04544,2.87495 -1.04544,3.30433 0,1.25079 0.57873,2.87495 0.91476,2.53891 0.056,-0.0373 0,-0.59739 -0.0933,-1.23212 -0.16802,-1.08277 -0.14935,-1.26946 0.39204,-2.68826 0.31736,-0.84009 0.72807,-1.73617 0.89608,-1.99753 0.98943,-1.47481 2.27756,-8.43817 2.3149,-12.5079 0.0187,-1.90419 -0.26136,-8.27015 -0.37337,-8.38216 -0.0373,-0.056 0.11201,-0.28003 0.31736,-0.50405 0.3547,-0.37337 0.39204,-0.57872 0.2987,-1.41881 -0.056,-0.56005 -0.22402,-1.28812 -0.3547,-1.64282 -0.26136,-0.61606 -0.28003,-0.61606 -0.41071,-0.24269 z" />
    <path
       style="fill:#000000;stroke:none"
       inkscape:connector-curvature="0"
       id="path5156"
       d="m 147.10533,660.13816 c -0.16801,0.44805 -0.13068,1.0081 0.0747,1.0081 0.11201,0 0.18668,-0.29869 0.18668,-0.6534 0,-0.7094 -0.0747,-0.82141 -0.26136,-0.3547 z" />
    <path
       style="fill:#000000;stroke:none"
       inkscape:connector-curvature="0"
       id="path5158"
       d="m 154.21803,659.97015 c -0.18668,0.33603 0.26136,8.62485 0.59739,11.31311 0.22403,1.62416 0.39204,3.17365 0.39204,3.45367 0,0.28003 0.22402,1.45615 0.48538,2.61359 0.44805,1.9602 0.57873,2.25889 1.81085,4.10708 0.72807,1.10144 1.90419,3.17364 2.59492,4.59245 0.7094,1.43747 1.56816,2.93095 1.92286,3.32299 0.3547,0.39204 0.65339,0.78408 0.65339,0.89609 0,0.28003 2.14688,1.69883 3.65903,2.42691 0.69074,0.33603 3.90172,0.80274 4.23775,0.61606 0.31737,-0.18669 -0.13068,-0.42938 -0.80274,-0.42938 -1.49348,0 -3.43501,-0.52272 -4.3871,-1.19478 -0.2987,-0.22403 -0.80275,-0.52272 -1.10144,-0.67207 -0.28003,-0.14935 -0.67207,-0.44804 -0.85875,-0.6534 -0.18669,-0.20535 -0.63473,-0.7094 -1.0081,-1.13878 -0.35471,-0.4107 -1.23213,-1.92285 -1.92286,-3.36033 -0.7094,-1.4188 -1.84818,-3.45367 -2.55759,-4.51778 -1.45614,-2.20288 -1.60549,-2.68826 -2.16554,-6.62732 -0.20536,-1.56815 -0.50405,-3.69636 -0.6534,-4.76046 -0.16802,-1.12011 -0.28003,-3.36033 -0.28003,-5.43254 0,-1.94152 -0.056,-3.78971 -0.11201,-4.10707 -0.11201,-0.54139 -0.33603,-0.74674 -0.50405,-0.44804 z" />
    <path
       style="fill:#000000;stroke:none"
       inkscape:connector-curvature="0"
       id="path5160"
       d="m 138.05111,666.41078 c -0.0187,5.97392 -0.44487,5.93816 -0.85562,6.89025 -0.4107,0.91476 -2.38281,2.94963 -2.83086,2.94963 -0.0933,0 -0.81624,0.74516 -1.76833,1.39856 -0.93343,0.6534 -1.88192,1.43748 -2.49798,1.75484 -1.47481,0.74674 -3.49101,2.55758 -3.41633,3.0803 0.0747,0.56006 1.12011,1.19479 2.35223,1.43748 1.79593,0.33561 2.63446,0.5905 2.43863,1.8601 -0.18669,0.41071 -0.75844,1.40689 -1.65452,2.34031 -2.48292,2.57626 -3.34167,4.49911 -2.53892,5.60055 0.41071,0.57873 2.70693,0.61606 4.29376,0.0933 1.61061,-0.51049 2.98712,-1.2676 3.88304,-2.12821 1.51215,-1.45615 2.07221,-2.33357 2.38957,-3.77104 0.33604,-1.45615 -0.0747,-1.3068 -0.52271,0.20535 -0.26136,0.87742 -0.78589,1.52227 -1.15926,1.95165 -1.27393,1.32394 -1.24527,1.18705 -2.27575,1.76338 -1.94152,1.28813 -2.48448,1.47301 -3.58593,1.6597 -3.49101,0.57872 -3.47908,-1.08772 -0.0814,-4.69074 1.69883,-1.81084 2.41498,-2.88169 2.41498,-3.60976 0,-0.48538 -0.59896,-1.30524 -1.45771,-1.45458 -1.75939,-0.23517 -3.30489,-0.51482 -3.56568,-1.50023 0.28002,-0.50405 2.2537,-1.92443 3.41115,-2.50315 1.12449,-0.59227 1.89028,-1.53944 3.01395,-2.03329 0.11201,0.0373 0.93342,-0.63473 1.84818,-1.47482 1.94152,-1.82951 2.44557,-2.76293 2.74427,-5.17117 0.22402,-1.84818 0.0747,-6.14194 -0.2987,-8.88621 -0.24269,-1.82951 -0.26135,-1.77351 -0.28002,4.23775 z"
       sodipodi:nodetypes="ccscccccccccccccccsccccccccc" />
    <path
       style="fill:#000000;stroke:none"
       inkscape:connector-curvature="0"
       id="path5162"
       d="m 144.67843,662.02368 c 0.13068,0.48538 0.78407,1.28813 0.93342,1.13878 0.14935,-0.16802 -0.50405,-1.3068 -0.80274,-1.40014 -0.13068,-0.056 -0.18669,0.056 -0.13068,0.26136 z" />
    <path
       style="fill:#000000;stroke:none"
       inkscape:connector-curvature="0"
       id="path5164"
       d="m 143.46497,664.2079 c 0.20536,0.22402 3.21099,0.63473 3.88305,0.54138 0.50405,-0.0933 0.59739,-0.056 0.48538,0.14935 -0.11201,0.20535 -0.0933,0.22402 0.11201,0.0187 0.13068,-0.11201 0.56006,-0.22402 0.9521,-0.22402 0.39204,0 0.7094,-0.0933 0.7094,-0.18669 0,-0.11201 -0.63473,-0.18668 -1.53082,-0.18668 -0.85875,0 -2.25889,-0.056 -3.1363,-0.11201 -0.87742,-0.0747 -1.53082,-0.0747 -1.47482,0 z" />
    <path
       style="fill:#000000;stroke:none"
       inkscape:connector-curvature="0"
       id="path5166"
       d="m 144.56642,665.64537 c 0.26135,0.11201 0.97076,0.2987 1.58682,0.44805 l 1.12011,0.24269 -1.58682,0.0373 -1.58683,0.0373 0.78408,0.24269 c 0.69073,0.22402 3.39767,0.37337 5.15251,0.2987 1.02676,-0.0373 0.46671,-0.33604 -0.82142,-0.42938 -0.82141,-0.0747 -1.38147,-0.20535 -1.49348,-0.3547 -0.14935,-0.24269 -2.18421,-0.69074 -3.15497,-0.7094 l -0.46672,0 0.46672,0.18668 z" />
    <path
       style="fill:#000000;stroke:none"
       inkscape:connector-curvature="0"
       id="path5168"
       d="m 145.98522,673.97152 c -0.16802,1.41881 -0.42937,3.22966 -0.56005,4.0324 -0.13068,0.80275 -0.16802,1.38147 -0.0934,1.3068 0.28003,-0.28003 1.06411,-4.16308 1.17612,-5.84324 0.20535,-2.6696 -0.16802,-2.3149 -0.52272,0.50404 z" />
    <path
       style="fill:#000000;stroke:none"
       inkscape:connector-curvature="0"
       id="path5172"
       d="m 134.89613,679.51607 c -0.82141,1.06411 -0.72807,3.04297 0.28003,5.13384 l 0.54138,1.12011 -0.87742,1.26946 c -1.75484,2.50158 -1.88552,2.70693 -1.7175,2.87495 0.0747,0.0747 0.24269,0.0933 0.3547,0.0187 0.22403,-0.14935 2.68827,-4.01373 2.68827,-4.21909 0,-0.0933 -0.24269,-0.67206 -0.54139,-1.30679 -0.93342,-1.97886 -1.10144,-3.84571 -0.39204,-4.6858 0.13068,-0.14934 0.18669,-0.37337 0.14935,-0.48538 -0.0373,-0.13068 -0.24269,-0.0187 -0.48538,0.28003 z" />
    <path
       style="fill:#000000;stroke:none"
       inkscape:connector-curvature="0"
       id="path5178"
       d="m 138.77918,688.75698 c 0,0.26136 1.10144,1.12011 1.60549,1.25079 0.24269,0.056 0.44804,0.18669 0.44804,0.26136 0,0.14935 -2.20288,1.12011 -2.55758,1.12011 -0.48538,0 -1.23212,0.39204 -1.06411,0.56006 0.2987,0.29869 3.75237,-0.97077 4.06974,-1.47482 0.22402,-0.3547 2.91228,-0.24269 4.12574,0.16802 1.17611,0.41071 2.14688,0.48538 2.14688,0.18668 0,-0.11201 -0.18669,-0.18668 -0.42938,-0.18668 -0.22402,0 -0.93343,-0.16802 -1.53082,-0.39204 -0.84008,-0.29869 -1.40014,-0.37337 -2.16554,-0.29869 -1.56816,0.13067 -3.49101,-0.37338 -4.08841,-1.06411 -0.26136,-0.33603 -0.56005,-0.39204 -0.56005,-0.13068 z" />
    <path
       style="fill:#000000;stroke:none"
       inkscape:connector-curvature="0"
       id="path5186"
       d="m 147.92675,691.79995 c -0.26136,0.0933 -1.47482,0.3547 -2.70694,0.54138 -2.03486,0.33604 -2.74427,0.56006 -2.50158,0.80275 0.0747,0.0933 1.17612,-0.0747 4.31243,-0.67207 0.59739,-0.11201 1.17611,-0.31736 1.28812,-0.46671 0.2987,-0.3547 0.16802,-0.42938 -0.39203,-0.20535 z" />
    <path
       style="fill:#000000;stroke:none"
       inkscape:connector-curvature="0"
       id="path5188"
       d="m 135.9789,692.88272 c 0,0.54139 0.54139,1.3068 0.93343,1.3068 0.11201,0 0.18668,-0.13068 0.18668,-0.28003 0,-0.14935 -0.13068,-0.28003 -0.28002,-0.28003 -0.37337,0 -0.5974,-0.93342 -0.26136,-1.13878 0.18668,-0.11201 0.14934,-0.16801 -0.14935,-0.16801 -0.3547,0 -0.42938,0.11201 -0.42938,0.56005 z" />
    <path
       style="fill:#000000;stroke:none"
       inkscape:connector-curvature="0"
       id="path5190"
       d="m 141.87815,693.6668 c -0.24269,0.54138 -0.0373,0.97076 0.59739,1.30679 0.33604,0.16802 0.76541,0.42938 0.9521,0.5974 0.18668,0.16801 0.42937,0.29869 0.54138,0.29869 0.3547,0 0.26136,-0.33603 -0.16801,-0.57872 -0.33604,-0.16802 -0.37337,-0.31737 -0.2987,-0.87742 l 0.11201,-0.69074 -0.41071,0.52272 c -0.3547,0.42938 -0.46671,0.46671 -0.72807,0.28003 -0.16801,-0.13068 -0.33603,-0.44805 -0.39204,-0.7094 -0.056,-0.39204 -0.0933,-0.41071 -0.20535,-0.14935 z" />
    <path
       style="fill:#000000;stroke:none"
       inkscape:connector-curvature="0"
       id="path5192"
       d="m 137.86442,693.94683 c -0.0187,0.4107 0.67207,1.04543 0.9521,0.87741 0.24269,-0.14934 0.16801,-0.44804 -0.11202,-0.44804 -0.13068,0 -0.39203,-0.18668 -0.54138,-0.42937 l -0.2987,-0.41071 0,0.41071 z" />
    <path
       sodipodi:nodetypes="cscccc"
       style="fill:#000000;stroke:none"
       inkscape:connector-curvature="0"
       id="path5194"
       d="m 140.0113,693.94683 c -0.33603,0.33603 0.86964,1.27217 1.54171,1.27217 0.52272,0 0.37064,-0.45874 -0.17077,-0.53341 -0.18668,-0.0373 -0.77357,-0.27205 -0.94158,-0.47741 -0.16802,-0.20535 -0.35471,-0.31736 -0.42938,-0.26135 z" />
    <path
       sodipodi:nodetypes="cscccc"
       style="fill:#000000;stroke:none"
       inkscape:connector-curvature="0"
       id="path5196"
       d="m 144.93979,695.739 c 0,0.46671 1.58194,0.87742 2.4407,0.87742 1.0641,0 0.64251,-0.34672 -0.42155,-0.4774 -0.46671,-0.0373 -1.45906,-0.19466 -1.64574,-0.36268 -0.33604,-0.2987 -0.37337,-0.2987 -0.37337,-0.0373 z" />
    <path
       style="fill:none;stroke:#000000;stroke-width:0.40000001;stroke-linecap:round;stroke-linejoin:miter;stroke-miterlimit:4;stroke-opacity:1;stroke-dasharray:none"
       d="m 150.09866,641.42658 c 0.58751,4.90348 11.56701,4.2096 12.61014,5.60043"
       id="path3220"
       inkscape:connector-curvature="0"
       sodipodi:nodetypes="cc" />
    <path
       style="fill:#000000;stroke:none"
       inkscape:connector-curvature="0"
       id="path4718"
       d="m 149.06611,625.37359 c -0.44954,0.10704 -1.96937,1.56265 -2.11923,2.01219 -0.14984,0.40672 0.57797,1.81953 1.0061,1.99078 0.19266,0.0642 1.0489,0.12843 1.90516,0.12843 2.39749,0 2.99687,-0.72781 2.0764,-2.52593 -0.685,-1.34859 -1.7339,-1.92656 -2.86843,-1.60547 z m 1.17733,1.66969 c 0.19266,0.44952 0.17125,0.59938 -0.14984,0.96328 -0.53515,0.59937 -1.13453,0.55657 -1.30578,-0.10703 -0.0642,-0.29969 -0.23546,-0.53516 -0.3425,-0.53516 -0.12843,0 -0.17125,0.23547 -0.12843,0.53516 0.12843,0.59937 -0.0642,0.68499 -0.47093,0.21406 -0.57797,-0.7064 0.27827,-1.60546 1.56265,-1.60546 0.42812,0 0.66358,0.14984 0.83483,0.53515 z m 1.43423,1.51985 c -0.3639,0.44952 -0.6636,0.3639 -0.3639,-0.10704 0.14984,-0.23547 0.34249,-0.36391 0.42811,-0.29968 0.10704,0.0428 0.0856,0.23545 -0.0642,0.40672 z" />
    <path
       style="fill:none;stroke:#000000;stroke-width:0.41857132;stroke-linecap:round;stroke-linejoin:miter;stroke-miterlimit:4;stroke-opacity:1;stroke-dasharray:none"
       d="m 140.65798,645.85777 c 1.41272,-0.84727 4.45932,-1.35578 5.12595,-4.82513"
       id="path11066"
       inkscape:connector-curvature="0"
       sodipodi:nodetypes="cc" />
    <path
       style="fill:none;stroke:#000000;stroke-width:0.40000001;stroke-linecap:round;stroke-linejoin:miter;stroke-miterlimit:4;stroke-opacity:1;stroke-dasharray:none"
       d="m 153.98543,650.06111 c 0.25907,-1.98639 -1.43593,-5.27374 -2.40801,-6.24583"
       id="path11068"
       inkscape:connector-curvature="0"
       sodipodi:nodetypes="cc" />
  </g>
</svg>
